ver4/sim/Bicubic.vcd
$date
	Mon Aug 18 14:44:13 2025
$end

$version
	Synopsys VCS version W-2024.09-SP2_Full64
$end

$timescale
	1ps
$end

$comment Csum: 1 1014ac1b65eed0ef $end


$scope module testfixture $end
$var integer 32 ! fd $end
$var integer 32 " i $end
$var integer 32 # j $end
$var integer 32 $ patnum $end
$var reg 1 % CLK $end
$var reg 1 & RST $end
$var reg 7 ' V0 [6:0] $end
$var reg 7 ( H0 [6:0] $end
$var reg 5 ) SW [4:0] $end
$var reg 5 * SH [4:0] $end
$var reg 6 + TW [5:0] $end
$var reg 6 , TH [5:0] $end
$var wire 1 - DONE $end
$var reg 2 . state [1:0] $end
$var reg 2 / rst_count [1:0] $end
$var reg 32 0 pat_n [31:0] $end
$var reg 31 1 cycle_pat [30:0] $end
$var integer 32 2 charcount $end
$var integer 32 3 freturn $end
$var integer 32 4 wait_done $end
$var integer 32 5 error_pixels $end
$var integer 32 6 total_error_pixels $end
$var reg 8 7 pv [7:0] $end
$var integer 32 8 idx $end

$scope task score $end
$var integer 32 9 error_pixels $end
$upscope $end


$scope begin READ_PATTERN $end
$upscope $end


$scope module u_Bicubic $end
$var wire 1 % CLK $end
$var wire 1 & RST $end
$var wire 7 ' V0 [6:0] $end
$var wire 7 ( H0 [6:0] $end
$var wire 5 ) SW [4:0] $end
$var wire 5 * SH [4:0] $end
$var wire 6 + TW [5:0] $end
$var wire 6 , TH [5:0] $end
$var reg 1 - DONE $end
$var reg 7 : coord_h [6:0] $end
$var reg 7 ; coord_h_next [6:0] $end
$var reg 7 < coord_v [6:0] $end
$var reg 7 = coord_v_next [6:0] $end
$var reg 7 > prev_coord_h [6:0] $end
$var reg 7 ? prev_coord_h_next [6:0] $end
$var reg 7 @ prev_coord_v [6:0] $end
$var reg 7 A prev_coord_v_next [6:0] $end
$var reg 1 B DONE_next $end
$var reg 7 C quot_h [6:0] $end
$var reg 7 D quot_h_next [6:0] $end
$var reg 7 E quot_v [6:0] $end
$var reg 7 F quot_v_next [6:0] $end
$var reg 7 G rem_h [6:0] $end
$var reg 7 H rem_h_next [6:0] $end
$var reg 7 I rem_v [6:0] $end
$var reg 7 J rem_v_next [6:0] $end
$var reg 7 K next_rem_h [6:0] $end
$var reg 7 L next_rem_h_next [6:0] $end
$var reg 7 M next_rem_v [6:0] $end
$var reg 7 N next_rem_v_next [6:0] $end
$var reg 3 O cycle_cnt [2:0] $end
$var reg 3 P cycle_cnt_next [2:0] $end
$var reg 8 Q cycle_cnt_lv2 [7:0] $end
$var reg 8 R cycle_cnt_lv2_next [7:0] $end
$var reg 1 S mode $end
$var reg 1 T mode_next $end
$var reg 1 U prev_mode $end
$var reg 1 V prev_mode_next $end
$var reg 1 W next_mode $end
$var reg 1 X next_mode_next $end
$var reg 8 Y x1 [7:0] $end
$var reg 8 Z x1_next [7:0] $end
$var reg 8 [ x2 [7:0] $end
$var reg 8 \ x2_next [7:0] $end
$var reg 8 ] x3 [7:0] $end
$var reg 8 ^ x3_next [7:0] $end
$var reg 1 _ state $end
$var reg 1 ` state_next $end
$var reg 3 a line_shift [2:0] $end
$var wire 8 b ROM_data_o [7:0] $end
$var wire 8 c SRAM_data_o [7:0] $end
$var reg 14 d SRAM_addr [13:0] $end
$var reg 14 e ROM_addr [13:0] $end
$var reg 8 f SRAM_data_i [7:0] $end
$var reg 1 g ROM_CEN $end
$var reg 1 h SRAM_WEN $end
$var reg 1 i SRAM_CEN $end
$var reg 7 j calc_addr [6:0] $end
$var wire 8 k frac_val [7:0] $end
$var wire 8 l cubic_val [7:0] $end
$var wire 16 m x_x_raw_round [15:0] $end
$var wire 16 n x2_x_raw_round [15:0] $end
$var wire 1 o X_valid $end
$var wire 1 p V_valid $end
$var wire 24 q X_in [23:0] $end
$var wire 8 r P_in [7:0] $end
$var reg 7 s divider [6:0] $end
$var reg 7 t dividend [6:0] $end
$var reg 7 u ROM_addr_v [6:0] $end
$var reg 7 v ROM_addr_h [6:0] $end
$var reg 8 w signed_temp [7:0] $end

$scope module cubic_engine $end
$var wire 1 % clk $end
$var wire 1 & rst $end
$var wire 24 q X_in [23:0] $end
$var wire 8 r P_in [7:0] $end
$var wire 3 O cycle_cnt [2:0] $end
$var reg 8 l out [7:0] $end
$var reg 8 l XCP [7:0] $end
$var reg 8 x XCP_next [7:0] $end
$var wire 12 y XC0_prod0 [11:0] $end
$var wire 12 z XC0_prod1 [11:0] $end
$var wire 12 { XC0_prod2 [11:0] $end
$var wire 12 | XC0_prod3 [11:0] $end
$var wire 12 } XC1_prod0 [11:0] $end
$var wire 12 ~ XC1_prod1 [11:0] $end
$var wire 12 "! XC1_prod2 [11:0] $end
$var wire 12 "" XC1_prod3 [11:0] $end
$var wire 12 "# XC2_prod0 [11:0] $end
$var wire 12 "$ XC2_prod1 [11:0] $end
$var wire 12 "% XC2_prod2 [11:0] $end
$var wire 12 "& XC2_prod3 [11:0] $end
$var wire 12 "' XC3_prod0 [11:0] $end
$var wire 12 "( XC3_prod1 [11:0] $end
$var wire 12 ") XC3_prod2 [11:0] $end
$var wire 12 "* XC3_prod3 [11:0] $end
$var wire 14 "+ XC_sum0 [13:0] $end
$var wire 14 ", XC_sum1 [13:0] $end
$var wire 14 "- XC_sum2 [13:0] $end
$var wire 14 ". XC_sum3 [13:0] $end
$var wire 13 "/ XC_sum0_round_shift [12:0] $end
$var wire 13 "0 XC_sum1_round_shift [12:0] $end
$var wire 13 "1 XC_sum2_round_shift [12:0] $end
$var wire 13 "2 XC_sum3_round_shift [12:0] $end
$var wire 19 "3 XC0P0_prod [18:0] $end
$var wire 19 "4 XC1P1_prod [18:0] $end
$var wire 19 "5 XC2P2_prod [18:0] $end
$var wire 19 "6 XC3P3_prod [18:0] $end
$var wire 21 "7 XCP_sum [20:0] $end
$var wire 13 "8 XCP_sum_round_shift [12:0] $end
$var wire 8 "9 XCP_sum_round_shift_clamp [7:0] $end
$upscope $end


$scope module sns_divider $end
$var wire 1 % clk $end
$var wire 1 & rst $end
$var wire 3 O cycle_cnt [2:0] $end
$var wire 7 s divider [6:0] $end
$var wire 7 t dividend [6:0] $end
$var wire 8 k frac_val [7:0] $end
$var reg 8 ": remainder [7:0] $end
$var reg 8 k qoutient [7:0] $end
$var wire 8 "; remainder_shift [7:0] $end
$var wire 1 "< isGE $end
$var wire 8 "= remainder_next [7:0] $end
$var wire 8 "> qoutient_next [7:0] $end
$upscope $end

$upscope $end

$upscope $end

$enddefinitions $end

#0
$dumpvars
0%
xB
xg
1&
1i
1h
x"<
xS
xT
xW
xX
xU
xV
x`
xo
xp
x-
x_
b1010001 (
bxxxxxxxx r
b00000000000000 e
b0000000 v
b0000000 u
b01111 *
b00000000000000 d
bxxxxxxxx f
b10001 )
b011100 ,
b010110 +
b0010010 '
bxxxxxxxxxxxxxxxxxxx "3
bxxxxxxxxxxxx y
bxxxxxxxxxxxx z
bxxxxxxxxxxxx {
bxxxxxxxxxxxx |
bxxxxxxxxxxxxxxxxxxx "4
bxxxxxxxxxxxx }
bxxxxxxxxxxxx ~
bxxxxxxxxxxxx "!
bxxxxxxxxxxxx ""
bxxxxxxxxxxxxxxxxxxx "5
bxxxxxxxxxxxx "#
bxxxxxxxxxxxx "$
bxxxxxxxxxxxx "%
bxxxxxxxxxxxx "&
bxxxxxxxxxxxxxxxxxxx "6
bxxxxxxxxxxxx "'
bxxxxxxxxxxxx "(
bxxxxxxxxxxxx ")
bxxxxxxxxxxxx "*
bxxxxxxxx l
bxxxxxxxx x
bxxxxxxxxxxxxxxxxxxxxx "7
bxxxxxxxxxxxxx "8
bxxxxxxxx "9
bxxxxxxxxxxxxxx "+
bxxxxxxxxxxxxx "/
bxxxxxxxxxxxxxx ",
bxxxxxxxxxxxxx "0
bxxxxxxxxxxxxxx "-
bxxxxxxxxxxxxx "1
bxxxxxxxxxxxxxx ".
bxxxxxxxxxxxxx "2
bxxxxxxxxxxxxxxxxxxxxxxxx q
b0000000 j
b00000000000000000000000000000000 2
bxxxxxxx :
bxxxxxxx ;
bxxxxxxx <
bxxxxxxx =
bxxx O
bxxxxxxxx Q
bxxxxxxxx R
bxxx P
b0000000000000000000000000000000 1
b0000000 t
b0000000 s
bxxxxxxxxxxxxxxxxxxxxxxxxxxxxxxxx 5
b10000000000000000000000000000011 !
b00000000000000000000000000000001 3
b00000000000000000000000000000001 "
bxxxxxxxxxxxxxxxxxxxxxxxxxxxxxxxx 8
b00000000000000000000010011010000 #
b000 a
bxxxxxxx K
bxxxxxxx M
bxxxxxxx N
bxxxxxxx >
bxxxxxxx ?
bxxxxxxx @
bxxxxxxx A
bxxxxxxxx 7
bxxxxxxxx k
bxxxxxxxx ">
b0000000 C
bxxxxxxx E
bxxxxxxx F
bxxxxxxx G
bxxxxxxx I
bxxxxxxx J
bxxxxxxxx ":
bxxxxxxxx "=
bxxxxxxx0 ";
b00 /
bxxxxxxxxxxxxxxxxxxxxxxxxxxxxxxxx 9
b00000000 w
b00 .
bxxxxxxxxxxxxxxxxxxxxxxxxxxxxxxxx 6
bxxxxxxxxxxxxxxxxxxxxxxxxxxxxxxxx 4
bxxxxxxxx Y
bxxxxxxxx Z
bxxxxxxxx [
bxxxxxxxx \
bxxxxxxxxxxxxxxxx n
bxxxxxxxx ]
bxxxxxxxx ^
bxxxxxxxxxxxxxxxx m
b00000000000000000000000000000000 0
bxxxxxxx L
bxxxxxxx H
bxxxxxxx D
bxxxxxxxxxxxxxxxxxxxxxxxxxxxxxxxx $
bxxxxxxxx b
bxxxxxxxx c
$end
#4000
1%
b0000000 :
b0000000 <
b0000000 >
b0000000 @
0-
b0000000 E
b0001110 G
b0000000 I
b0001110 K
b0000000 M
b000 O
0o
b00000000 Q
0S
0U
0W
b00000000 Y
b0000000010000000 m
b00000000 [
b0000000010000000 n
b00000000 ]
0_
0p
b00000000 l
b00000000 ":
b00000000 k
b0000000000000000000 "3
b0000000000000000000 "4
b0000000000000000000 "5
b0000000000000000000 "6
b000000000000 y
b000000000000 }
b000000000000 "#
b000000000000 "'
b000000000000 "(
b000000000000 "$
b000000000000 ~
b000000000000 z
b000000000000 ")
b000000000000 "%
b000000000000 "!
b000000000000 {
b000000000000 "*
b000000000000 "&
b000111111110 ""
b000000000000 |
0`
b00000000 R
b001 P
0B
b0000000 ;
b0000000 =
b0000000 ?
b0000000 A
b0000000 F
b0000000 N
b00000000 f
0h
b11001000000000 d
b0000000 J
0V
0T
1g
b00000000 Z
bxxxxxxxxxxxx y
bxxxxxxxxxxxx }
bxxxxxxxxxxxx "#
bxxxxxxxxxxxx "'
bxxxxxxxxxxxx "(
bxxxxxxxxxxxx "$
bxxxxxxxxxxxx ~
bxxxxxxxxxxxx z
bxxxxxxxxxxxx ")
bxxxxxxxxxxxx "%
bxxxxxxxxxxxx "!
bxxxxxxxxxxxx {
b000000000000000000000000 q
b00000000 r
b0010101 s
0"<
b00000000 \
b00000000 ^
b00000000 ";
b00000000 ">
b000000000000000000000 "7
b0000000000000 "8
bxxxxxxxxxxxxxx ".
bxxxxxxxxxxxxxx "-
bxxxxxxxxxxxxxx ",
bxxxxxxxxxxxxxx "+
b000000000000 y
b000000000000 }
b000000000000 "#
b000000000000 "'
b000000000000 "(
b000000000000 "$
b000000000000 ~
b000000000000 z
b000000000000 ")
b000000000000 "%
b000000000000 "!
b000000000000 {
b00000000 "=
b00000000 "9
b00000000000000 ".
b0000000000000 "2
b00000000000000 "-
b0000000000000 "1
b00000111111110 ",
b0000011111111 "0
b00000000000000 "+
b0000000000000 "/
b00000000 x
#5000
b01 /
b00000000000000000000000000000000 4
#8000
0%
#12000
1%
#13000
b10 /
#16000
0%
#20000
1%
#21000
b00000000000000000000000000000000 6
0&
b00 /
b01 .
#24000
0%
#28000
1%
b10 .
bxxxxxxx C
bxxxxxxx G
bxxxxxxx K
b001 O
xW
b010 P
b0000000 C
bxxxxxxxx Z
#32000
0%
#36000
1%
b0000000000000000000000000000001 1
bxxxxxxx C
b010 O
bxxxxxxxx Y
bxxxxxxxxxxxxxxxx m
bxxxxxxxxxxxxxxxx n
b011 P
b0000000 C
bxxxxxxxx \
bxxxxxxxx ^
#40000
0%
#44000
1%
b0000000000000000000000000000010 1
bxxxxxxx C
b011 O
bxxxxxxxx [
bxxxxxxxx ]
b100 P
b0000000 C
#48000
0%
#52000
1%
b0000000000000000000000000000011 1
bxxxxxxx C
b100 O
b101 P
b0000000 C
#56000
0%
#60000
1%
b0000000000000000000000000000100 1
bxxxxxxx C
b101 O
b110 P
b0000000 C
#64000
0%
#68000
1%
b0000000000000000000000000000101 1
bxxxxxxx C
b110 O
bxxxxxxxxxxxxxxxxxxx "3
bxxxxxxxxxxxxxxxxxxx "4
bxxxxxxxxxxxxxxxxxxx "5
bxxxxxxxxxxxxxxxxxxx "6
b111 P
b0000000 C
bxxxxxxxxxxxxxxxxxxxxx "7
bxxxxxxxxxxxxx "8
bxxxxxxxx "9
#72000
0%
#76000
1%
b0000000000000000000000000000110 1
bxxxxxxx C
b111 O
b0000001 t
b00000001 R
b000 P
xT
b0000000 C
0i
b00000010 ";
b00000010 "=
#80000
0%
#84000
1%
b0000000000000000000000000000111 1
bxxxxxxx C
b000 O
b00000001 Q
xS
b00000010 ":
b001 P
b0000000 C
b0000001 j
1i
b11001000000001 d
bxxxxxxxx x
b00000100 ";
b00000100 "=
#85000
b00000000 c
#88000
0%
#92000
1%
b0000000000000000000000000001000 1
bxxxxxxx C
b001 O
bxxxxxxxx l
b00000100 ":
b010 P
b0000000 C
b00000000 Z
b00001000 ";
b00001000 "=
#96000
0%
#100000
1%
b0000000000000000000000000001001 1
bxxxxxxx C
b010 O
b00000000 Y
b0000000010000000 m
b00001000 ":
b0000000000000000000 "3
b011 P
b0000000 C
b00000000 \
b00010000 ";
b00010000 "=
#104000
0%
#108000
1%
b0000000000000000000000000001010 1
bxxxxxxx C
b011 O
b00000000 [
b0000000010000000 n
b00010000 ":
b0000000000000000000 "4
b100 P
b0000000 C
b00000000 ^
b00100000 ";
1"<
b00001011 "=
b00000001 ">
#112000
0%
#116000
1%
b0000000000000000000000000001011 1
bxxxxxxx C
b100 O
b00000000 ]
b00001011 ":
b00000001 k
b0000000000000000000 "5
b101 P
b0000000 C
b00000001 f
b00010110 ";
b00000011 ">
b00000001 "=
#120000
0%
#124000
1%
b0000000000000000000000000001100 1
bxxxxxxx C
b101 O
b00000001 ":
b00000011 k
b0000000000000000000 "6
b110 P
b0000000 C
b00000011 f
b00000010 ";
0"<
b00000110 ">
b000000000000000000000 "7
b0000000000000 "8
b00000010 "=
b00000000 "9
#128000
0%
#132000
1%
b0000000000000000000000000001101 1
bxxxxxxx C
b110 O
b00000010 ":
b00000110 k
bxxxxxxxxxxxxxxxxxxx "3
bxxxxxxxxxxxxxxxxxxx "4
bxxxxxxxxxxxxxxxxxxx "5
bxxxxxxxxxxxxxxxxxxx "6
b111 P
b0000000 C
b00000110 f
b00000100 ";
b00001100 ">
bxxxxxxxxxxxxxxxxxxxxx "7
bxxxxxxxxxxxxx "8
b00000100 "=
bxxxxxxxx "9
#136000
0%
#140000
1%
b0000000000000000000000000001110 1
bxxxxxxx C
b111 O
b00000100 ":
b00001100 k
b0000010 t
b00000010 R
b000 P
xV
b0000000 C
b00001100 f
0i
b00000100 ";
b00011000 ">
#144000
0%
#148000
1%
b0000000000000000000000000001111 1
bxxxxxxx C
b000 O
b00000010 Q
xU
b00011000 k
b001 P
b0000000 C
b0000010 j
b00011000 f
1i
b11001000000010 d
b00001000 ";
b00110000 ">
b00001000 "=
#149000
b00001100 c
#152000
0%
#156000
1%
b0000000000000000000000000010000 1
bxxxxxxx C
b001 O
b00001000 ":
b00110000 k
b010 P
b0000000 C
b00110000 f
b00001100 Z
b00010000 ";
b01100000 ">
b00010000 "=
#160000
0%
#164000
1%
b0000000000000000000000000010001 1
bxxxxxxx C
b010 O
b00001100 Y
b0000000100010000 m
b00010000 ":
b01100000 k
b0000000000000000000 "3
b011 P
b0000000 C
b01100000 f
b00000001 \
b00100000 ";
1"<
b11000001 ">
b00001011 "=
#168000
0%
#172000
1%
b0000000000000000000000000010010 1
bxxxxxxx C
b011 O
b00000001 [
b0000000010001100 n
b00001011 ":
b11000001 k
b0000000000000000000 "4
b100 P
b0000000 C
b11000001 f
b00010110 ";
b10000011 ">
b00000001 "=
#176000
0%
#180000
1%
b0000000000000000000000000010011 1
bxxxxxxx C
b100 O
b00000001 ":
b10000011 k
b0000000000000000000 "5
b101 P
b0000000 C
b10000011 f
b00000010 ";
0"<
b00000110 ">
b00000010 "=
#184000
0%
#188000
1%
b0000000000000000000000000010100 1
bxxxxxxx C
b101 O
b00000010 ":
b00000110 k
b0000000000000000000 "6
b110 P
b0000000 C
b00000110 f
b00000100 ";
b00001100 ">
b000000000000000000000 "7
b0000000000000 "8
b00000100 "=
b00000000 "9
#192000
0%
#196000
1%
b0000000000000000000000000010101 1
bxxxxxxx C
b110 O
b00000100 ":
b00001100 k
bxxxxxxxxxxxxxxxxxxx "3
bxxxxxxxxxxxxxxxxxxx "4
bxxxxxxxxxxxxxxxxxxx "5
bxxxxxxxxxxxxxxxxxxx "6
b111 P
b0000000 C
b00001100 f
b00001000 ";
b00011000 ">
bxxxxxxxxxxxxxxxxxxxxx "7
bxxxxxxxxxxxxx "8
b00001000 "=
bxxxxxxxx "9
#200000
0%
#204000
1%
b0000000000000000000000000010110 1
bxxxxxxx C
b111 O
b00001000 ":
b00011000 k
b0000011 t
b00000011 R
b000 P
b0000000 C
b00011000 f
0i
b00000110 ";
b00110000 ">
b00000110 "=
#208000
0%
#212000
1%
b0000000000000000000000000010111 1
bxxxxxxx C
b000 O
b00000011 Q
b00000110 ":
b00110000 k
b001 P
b0000000 C
b0000011 j
b00110000 f
1i
b11001000000011 d
b00001100 ";
b01100000 ">
b00001100 "=
#213000
b00011000 c
#216000
0%
#220000
1%
b0000000000000000000000000011000 1
bxxxxxxx C
b001 O
b00001100 ":
b01100000 k
b010 P
b0000000 C
b01100000 f
b00011000 Z
b00011000 ";
1"<
b11000001 ">
b00000011 "=
#224000
0%
#228000
1%
b0000000000000000000000000011001 1
bxxxxxxx C
b010 O
b00011000 Y
b0000001011000000 m
b0000000010011000 n
b00000011 ":
b11000001 k
b0000000000000000000 "3
b011 P
b0000000 C
b11000001 f
b00000010 \
b00000110 ";
0"<
b10000010 ">
b00000110 "=
#232000
0%
#236000
1%
b0000000000000000000000000011010 1
bxxxxxxx C
b011 O
b00000010 [
b0000000010110000 n
b00000110 ":
b10000010 k
b0000000000000000000 "4
b100 P
b0000000 C
b10000010 f
b00001100 ";
b00000100 ">
b00001100 "=
#240000
0%
#244000
1%
b0000000000000000000000000011011 1
bxxxxxxx C
b100 O
b00001100 ":
b00000100 k
b0000000000000000000 "5
b101 P
b0000000 C
b00000100 f
b00011000 ";
1"<
b00001001 ">
b00000011 "=
#248000
0%
#252000
1%
b0000000000000000000000000011100 1
bxxxxxxx C
b101 O
b00000011 ":
b00001001 k
b0000000000000000000 "6
b110 P
b0000000 C
b00001001 f
b00000110 ";
0"<
b00010010 ">
b000000000000000000000 "7
b0000000000000 "8
b00000110 "=
b00000000 "9
#256000
0%
#260000
1%
b0000000000000000000000000011101 1
bxxxxxxx C
b110 O
b00000110 ":
b00010010 k
bxxxxxxxxxxxxxxxxxxx "3
bxxxxxxxxxxxxxxxxxxx "4
bxxxxxxxxxxxxxxxxxxx "5
bxxxxxxxxxxxxxxxxxxx "6
b111 P
b0000000 C
b00010010 f
b00001100 ";
b00100100 ">
bxxxxxxxxxxxxxxxxxxxxx "7
bxxxxxxxxxxxxx "8
b00001100 "=
bxxxxxxxx "9
#264000
0%
#268000
1%
b0000000000000000000000000011110 1
bxxxxxxx C
b111 O
b00001100 ":
b00100100 k
b0000100 t
b00000100 R
b000 P
b0000000 C
b00100100 f
0i
b00001000 ";
b01001000 ">
b00001000 "=
#272000
0%
#276000
1%
b0000000000000000000000000011111 1
bxxxxxxx C
b000 O
b00000100 Q
b00001000 ":
b01001000 k
b001 P
b0000000 C
b0000100 j
b01001000 f
1i
b11001000000100 d
b00010000 ";
b10010000 ">
b00010000 "=
#277000
b00100100 c
#280000
0%
#284000
1%
b0000000000000000000000000100000 1
bxxxxxxx C
b001 O
b00010000 ":
b10010000 k
b010 P
b0000000 C
b10010000 f
b00100100 Z
b00100000 ";
1"<
b00100001 ">
b00001011 "=
#288000
0%
#292000
1%
b0000000000000000000000000100001 1
bxxxxxxx C
b010 O
b00100100 Y
b0000010110010000 m
b0000000011001000 n
b00001011 ":
b00100001 k
b0000000000000000000 "3
b011 P
b0000000 C
b00100001 f
b00000101 \
b00010110 ";
b01000011 ">
b00000001 "=
#296000
0%
#300000
1%
b0000000000000000000000000100010 1
bxxxxxxx C
b011 O
b00000101 [
b0000000100110100 n
b00000001 ":
b01000011 k
b0000000000000000000 "4
b100 P
b0000000 C
b01000011 f
b00000001 ^
b00000010 ";
0"<
b10000110 ">
b00000010 "=
#304000
0%
#308000
1%
b0000000000000000000000000100011 1
bxxxxxxx C
b100 O
b00000001 ]
b00000010 ":
b10000110 k
b0000000000000000000 "5
b101 P
b0000000 C
b10000110 f
b00000100 ";
b00001100 ">
b00000100 "=
#312000
0%
#316000
1%
b0000000000000000000000000100100 1
bxxxxxxx C
b101 O
b00000100 ":
b00001100 k
b0000000000000000000 "6
b110 P
b0000000 C
b00001100 f
b00001000 ";
b00011000 ">
b000000000000000000000 "7
b0000000000000 "8
b00001000 "=
b00000000 "9
#320000
0%
#324000
1%
b0000000000000000000000000100101 1
bxxxxxxx C
b110 O
b00001000 ":
b00011000 k
bxxxxxxxxxxxxxxxxxxx "3
bxxxxxxxxxxxxxxxxxxx "4
bxxxxxxxxxxxxxxxxxxx "5
bxxxxxxxxxxxxxxxxxxx "6
b111 P
b0000000 C
b00011000 f
b00010000 ";
b00110000 ">
bxxxxxxxxxxxxxxxxxxxxx "7
bxxxxxxxxxxxxx "8
b00010000 "=
bxxxxxxxx "9
#328000
0%
#332000
1%
b0000000000000000000000000100110 1
bxxxxxxx C
b111 O
b00010000 ":
b00110000 k
b0000101 t
b00000101 R
b000 P
b0000000 C
b00110000 f
0i
b00001010 ";
b01100000 ">
b00001010 "=
#336000
0%
#340000
1%
b0000000000000000000000000100111 1
bxxxxxxx C
b000 O
b00000101 Q
b00001010 ":
b01100000 k
b001 P
b0000000 C
b0000101 j
b01100000 f
1i
b11001000000101 d
b00010100 ";
b11000000 ">
b00010100 "=
#341000
b00110000 c
#344000
0%
#348000
1%
b0000000000000000000000000101000 1
bxxxxxxx C
b001 O
b00010100 ":
b11000000 k
b010 P
b0000000 C
b11000000 f
b00110000 Z
b00101000 ";
1"<
b10000001 ">
b00010011 "=
#352000
0%
#356000
1%
b0000000000000000000000000101001 1
bxxxxxxx C
b010 O
b00110000 Y
b0000100110000000 m
b0000000101110000 n
b00010011 ":
b10000001 k
b0000000000000000000 "3
b011 P
b0000000 C
b10000001 f
b00001001 \
b00100110 ";
b00000011 ">
b00010001 "=
#360000
0%
#364000
1%
b0000000000000000000000000101010 1
bxxxxxxx C
b011 O
b00001001 [
b0000001000110000 n
b00010001 ":
b00000011 k
b0000000000000000000 "4
b100 P
b0000000 C
b00000011 f
b00000010 ^
b00100010 ";
b00000111 ">
b00001101 "=
#368000
0%
#372000
1%
b0000000000000000000000000101011 1
bxxxxxxx C
b100 O
b00000010 ]
b00001101 ":
b00000111 k
b0000000000000000000 "5
b101 P
b0000000 C
b00000111 f
b00011010 ";
b00001111 ">
b00000101 "=
#376000
0%
#380000
1%
b0000000000000000000000000101100 1
bxxxxxxx C
b101 O
b00000101 ":
b00001111 k
b0000000000000000000 "6
b110 P
b0000000 C
b00001111 f
b00001010 ";
0"<
b00011110 ">
b000000000000000000000 "7
b0000000000000 "8
b00001010 "=
b00000000 "9
#384000
0%
#388000
1%
b0000000000000000000000000101101 1
bxxxxxxx C
b110 O
b00001010 ":
b00011110 k
bxxxxxxxxxxxxxxxxxxx "3
bxxxxxxxxxxxxxxxxxxx "4
bxxxxxxxxxxxxxxxxxxx "5
bxxxxxxxxxxxxxxxxxxx "6
b111 P
b0000000 C
b00011110 f
b00010100 ";
b00111100 ">
bxxxxxxxxxxxxxxxxxxxxx "7
bxxxxxxxxxxxxx "8
b00010100 "=
bxxxxxxxx "9
#392000
0%
#396000
1%
b0000000000000000000000000101110 1
bxxxxxxx C
b111 O
b00010100 ":
b00111100 k
b0000110 t
b00000110 R
b000 P
b0000000 C
b00111100 f
0i
b00001100 ";
b01111000 ">
b00001100 "=
#400000
0%
#404000
1%
b0000000000000000000000000101111 1
bxxxxxxx C
b000 O
b00000110 Q
b00001100 ":
b01111000 k
b001 P
b0000000 C
b0000110 j
b01111000 f
1i
b11001000000110 d
b00011000 ";
1"<
b11110001 ">
b00000011 "=
#405000
b00111100 c
#408000
0%
#412000
1%
b0000000000000000000000000110000 1
bxxxxxxx C
b001 O
b00000011 ":
b11110001 k
b010 P
b0000000 C
b11110001 f
b00111100 Z
b00000110 ";
0"<
b11100010 ">
b00000110 "=
#416000
0%
#420000
1%
b0000000000000000000000000110001 1
bxxxxxxx C
b010 O
b00111100 Y
b0000111010010000 m
b0000001010011100 n
b00000110 ":
b11100010 k
b0000000000000000000 "3
b011 P
b0000000 C
b11100010 f
b00001110 \
b00001100 ";
b11000100 ">
b00001100 "=
#424000
0%
#428000
1%
b0000000000000000000000000110010 1
bxxxxxxx C
b011 O
b00001110 [
b0000001111001000 n
b00001100 ":
b11000100 k
b0000000000000000000 "4
b100 P
b0000000 C
b11000100 f
b00000011 ^
b00011000 ";
1"<
b10001001 ">
b00000011 "=
#432000
0%
#436000
1%
b0000000000000000000000000110011 1
bxxxxxxx C
b100 O
b00000011 ]
b00000011 ":
b10001001 k
b0000000000000000000 "5
b101 P
b0000000 C
b10001001 f
b00000110 ";
0"<
b00010010 ">
b00000110 "=
#440000
0%
#444000
1%
b0000000000000000000000000110100 1
bxxxxxxx C
b101 O
b00000110 ":
b00010010 k
b0000000000000000000 "6
b110 P
b0000000 C
b00010010 f
b00001100 ";
b00100100 ">
b000000000000000000000 "7
b0000000000000 "8
b00001100 "=
b00000000 "9
#448000
0%
#452000
1%
b0000000000000000000000000110101 1
bxxxxxxx C
b110 O
b00001100 ":
b00100100 k
bxxxxxxxxxxxxxxxxxxx "3
bxxxxxxxxxxxxxxxxxxx "4
bxxxxxxxxxxxxxxxxxxx "5
bxxxxxxxxxxxxxxxxxxx "6
b111 P
b0000000 C
b00100100 f
b00011000 ";
1"<
b01001001 ">
bxxxxxxxxxxxxxxxxxxxxx "7
bxxxxxxxxxxxxx "8
b00000011 "=
bxxxxxxxx "9
#456000
0%
#460000
1%
b0000000000000000000000000110110 1
bxxxxxxx C
b111 O
b00000011 ":
b01001001 k
b0000111 t
b00000111 R
b000 P
b0000000 C
b01001001 f
0i
b00001110 ";
0"<
b10010010 ">
b00001110 "=
#464000
0%
#468000
1%
b0000000000000000000000000110111 1
bxxxxxxx C
b000 O
b00000111 Q
b00001110 ":
b10010010 k
b001 P
b0000000 C
b0000111 j
b10010010 f
1i
b11001000000111 d
b00011100 ";
1"<
b00100101 ">
b00000111 "=
#469000
b01001001 c
#472000
0%
#476000
1%
b0000000000000000000000000111000 1
bxxxxxxx C
b001 O
b00000111 ":
b00100101 k
b010 P
b0000000 C
b00100101 f
b01001001 Z
b00001110 ";
0"<
b01001010 ">
b00001110 "=
#480000
0%
#484000
1%
b0000000000000000000000000111001 1
bxxxxxxx C
b010 O
b01001001 Y
b0001010101010001 m
b0000010001111110 n
b00001110 ":
b01001010 k
b0000000000000000000 "3
b011 P
b0000000 C
b01001010 f
b00010101 \
b00000100 ^
b00011100 ";
1"<
b10010101 ">
b00000111 "=
#488000
0%
#492000
1%
b0000000000000000000000000111010 1
bxxxxxxx C
b011 O
b00010101 [
b0000011001111101 n
b00000100 ]
b00000111 ":
b10010101 k
b0000000000000000000 "4
b100 P
b0000000 C
b10010101 f
b00000110 ^
b00001110 ";
0"<
b00101010 ">
b00001110 "=
#496000
0%
#500000
1%
b0000000000000000000000000111011 1
bxxxxxxx C
b100 O
b00000110 ]
b00001110 ":
b00101010 k
b0000000000000000000 "5
b101 P
b0000000 C
b00101010 f
b00011100 ";
1"<
b01010101 ">
b00000111 "=
#504000
0%
#508000
1%
b0000000000000000000000000111100 1
bxxxxxxx C
b101 O
b00000111 ":
b01010101 k
b0000000000000000000 "6
b110 P
b0000000 C
b01010101 f
b00001110 ";
0"<
b10101010 ">
b000000000000000000000 "7
b0000000000000 "8
b00001110 "=
b00000000 "9
#512000
0%
#516000
1%
b0000000000000000000000000111101 1
bxxxxxxx C
b110 O
b00001110 ":
b10101010 k
bxxxxxxxxxxxxxxxxxxx "3
bxxxxxxxxxxxxxxxxxxx "4
bxxxxxxxxxxxxxxxxxxx "5
bxxxxxxxxxxxxxxxxxxx "6
b111 P
b0000000 C
b10101010 f
b00011100 ";
1"<
b01010101 ">
bxxxxxxxxxxxxxxxxxxxxx "7
bxxxxxxxxxxxxx "8
b00000111 "=
bxxxxxxxx "9
#520000
0%
#524000
1%
b0000000000000000000000000111110 1
bxxxxxxx C
b111 O
b00000111 ":
b01010101 k
b0001000 t
b00001000 R
b000 P
b0000000 C
b01010101 f
0i
b00010000 ";
0"<
b10101010 ">
b00010000 "=
#528000
0%
#532000
1%
b0000000000000000000000000111111 1
bxxxxxxx C
b000 O
b00001000 Q
b00010000 ":
b10101010 k
b001 P
b0000000 C
b0001000 j
b10101010 f
1i
b11001000001000 d
b00100000 ";
1"<
b01010101 ">
b00001011 "=
#533000
b01010101 c
#536000
0%
