ver5/sim/Bicubic.vcd
$date
	Sun Aug 24 02:03:15 2025
$end

$version
	Synopsys VCS version W-2024.09-SP2_Full64
$end

$timescale
	1ps
$end

$comment Csum: 1 1014ac1b65eed0ef $end


$scope module testfixture $end
$var integer 32 ! fd $end
$var integer 32 " i $end
$var integer 32 # j $end
$var integer 32 $ patnum $end
$var reg 1 % CLK $end
$var reg 1 & RST $end
$var reg 7 ' V0 [6:0] $end
$var reg 7 ( H0 [6:0] $end
$var reg 5 ) SW [4:0] $end
$var reg 5 * SH [4:0] $end
$var reg 6 + TW [5:0] $end
$var reg 6 , TH [5:0] $end
$var wire 1 - DONE $end
$var reg 2 . state [1:0] $end
$var reg 2 / rst_count [1:0] $end
$var reg 32 0 pat_n [31:0] $end
$var reg 31 1 cycle_pat [30:0] $end
$var integer 32 2 charcount $end
$var integer 32 3 freturn $end
$var integer 32 4 wait_done $end
$var integer 32 5 error_pixels $end
$var integer 32 6 total_error_pixels $end
$var reg 8 7 pv [7:0] $end
$var integer 32 8 idx $end

$scope task score $end
$var integer 32 9 error_pixels $end
$upscope $end


$scope begin READ_PATTERN $end
$upscope $end


$scope module u_Bicubic $end
$var wire 1 : CLK $end
$var wire 1 ; RST $end
$var wire 7 < V0 [6:0] $end
$var wire 7 = H0 [6:0] $end
$var wire 5 > SW [4:0] $end
$var wire 5 ? SH [4:0] $end
$var wire 6 @ TW [5:0] $end
$var wire 6 A TH [5:0] $end
$var reg 1 B DONE $end
$var reg 7 C coord_h [6:0] $end
$var reg 7 D coord_h_next [6:0] $end
$var reg 7 E coord_v [6:0] $end
$var reg 7 F coord_v_next [6:0] $end
$var reg 7 G prev_coord_h [6:0] $end
$var reg 7 H prev_coord_h_next [6:0] $end
$var reg 7 I prev_coord_v [6:0] $end
$var reg 7 J prev_coord_v_next [6:0] $end
$var reg 1 K DONE_next $end
$var reg 7 L quot_h [6:0] $end
$var reg 7 M quot_h_next [6:0] $end
$var reg 7 N quot_v [6:0] $end
$var reg 7 O quot_v_next [6:0] $end
$var reg 7 P rem_h [6:0] $end
$var reg 7 Q rem_h_next [6:0] $end
$var reg 7 R rem_v [6:0] $end
$var reg 7 S rem_v_next [6:0] $end
$var reg 7 T prev_rem_v [6:0] $end
$var reg 7 U prev_rem_v_next [6:0] $end
$var reg 7 V next_rem_h [6:0] $end
$var reg 7 W next_rem_h_next [6:0] $end
$var reg 7 X next_rem_v [6:0] $end
$var reg 7 Y next_rem_v_next [6:0] $end
$var reg 3 Z cycle_cnt [2:0] $end
$var reg 3 [ cycle_cnt_next [2:0] $end
$var reg 8 \ cycle_cnt_lv2 [7:0] $end
$var reg 8 ] cycle_cnt_lv2_next [7:0] $end
$var reg 1 ^ mode $end
$var reg 1 _ mode_next $end
$var reg 1 ` prev_mode $end
$var reg 1 a prev_mode_next $end
$var reg 1 b next_mode $end
$var reg 1 c next_mode_next $end
$var reg 8 d x1 [7:0] $end
$var reg 8 e x1_next [7:0] $end
$var reg 8 f x2 [7:0] $end
$var reg 8 g x2_next [7:0] $end
$var reg 8 h x3 [7:0] $end
$var reg 8 i x3_next [7:0] $end
$var reg 1 j state $end
$var reg 1 k state_next $end
$var reg 3 l line_shift [2:0] $end
$var wire 8 m ROM_data_o [7:0] $end
$var wire 8 n SRAM_data_o [7:0] $end
$var reg 14 o SRAM_addr [13:0] $end
$var reg 14 p ROM_addr [13:0] $end
$var reg 8 q SRAM_data_i [7:0] $end
$var reg 1 r ROM_CEN $end
$var reg 1 s SRAM_WEN $end
$var reg 1 t SRAM_CEN $end
$var reg 7 u calc_addr [6:0] $end
$var wire 8 v frac_val [7:0] $end
$var wire 8 w frac_8_val [7:0] $end
$var wire 8 x cubic_val [7:0] $end
$var wire 16 y x_x_raw_round [15:0] $end
$var wire 16 z x2_x_raw_round [15:0] $end
$var wire 1 { X_valid $end
$var wire 1 | V_valid $end
$var wire 24 } X_in [23:0] $end
$var wire 8 ~ P_in [7:0] $end
$var reg 7 "! divider [6:0] $end
$var reg 7 "" dividend [6:0] $end
$var reg 7 "# ROM_addr_v [6:0] $end
$var reg 7 "$ ROM_addr_h [6:0] $end
$var reg 8 "% signed_temp [7:0] $end

$scope module cubic_engine $end
$var wire 1 : clk $end
$var wire 1 ; rst $end
$var wire 24 } X_in [23:0] $end
$var wire 8 ~ P_in [7:0] $end
$var wire 3 "& cycle_cnt [2:0] $end
$var reg 8 x out [7:0] $end
$var reg 8 "' XCP [7:0] $end
$var reg 8 "( XCP_next [7:0] $end
$var reg 20 ") multiplier1 [19:0] $end
$var reg 20 "* multiplier2 [19:0] $end
$var reg 20 "+ multiplier3 [19:0] $end
$var reg 20 ", multiplier4 [19:0] $end
$var reg 22 "- adder1 [21:0] $end
$var wire 13 ". XCP_round [12:0] $end
$var wire 8 "/ XCP_round_clamp [7:0] $end
$var reg 12 "0 p0 [11:0] $end
$var reg 12 "1 p1 [11:0] $end
$var reg 12 "2 p2 [11:0] $end
$var reg 12 "3 p3 [11:0] $end
$upscope $end


$scope module sns_divider $end
$var wire 1 : clk $end
$var wire 1 ; rst $end
$var wire 3 "& cycle_cnt [2:0] $end
$var wire 7 "4 divider [6:0] $end
$var wire 7 "5 dividend [6:0] $end
$var wire 8 v frac_val [7:0] $end
$var reg 8 "6 remainder [7:0] $end
$var reg 8 "7 qoutient [7:0] $end
$var wire 8 "8 remainder_shift [7:0] $end
$var wire 1 "9 isGE $end
$var wire 8 ": remainder_next [7:0] $end
$var wire 8 "; qoutient_next [7:0] $end
$upscope $end

$upscope $end

$upscope $end

$enddefinitions $end

#0
$dumpvars
0%
x-
1&
b0101101 (
b11101 *
b10000 )
b100101 ,
b011010 +
b0101101 '
b00000000000000000000000000000000 2
b0000000000000000000000000000000 1
bxxxxxxxxxxxxxxxxxxxxxxxxxxxxxxxx 5
b10000000000000000000000000000011 !
b00000000000000000000000000000001 3
b00000000000000000000000000000001 "
bxxxxxxxxxxxxxxxxxxxxxxxxxxxxxxxx 8
b00000000000000000000011110000100 #
bxxxxxxxxxxxxxxxxxxxxxxxxxxxxxxxx $
bxxxxxxxx 7
b00 /
bxxxxxxxxxxxxxxxxxxxxxxxxxxxxxxxx 9
b00 .
bxxxxxxxxxxxxxxxxxxxxxxxxxxxxxxxx 6
bxxxxxxxxxxxxxxxxxxxxxxxxxxxxxxxx 4
b00000000000000000000000000000000 0
xB
xK
xr
1t
1s
x|
x{
x^
x_
xb
xc
x`
xa
xj
xk
b00000000000000 p
b0000000 "$
b0000000 "#
b00000000000000 o
bxxxxxxxx q
b0000000 u
bxxxxxxx C
bxxxxxxx D
bxxxxxxx E
bxxxxxxx F
bxxx Z
bxxxxxxxx \
bxxxxxxxx ]
bxxx [
b0000000 ""
b0000000 "!
bxxxxxxxx w
b000 l
bxxxxxxx V
bxxxxxxx W
bxxxxxxx X
bxxxxxxx Y
bxxxxxxx G
bxxxxxxx H
bxxxxxxx I
bxxxxxxx J
bxxxxxxx T
bxxxxxxx U
bxxxxxxx L
bxxxxxxx M
bxxxxxxx N
bxxxxxxx O
bxxxxxxx P
bxxxxxxx Q
bxxxxxxx R
bxxxxxxx S
b00000000 "%
bxxxxxxxx d
bxxxxxxxx e
bxxxxxxxx f
bxxxxxxxx g
bxxxxxxxxxxxxxxxx z
bxxxxxxxx h
bxxxxxxxx i
bxxxxxxxxxxxxxxxx y
bxxxxxxxx "'
bxxxxxxxx "(
bxxxxxxxxxxxxx ".
bxxxxxxxx "/
bxxxxxxxxxxxxxxxxxxxxxx "-
bxxxxxxxxxxxxxxxxxxxx ")
bxxxxxxxxxxxxxxxxxxxx "*
bxxxxxxxxxxxxxxxxxxxx "+
bxxxxxxxxxxxxxxxxxxxx ",
bxxxxxxxxxxxx "0
bxxxxxxxxxxxx "1
bxxxxxxxxxxxx "2
bxxxxxxxxxxxx "3
x"9
bxxxxxxxx "7
bxxxxxxxx ";
bxxxxxxxx "6
bxxxxxxxx ":
bxxxxxxx0 "8
0:
1;
b0101101 <
b0101101 =
b10000 >
b11101 ?
b011010 @
b100101 A
bxxxxxxxxxxxxxxxxxxxxxxxx }
bxxxxxxxx ~
bxxx "&
bxxxxxxxx x
b0000000 "4
b0000000 "5
bxxxxxxxx v
bxxxxxxxx m
bxxxxxxxx n
$end
#1950
1%
1:
b0000000 C
b0000000 E
b0000000 G
b0000000 I
0B
0-
b0000000 L
b0000000 N
b0000000 P
b0000000 R
b0000000 T
b0000000 V
b0000000 X
b000 Z
b000 "&
b00000000 \
0^
0`
0b
b00000000 d
b0000000010000000 y
b00000000 f
b0000000010000000 z
b00000000 h
0j
0|
0{
b00000000 "'
b00000000 x
b00000000 "6
b00000000 "7
b00000000 v
b00000000 w
0k
b00000000 ]
b001 [
0K
0c
b0000000 D
b0000000 F
b0000000 H
b0000000 J
b0000000 O
b0000000 Y
b00000000 q
b11001000000000 o
0s
b0000000 M
b0000000 Q
b0000000 S
b0000000 U
0a
0_
1r
b00000000 e
b000000000000 "0
b000000000000 "1
b000000000000 "2
b000000000000 "3
b00000000000000000000 ")
b00000000000000000000 "*
b00000000000000000000 "+
b00000000000000000000 ",
b0000000000000000000000 "-
b0000000000000 ".
b0011001 "!
b0011001 "4
0"9
b000000000000000000000000 }
b00000000 g
b00000000 i
b00000000 "8
b00000000 ~
b00000000 ";
b00000000 "/
b00000000 ":
b00000000 "(
#2950
b01 /
b00000000000000000000000000000000 4
#3900
0%
0:
#5850
1%
1:
#6850
b10 /
#7800
0%
0:
#9750
1%
1:
#10750
b00000000000000000000000000000000 6
0&
0;
b00 /
b01 .
#11700
0%
0:
#13650
1%
1:
b10 .
bxxxxxxx V
b001 Z
b001 "&
b010 [
#15600
0%
0:
#17550
1%
1:
b0000000000000000000000000000001 1
b010 Z
b010 "&
b011 [
b000111111110 "3
b00000000000111111110 ",
b0000000000000111111110 "-
#19500
0%
0:
#21450
1%
1:
b0000000000000000000000000000010 1
b011 Z
b011 "&
b100 [
b000000000000 "3
b00000000000000000000 ",
b0000000000000000000000 "-
#23400
0%
0:
#25350
1%
1:
b0000000000000000000000000000011 1
b100 Z
b100 "&
b101 [
#27300
0%
0:
#29250
1%
1:
b0000000000000000000000000000100 1
b101 Z
b101 "&
b110 [
#31200
0%
0:
#33150
1%
1:
b0000000000000000000000000000101 1
b110 Z
b110 "&
b111 [
#35100
0%
0:
#37050
1%
1:
b0000000000000000000000000000110 1
b111 Z
b111 "&
b0000001 ""
b0000001 "5
b00000001 ]
b000 [
0t
b00000010 "8
b00000010 ":
#39000
0%
0:
#40950
1%
1:
b0000000000000000000000000000111 1
b000 Z
b000 "&
b00000001 \
b00000010 "6
b001 [
b0000001 u
b11001000000001 o
1t
b00000100 "8
b00000100 ":
#41950
b00000000 n
#42900
0%
0:
#44850
1%
1:
b0000000000000000000000000001000 1
b001 Z
b001 "&
b00000100 "6
b010 [
b00001000 "8
b00001000 ":
#46800
0%
0:
#48750
1%
1:
b0000000000000000000000000001001 1
b010 Z
b010 "&
b00001000 "6
b011 [
b000111111110 "3
b00000000000111111110 ",
b0000000000000111111110 "-
b00010000 "8
b00010000 ":
#50700
0%
0:
#52650
1%
1:
b0000000000000000000000000001010 1
b011 Z
b011 "&
b00010000 "6
b100 [
b000000000000 "3
b00000000000000000000 ",
b0000000000000000000000 "-
b00100000 "8
1"9
b00000111 ":
b00000001 ";
#54600
0%
0:
#56550
1%
1:
b0000000000000000000000000001011 1
b100 Z
b100 "&
b00000111 "6
b00000001 "7
b00000001 v
b00000001 w
b101 [
b00000001 q
b00001110 "8
0"9
b00000010 ";
b00001110 ":
#58500
0%
0:
#60450
1%
1:
b0000000000000000000000000001100 1
b101 Z
b101 "&
b00001110 "6
b00000010 "7
b00000010 v
b00000010 w
b110 [
b00000010 q
b00011100 "8
1"9
b00000101 ";
b00000011 ":
#62400
0%
0:
#64350
1%
1:
b0000000000000000000000000001101 1
b110 Z
b110 "&
b00000011 "6
b00000101 "7
b00000101 v
b00000101 w
b111 [
b00000101 q
b00000110 "8
0"9
b00001010 ";
b00000110 ":
#66300
0%
0:
#68250
1%
1:
b0000000000000000000000000001110 1
b111 Z
b111 "&
b00000110 "6
b00001010 "7
b00001010 v
b00001010 w
b0000010 ""
b0000010 "5
b00000010 ]
b000 [
b00001010 q
0t
b00000100 "8
b00010100 ";
b00000100 ":
#70200
0%
0:
#72150
1%
1:
b0000000000000000000000000001111 1
b000 Z
b000 "&
b00000010 \
b00000100 "6
b00010100 "7
b00010100 v
b00010100 w
b001 [
b0000010 u
b00010100 q
b11001000000010 o
1t
b00001000 "8
b00101000 ";
b00001000 ":
#73150
b00001010 n
#74100
0%
0:
#76050
1%
1:
b0000000000000000000000000010000 1
b001 Z
b001 "&
b00001000 "6
b00101000 "7
b00101000 v
b00101000 w
b010 [
b00101000 q
b00010000 "8
b01010000 ";
b00010000 ":
#78000
0%
0:
#79950
1%
1:
b0000000000000000000000000010001 1
b010 Z
b010 "&
b00010000 "6
b01010000 "7
b01010000 v
b01010000 w
b011 [
b01010000 q
b000111111110 "3
b00000000000111111110 ",
b0000000000000111111110 "-
b00100000 "8
1"9
b10100001 ";
b00000111 ":
#81900
0%
0:
#83850
1%
1:
b0000000000000000000000000010010 1
b011 Z
b011 "&
b00000111 "6
b10100001 "7
b10100001 v
b10100001 w
b100 [
b10100001 q
b000000000000 "3
b00000000000000000000 ",
b0000000000000000000000 "-
b00001110 "8
0"9
b01000010 ";
b00001110 ":
#85800
0%
0:
#87750
1%
1:
b0000000000000000000000000010011 1
b100 Z
b100 "&
b00001110 "6
b01000010 "7
b01000010 v
b01000010 w
b101 [
b01000010 q
b00011100 "8
1"9
b10000101 ";
b00000011 ":
#89700
0%
0:
#91650
1%
1:
b0000000000000000000000000010100 1
b101 Z
b101 "&
b00000011 "6
b10000101 "7
b10000101 v
b10000101 w
b110 [
b10000101 q
b00000110 "8
0"9
b00001010 ";
b00000110 ":
#93600
0%
0:
#95550
1%
1:
b0000000000000000000000000010101 1
b110 Z
b110 "&
b00000110 "6
b00001010 "7
b00001010 v
b00001010 w
b111 [
b00001010 q
b00001100 "8
b00010100 ";
b00001100 ":
#97500
0%
0:
#99450
1%
1:
b0000000000000000000000000010110 1
b111 Z
b111 "&
b00001100 "6
b00010100 "7
b00010100 v
b00010100 w
b0000011 ""
b0000011 "5
b00000011 ]
b000 [
b00010100 q
0t
b00000110 "8
b00101000 ";
b00000110 ":
#101400
0%
0:
#103350
1%
1:
b0000000000000000000000000010111 1
b000 Z
b000 "&
b00000011 \
b00000110 "6
b00101000 "7
b00101000 v
b00101000 w
b001 [
b0000011 u
b00101000 q
b11001000000011 o
1t
b00001100 "8
b01010000 ";
b00001100 ":
#104350
b00010100 n
#105300
0%
0:
#107250
1%
1:
b0000000000000000000000000011000 1
b001 Z
b001 "&
b00001100 "6
b01010000 "7
b01010000 v
b01010000 w
b010 [
b01010000 q
b00011000 "8
b10100000 ";
b00011000 ":
#109200
0%
0:
#111150
1%
1:
b0000000000000000000000000011001 1
b010 Z
b010 "&
b00011000 "6
b10100000 "7
b10100000 v
b10100000 w
b011 [
b10100000 q
b000111111110 "3
b00000000000111111110 ",
b0000000000000111111110 "-
b00110000 "8
1"9
b01000001 ";
b00010111 ":
#113100
0%
0:
#115050
1%
1:
b0000000000000000000000000011010 1
b011 Z
b011 "&
b00010111 "6
b01000001 "7
b01000001 v
b01000001 w
b100 [
b01000001 q
b000000000000 "3
b00000000000000000000 ",
b0000000000000000000000 "-
b00101110 "8
b10000011 ";
b00010101 ":
#117000
0%
0:
#118950
1%
1:
b0000000000000000000000000011011 1
b100 Z
b100 "&
b00010101 "6
b10000011 "7
b10000011 v
b10000011 w
b101 [
b10000011 q
b00101010 "8
b00000111 ";
b00010001 ":
#120900
0%
0:
#122850
1%
1:
b0000000000000000000000000011100 1
b101 Z
b101 "&
b00010001 "6
b00000111 "7
b00000111 v
b00000111 w
b110 [
b00000111 q
b00100010 "8
b00001111 ";
b00001001 ":
#124800
0%
0:
#126750
1%
1:
b0000000000000000000000000011101 1
b110 Z
b110 "&
b00001001 "6
b00001111 "7
b00001111 v
b00001111 w
b111 [
b00001111 q
b00010010 "8
0"9
b00011110 ";
b00010010 ":
#128700
0%
0:
#130650
1%
1:
b0000000000000000000000000011110 1
b111 Z
b111 "&
b00010010 "6
b00011110 "7
b00011110 v
b00011110 w
b0000100 ""
b0000100 "5
b00000100 ]
b000 [
b00011110 q
0t
b00001000 "8
b00111100 ";
b00001000 ":
#132600
0%
0:
#134550
1%
1:
b0000000000000000000000000011111 1
b000 Z
b000 "&
b00000100 \
b00001000 "6
b00111100 "7
b00111100 v
b00111100 w
b001 [
b0000100 u
b00111100 q
b11001000000100 o
1t
b00010000 "8
b01111000 ";
b00010000 ":
#135550
b00011110 n
#136500
0%
0:
#138450
1%
1:
b0000000000000000000000000100000 1
b001 Z
b001 "&
b00010000 "6
b01111000 "7
b01111000 v
b01111000 w
b010 [
b01111000 q
b00100000 "8
1"9
b11110001 ";
b00000111 ":
#140400
0%
0:
#142350
1%
1:
b0000000000000000000000000100001 1
b010 Z
b010 "&
b00000111 "6
b11110001 "7
b11110001 v
b11110001 w
b011 [
b11110001 q
b000111111110 "3
b00000000000111111110 ",
b0000000000000111111110 "-
b00001110 "8
0"9
b11100010 ";
b00001110 ":
#144300
0%
0:
#146250
1%
1:
b0000000000000000000000000100010 1
b011 Z
b011 "&
b00001110 "6
b11100010 "7
b11100010 v
b11100010 w
b100 [
b11100010 q
b000000000000 "3
b00000000000000000000 ",
b0000000000000000000000 "-
b00011100 "8
1"9
b11000101 ";
b00000011 ":
#148200
0%
0:
#150150
1%
1:
b0000000000000000000000000100011 1
b100 Z
b100 "&
b00000011 "6
b11000101 "7
b11000101 v
b11000101 w
b101 [
b11000101 q
b00000110 "8
0"9
b10001010 ";
b00000110 ":
#152100
0%
0:
#154050
1%
1:
b0000000000000000000000000100100 1
b101 Z
b101 "&
b00000110 "6
b10001010 "7
b10001010 v
b10001010 w
b110 [
b10001010 q
b00001100 "8
b00010100 ";
b00001100 ":
#156000
0%
0:
#157950
1%
1:
b0000000000000000000000000100101 1
b110 Z
b110 "&
b00001100 "6
b00010100 "7
b00010100 v
b00010100 w
b111 [
b00010100 q
b00011000 "8
b00101000 ";
b00011000 ":
#159900
0%
0:
#161850
1%
1:
b0000000000000000000000000100110 1
b111 Z
b111 "&
b00011000 "6
b00101000 "7
b00101000 v
b00101000 w
b0000101 ""
b0000101 "5
b00000101 ]
b000 [
b00101000 q
0t
b00001010 "8
b01010000 ";
b00001010 ":
#163800
0%
0:
#165750
1%
1:
b0000000000000000000000000100111 1
b000 Z
b000 "&
b00000101 \
b00001010 "6
b01010000 "7
b01010000 v
b01010000 w
b001 [
b0000101 u
b01010000 q
b11001000000101 o
1t
b00010100 "8
b10100000 ";
b00010100 ":
#166750
b00101000 n
#167700
0%
0:
#169650
1%
1:
b0000000000000000000000000101000 1
b001 Z
b001 "&
b00010100 "6
b10100000 "7
b10100000 v
b10100000 w
b010 [
b10100000 q
b00101000 "8
1"9
b01000001 ";
b00001111 ":
#171600
0%
0:
#173550
1%
1:
b0000000000000000000000000101001 1
b010 Z
b010 "&
b00001111 "6
b01000001 "7
b01000001 v
b01000001 w
b011 [
b01000001 q
b000111111110 "3
b00000000000111111110 ",
b0000000000000111111110 "-
b00011110 "8
b10000011 ";
b00000101 ":
#175500
0%
0:
#177450
1%
1:
b0000000000000000000000000101010 1
b011 Z
b011 "&
b00000101 "6
b10000011 "7
b10000011 v
b10000011 w
b100 [
b10000011 q
b000000000000 "3
b00000000000000000000 ",
b0000000000000000000000 "-
b00001010 "8
0"9
b00000110 ";
b00001010 ":
#179400
0%
0:
#181350
1%
1:
b0000000000000000000000000101011 1
b100 Z
b100 "&
b00001010 "6
b00000110 "7
b00000110 v
b00000110 w
b101 [
b00000110 q
b00010100 "8
b00001100 ";
b00010100 ":
#183300
0%
0:
#185250
1%
1:
b0000000000000000000000000101100 1
b101 Z
b101 "&
b00010100 "6
b00001100 "7
b00001100 v
b00001100 w
b110 [
b00001100 q
b00101000 "8
1"9
b00011001 ";
b00001111 ":
#187200
0%
0:
#189150
1%
1:
b0000000000000000000000000101101 1
b110 Z
b110 "&
b00001111 "6
b00011001 "7
b00011001 v
b00011001 w
b111 [
b00011001 q
b00011110 "8
b00110011 ";
b00000101 ":
#191100
0%
0:
#193050
1%
1:
b0000000000000000000000000101110 1
b111 Z
b111 "&
b00000101 "6
b00110011 "7
b00110011 v
b00110011 w
b0000110 ""
b0000110 "5
b00000110 ]
b000 [
b00110011 q
0t
b00001100 "8
0"9
b01100110 ";
b00001100 ":
#195000
0%
0:
#196950
1%
1:
b0000000000000000000000000101111 1
b000 Z
b000 "&
b00000110 \
b00001100 "6
b01100110 "7
b01100110 v
b01100110 w
b001 [
b0000110 u
b01100110 q
b11001000000110 o
1t
b00011000 "8
b11001100 ";
b00011000 ":
#197950
b00110011 n
#198900
0%
0:
#200850
1%
1:
b0000000000000000000000000110000 1
b001 Z
b001 "&
b00011000 "6
b11001100 "7
b11001100 v
b11001100 w
b010 [
b11001100 q
b00110000 "8
1"9
b10011001 ";
b00010111 ":
#202800
0%
0:
#204750
1%
1:
b0000000000000000000000000110001 1
b010 Z
b010 "&
b00010111 "6
b10011001 "7
b10011001 v
b10011001 w
b011 [
b10011001 q
b000111111110 "3
b00000000000111111110 ",
b0000000000000111111110 "-
b00101110 "8
b00110011 ";
b00010101 ":
#206700
0%
0:
#208650
1%
1:
b0000000000000000000000000110010 1
b011 Z
b011 "&
b00010101 "6
b00110011 "7
b00110011 v
b00110011 w
b100 [
b00110011 q
b000000000000 "3
b00000000000000000000 ",
b0000000000000000000000 "-
b00101010 "8
b01100111 ";
b00010001 ":
#210600
0%
0:
#212550
1%
1:
b0000000000000000000000000110011 1
b100 Z
b100 "&
b00010001 "6
b01100111 "7
b01100111 v
b01100111 w
b101 [
b01100111 q
b00100010 "8
b11001111 ";
b00001001 ":
#214500
0%
0:
#216450
1%
1:
b0000000000000000000000000110100 1
b101 Z
b101 "&
b00001001 "6
b11001111 "7
b11001111 v
b11001111 w
b110 [
b11001111 q
b00010010 "8
0"9
b10011110 ";
b00010010 ":
#218400
0%
0:
#220350
1%
1:
b0000000000000000000000000110101 1
b110 Z
b110 "&
b00010010 "6
b10011110 "7
b10011110 v
b10011110 w
b111 [
b10011110 q
b00100100 "8
1"9
b00111101 ";
b00001011 ":
#222300
0%
0:
#224250
1%
1:
b0000000000000000000000000110110 1
b111 Z
b111 "&
b00001011 "6
b00111101 "7
b00111101 v
b00111101 w
b0000111 ""
b0000111 "5
b00000111 ]
b000 [
b00111101 q
0t
b00001110 "8
0"9
b01111010 ";
b00001110 ":
#226200
0%
0:
#228150
1%
1:
b0000000000000000000000000110111 1
b000 Z
b000 "&
b00000111 \
b00001110 "6
b01111010 "7
b01111010 v
b01111010 w
b001 [
b0000111 u
b01111010 q
b11001000000111 o
1t
b00011100 "8
1"9
b11110101 ";
b00000011 ":
#229150
b00111101 n
#230100
0%
0:
#232050
1%
1:
b0000000000000000000000000111000 1
b001 Z
b001 "&
b00000011 "6
b11110101 "7
b11110101 v
b11110101 w
b010 [
b11110101 q
b00000110 "8
0"9
b11101010 ";
b00000110 ":
#234000
0%
0:
#235950
1%
1:
b0000000000000000000000000111001 1
b010 Z
b010 "&
b00000110 "6
b11101010 "7
b11101010 v
b11101010 w
b011 [
b11101010 q
b000111111110 "3
b00000000000111111110 ",
b0000000000000111111110 "-
b00001100 "8
b11010100 ";
b00001100 ":
#237900
0%
0:
#239850
1%
1:
b0000000000000000000000000111010 1
b011 Z
b011 "&
b00001100 "6
b11010100 "7
b11010100 v
b11010100 w
b100 [
b11010100 q
b000000000000 "3
b00000000000000000000 ",
b0000000000000000000000 "-
b00011000 "8
b10101000 ";
b00011000 ":
#241800
0%
0:
#243750
1%
1:
b0000000000000000000000000111011 1
b100 Z
b100 "&
b00011000 "6
b10101000 "7
b10101000 v
b10101000 w
b101 [
b10101000 q
b00110000 "8
1"9
b01010001 ";
b00010111 ":
#245700
0%
0:
#247650
1%
1:
b0000000000000000000000000111100 1
b101 Z
b101 "&
b00010111 "6
b01010001 "7
b01010001 v
b01010001 w
b110 [
b01010001 q
b00101110 "8
b10100011 ";
b00010101 ":
#249600
0%
0:
#251550
1%
1:
b0000000000000000000000000111101 1
b110 Z
b110 "&
b00010101 "6
b10100011 "7
b10100011 v
b10100011 w
b111 [
b10100011 q
b00101010 "8
b01000111 ";
b00010001 ":
#253500
0%
0:
#255450
1%
1:
b0000000000000000000000000111110 1
b111 Z
b111 "&
b00010001 "6
b01000111 "7
b01000111 v
b01000111 w
b0001000 ""
b0001000 "5
b00001000 ]
b000 [
b01000111 q
0t
b00010000 "8
0"9
b10001110 ";
b00010000 ":
#257400
0%
0:
#259350
1%
1:
b0000000000000000000000000111111 1
b000 Z
b000 "&
b00001000 \
b00010000 "6
b10001110 "7
b10001110 v
b10001110 w
b001 [
b0001000 u
b10001110 q
b11001000001000 o
1t
b00100000 "8
1"9
b00011101 ";
b00000111 ":
#260350
b01000111 n
#261300
0%
0:
#263250
1%
1:
b0000000000000000000000001000000 1
b001 Z
b001 "&
b00000111 "6
b00011101 "7
b00011101 v
b00011101 w
b010 [
b00011101 q
b00001110 "8
0"9
b00111010 ";
b00001110 ":
#265200
0%
0:
#267150
1%
1:
b0000000000000000000000001000001 1
b010 Z
b010 "&
b00001110 "6
b00111010 v
b00111010 w
b011 [
b000111111110 "3
b00000000000111111110 ",
b0000000000000111111110 "-
b00011100 "8
1"9
b01110101 ";
b00000011 ":
#269100
0%
0:
#271050
1%
1:
b0000000000000000000000001000010 1
b011 Z
b011 "&
b00000011 "6
b01110101 v
b01110101 w
b100 [
b000000000000 "3
b00000000000000000000 ",
b0000000000000000000000 "-
b00000110 "8
0"9
b11101010 ";
b00000110 ":
#273000
0%
0:
#274950
1%
1:
b0000000000000000000000001000011 1
b100 Z
b100 "&
b00000110 "6
b11101010 v
b11101010 w
b101 [
b00001100 "8
b11010100 ";
b00001100 ":
#276900
0%
0:
#278850
1%
1:
b0000000000000000000000001000100 1
b101 Z
b101 "&
b00001100 "6
b11010100 v
b11010100 w
b110 [
b00011000 "8
b10101000 ";
b00011000 ":
#280800
0%
0:
#282750
1%
1:
b0000000000000000000000001000101 1
b110 Z
b110 "&
b00011000 "6
b10101000 v
b10101000 w
b111 [
b00110000 "8
1"9
b01010001 ";
b00010111 ":
#284700
0%
0:
#286650
1%
1:
b0000000000000000000000001000110 1
b111 Z
b111 "&
b00010111 "6
b01010001 v
b01010001 w
b0001001 ""
b0001001 "5
b00001001 ]
b000 [
0t
b00010010 "8
0"9
b10100010 ";
b00010010 ":
#288600
0%
0:
#290550
1%
1:
b0000000000000000000000001000111 1
b000 Z
b000 "&
b00001001 \
b00010010 "6
b10100010 v
b10100010 w
b001 [
b0001001 u
b11001000001001 o
1t
b00100100 "8
1"9
b01000101 ";
b00001011 ":
#291550
b01010001 n
#292500
0%
0:
#294450
1%
1:
b0000000000000000000000001001000 1
b001 Z
b001 "&
b00001011 "6
b01000101 v
b01000101 w
b010 [
b00010110 "8
0"9
b10001010 ";
b00010110 ":
#296400
0%
0:
#298350
1%
1:
b0000000000000000000000001001001 1
b010 Z
b010 "&
b00010110 "6
b10001010 v
b10001010 w
b011 [
b000111111110 "3
b00000000000111111110 ",
b0000000000000111111110 "-
b00101100 "8
1"9
b00010101 ";
b00010011 ":
#300300
0%
0:
#302250
1%
1:
b0000000000000000000000001001010 1
b011 Z
b011 "&
b00010011 "6
b00010101 v
b00010101 w
b100 [
b000000000000 "3
b00000000000000000000 ",
b0000000000000000000000 "-
b00100110 "8
b00101011 ";
b00001101 ":
#304200
0%
0:
#306150
1%
1:
b0000000000000000000000001001011 1
b100 Z
b100 "&
b00001101 "6
b00101011 v
b00101011 w
b101 [
b00011010 "8
b01010111 ";
b00000001 ":
#308100
0%
0:
#310050
1%
1:
b0000000000000000000000001001100 1
b101 Z
b101 "&
b00000001 "6
b01010111 v
b01010111 w
b110 [
b00000010 "8
0"9
b10101110 ";
b00000010 ":
#312000
0%
0:
#313950
1%
1:
b0000000000000000000000001001101 1
b110 Z
b110 "&
b00000010 "6
b10101110 v
b10101110 w
b111 [
b00000100 "8
b01011100 ";
b00000100 ":
#315900
0%
0:
#317850
1%
1:
b0000000000000000000000001001110 1
b111 Z
b111 "&
b00000100 "6
b01011100 v
b01011100 w
b0001010 ""
b0001010 "5
b00001010 ]
b000 [
0t
b00010100 "8
b10111000 ";
b00010100 ":
#319800
0%
0:
#321750
1%
1:
b0000000000000000000000001001111 1
b000 Z
b000 "&
b00001010 \
b00010100 "6
b10111000 v
b10111000 w
b001 [
b0001010 u
b11001000001010 o
1t
b00101000 "8
1"9
b01110001 ";
b00001111 ":
#322750
b01011100 n
#323700
0%
0:
#325650
1%
1:
b0000000000000000000000001010000 1
b001 Z
b001 "&
b00001111 "6
b01110001 v
b01110001 w
b010 [
b00011110 "8
b11100011 ";
b00000101 ":
#327600
0%
0:
#329550
1%
1:
b0000000000000000000000001010001 1
b010 Z
b010 "&
b00000101 "6
b11100011 v
b11100011 w
b011 [
b000111111110 "3
b00000000000111111110 ",
b0000000000000111111110 "-
b00001010 "8
0"9
b11000110 ";
b00001010 ":
#331500
0%
0:
#333450
1%
1:
b0000000000000000000000001010010 1
b011 Z
b011 "&
b00001010 "6
b11000110 v
b11000110 w
b100 [
b000000000000 "3
b00000000000000000000 ",
b0000000000000000000000 "-
b00010100 "8
b10001100 ";
b00010100 ":
#335400
0%
0:
