ver5/sim/Bicubic.vcd
$date
	Fri Aug 22 16:59:22 2025
$end

$version
	Synopsys VCS version W-2024.09-SP2_Full64
$end

$timescale
	1ps
$end

$comment Csum: 1 1014ac1b65eed0ef $end


$scope module testfixture $end
$var integer 32 ! fd $end
$var integer 32 " i $end
$var integer 32 # j $end
$var integer 32 $ patnum $end
$var reg 1 % CLK $end
$var reg 1 & RST $end
$var reg 7 ' V0 [6:0] $end
$var reg 7 ( H0 [6:0] $end
$var reg 5 ) SW [4:0] $end
$var reg 5 * SH [4:0] $end
$var reg 6 + TW [5:0] $end
$var reg 6 , TH [5:0] $end
$var wire 1 - DONE $end
$var reg 2 . state [1:0] $end
$var reg 2 / rst_count [1:0] $end
$var reg 32 0 pat_n [31:0] $end
$var reg 31 1 cycle_pat [30:0] $end
$var integer 32 2 charcount $end
$var integer 32 3 freturn $end
$var integer 32 4 wait_done $end
$var integer 32 5 error_pixels $end
$var integer 32 6 total_error_pixels $end
$var reg 8 7 pv [7:0] $end
$var integer 32 8 idx $end

$scope task score $end
$var integer 32 9 error_pixels $end
$upscope $end


$scope begin READ_PATTERN $end
$upscope $end


$scope module u_Bicubic $end
$var wire 1 % CLK $end
$var wire 1 & RST $end
$var wire 7 ' V0 [6:0] $end
$var wire 7 ( H0 [6:0] $end
$var wire 5 ) SW [4:0] $end
$var wire 5 * SH [4:0] $end
$var wire 6 + TW [5:0] $end
$var wire 6 , TH [5:0] $end
$var reg 1 - DONE $end
$var reg 7 : coord_h [6:0] $end
$var reg 7 ; coord_h_next [6:0] $end
$var reg 7 < coord_v [6:0] $end
$var reg 7 = coord_v_next [6:0] $end
$var reg 7 > prev_coord_h [6:0] $end
$var reg 7 ? prev_coord_h_next [6:0] $end
$var reg 7 @ prev_coord_v [6:0] $end
$var reg 7 A prev_coord_v_next [6:0] $end
$var reg 1 B DONE_next $end
$var reg 7 C quot_h [6:0] $end
$var reg 7 D quot_h_next [6:0] $end
$var reg 7 E quot_v [6:0] $end
$var reg 7 F quot_v_next [6:0] $end
$var reg 7 G rem_h [6:0] $end
$var reg 7 H rem_h_next [6:0] $end
$var reg 7 I rem_v [6:0] $end
$var reg 7 J rem_v_next [6:0] $end
$var reg 7 K prev_rem_v [6:0] $end
$var reg 7 L prev_rem_v_next [6:0] $end
$var reg 7 M next_rem_h [6:0] $end
$var reg 7 N next_rem_h_next [6:0] $end
$var reg 7 O next_rem_v [6:0] $end
$var reg 7 P next_rem_v_next [6:0] $end
$var reg 3 Q cycle_cnt [2:0] $end
$var reg 3 R cycle_cnt_next [2:0] $end
$var reg 8 S cycle_cnt_lv2 [7:0] $end
$var reg 8 T cycle_cnt_lv2_next [7:0] $end
$var reg 1 U mode $end
$var reg 1 V mode_next $end
$var reg 1 W prev_mode $end
$var reg 1 X prev_mode_next $end
$var reg 1 Y next_mode $end
$var reg 1 Z next_mode_next $end
$var reg 8 [ x1 [7:0] $end
$var reg 8 \ x1_next [7:0] $end
$var reg 8 ] x2 [7:0] $end
$var reg 8 ^ x2_next [7:0] $end
$var reg 8 _ x3 [7:0] $end
$var reg 8 ` x3_next [7:0] $end
$var reg 1 a state $end
$var reg 1 b state_next $end
$var reg 3 c line_shift [2:0] $end
$var wire 8 d ROM_data_o [7:0] $end
$var wire 8 e SRAM_data_o [7:0] $end
$var reg 14 f SRAM_addr [13:0] $end
$var reg 14 g ROM_addr [13:0] $end
$var reg 8 h SRAM_data_i [7:0] $end
$var reg 1 i ROM_CEN $end
$var reg 1 j SRAM_WEN $end
$var reg 1 k SRAM_CEN $end
$var reg 7 l calc_addr [6:0] $end
$var wire 8 m frac_val [7:0] $end
$var wire 8 m frac_8_val [7:0] $end
$var wire 8 n cubic_val [7:0] $end
$var wire 16 o x_x_raw_round [15:0] $end
$var wire 16 p x2_x_raw_round [15:0] $end
$var wire 1 q X_valid $end
$var wire 1 r V_valid $end
$var wire 24 s X_in [23:0] $end
$var wire 8 t P_in [7:0] $end
$var reg 7 u divider [6:0] $end
$var reg 7 v dividend [6:0] $end
$var reg 7 w ROM_addr_v [6:0] $end
$var reg 7 x ROM_addr_h [6:0] $end
$var reg 8 y signed_temp [7:0] $end

$scope module cubic_engine $end
$var wire 1 % clk $end
$var wire 1 & rst $end
$var wire 24 s X_in [23:0] $end
$var wire 8 t P_in [7:0] $end
$var wire 3 Q cycle_cnt [2:0] $end
$var reg 8 n out [7:0] $end
$var reg 8 n XCP [7:0] $end
$var reg 8 z XCP_next [7:0] $end
$var wire 12 { XC0_prod0 [11:0] $end
$var wire 12 | XC0_prod1 [11:0] $end
$var wire 12 } XC0_prod2 [11:0] $end
$var wire 12 ~ XC0_prod3 [11:0] $end
$var wire 12 "! XC1_prod0 [11:0] $end
$var wire 12 "" XC1_prod1 [11:0] $end
$var wire 12 "# XC1_prod2 [11:0] $end
$var wire 12 "$ XC1_prod3 [11:0] $end
$var wire 12 "% XC2_prod0 [11:0] $end
$var wire 12 "& XC2_prod1 [11:0] $end
$var wire 12 "' XC2_prod2 [11:0] $end
$var wire 12 "( XC2_prod3 [11:0] $end
$var wire 12 ") XC3_prod0 [11:0] $end
$var wire 12 "* XC3_prod1 [11:0] $end
$var wire 12 "+ XC3_prod2 [11:0] $end
$var wire 12 ", XC3_prod3 [11:0] $end
$var wire 14 "- XC_sum0 [13:0] $end
$var wire 14 ". XC_sum1 [13:0] $end
$var wire 14 "/ XC_sum2 [13:0] $end
$var wire 14 "0 XC_sum3 [13:0] $end
$var wire 13 "1 XC_sum0_round_shift [12:0] $end
$var wire 13 "2 XC_sum1_round_shift [12:0] $end
$var wire 13 "3 XC_sum2_round_shift [12:0] $end
$var wire 13 "4 XC_sum3_round_shift [12:0] $end
$var wire 19 "5 XC0P0_prod [18:0] $end
$var wire 19 "6 XC1P1_prod [18:0] $end
$var wire 19 "7 XC2P2_prod [18:0] $end
$var wire 19 "8 XC3P3_prod [18:0] $end
$var wire 21 "9 XCP_sum [20:0] $end
$var wire 13 ": XCP_sum_round_shift [12:0] $end
$var wire 8 "; XCP_sum_round_shift_clamp [7:0] $end
$upscope $end


$scope module sns_divider $end
$var wire 1 "< clk $end
$var wire 1 "= rst $end
$var wire 3 "> cycle_cnt [2:0] $end
$var wire 7 "? divider [6:0] $end
$var wire 7 "@ dividend [6:0] $end
$var wire 8 m frac_val [7:0] $end
$var reg 8 "A remainder [7:0] $end
$var reg 8 "B qoutient [7:0] $end
$var wire 8 "C remainder_shift [7:0] $end
$var wire 1 "D isGE $end
$var wire 8 "E remainder_next [7:0] $end
$var wire 8 "F qoutient_next [7:0] $end
$upscope $end

$upscope $end

$upscope $end

$enddefinitions $end

#0
$dumpvars
0%
xB
xi
1&
1k
1j
xU
xV
xY
xZ
xW
xX
xb
xq
xr
x-
xa
b0001010 (
bxxxxxxxx t
b00000000000000 g
b0000000 x
b0000000 w
b01101 *
b00000000000000 f
bxxxxxxxx h
b01101 )
b010011 ,
b010011 +
b1000100 '
bxxxxxxxxxxxxxxxxxxx "5
bxxxxxxxxxxxx {
bxxxxxxxxxxxx |
bxxxxxxxxxxxx }
bxxxxxxxxxxxx ~
bxxxxxxxxxxxxxxxxxxx "6
bxxxxxxxxxxxx "!
bxxxxxxxxxxxx ""
bxxxxxxxxxxxx "#
bxxxxxxxxxxxx "$
bxxxxxxxxxxxxxxxxxxx "7
bxxxxxxxxxxxx "%
bxxxxxxxxxxxx "&
bxxxxxxxxxxxx "'
bxxxxxxxxxxxx "(
bxxxxxxxxxxxxxxxxxxx "8
bxxxxxxxxxxxx ")
bxxxxxxxxxxxx "*
bxxxxxxxxxxxx "+
bxxxxxxxxxxxx ",
bxxxxxxxx n
bxxxxxxxx z
bxxxxxxxxxxxxxxxxxxxxx "9
bxxxxxxxxxxxxx ":
bxxxxxxxx ";
bxxxxxxxxxxxxxx "-
bxxxxxxxxxxxxx "1
bxxxxxxxxxxxxxx ".
bxxxxxxxxxxxxx "2
bxxxxxxxxxxxxxx "/
bxxxxxxxxxxxxx "3
bxxxxxxxxxxxxxx "0
bxxxxxxxxxxxxx "4
bxxxxxxxxxxxxxxxxxxxxxxxx s
b0000000 l
b00000000000000000000000000000000 2
bxxxxxxx :
bxxxxxxx ;
bxxxxxxx <
bxxxxxxx =
bxxx Q
bxxxxxxxx S
bxxxxxxxx T
bxxx R
b0000000000000000000000000000000 1
b0000000 v
b0000000 u
bxxxxxxxxxxxxxxxxxxxxxxxxxxxxxxxx 5
b10000000000000000000000000000011 !
b00000000000000000000000000000001 3
b00000000000000000000000000000001 "
bxxxxxxxxxxxxxxxxxxxxxxxxxxxxxxxx 8
b00000000000000000000001011010010 #
b000 c
bxxxxxxx M
bxxxxxxx O
bxxxxxxx P
bxxxxxxx >
bxxxxxxx ?
bxxxxxxx @
bxxxxxxx A
bxxxxxxx K
bxxxxxxx L
bxxxxxxxx 7
bxxxxxxx C
bxxxxxxx D
bxxxxxxx E
bxxxxxxx F
bxxxxxxx G
bxxxxxxx H
bxxxxxxx I
bxxxxxxx J
b00 /
bxxxxxxxxxxxxxxxxxxxxxxxxxxxxxxxx 9
b00000000 y
b00 .
bxxxxxxxxxxxxxxxxxxxxxxxxxxxxxxxx 6
bxxxxxxxxxxxxxxxxxxxxxxxxxxxxxxxx 4
bxxxxxxxx [
bxxxxxxxx \
bxxxxxxxx ]
bxxxxxxxx ^
bxxxxxxxxxxxxxxxx p
bxxxxxxxx _
bxxxxxxxx `
bxxxxxxxxxxxxxxxx o
b00000000000000000000000000000000 0
x"D
bxxxxxxxx "B
bxxxxxxxx "F
bxxxxxxxx "A
bxxxxxxxx "E
bxxxxxxx0 "C
bxxxxxxx N
bxxxxxxxxxxxxxxxxxxxxxxxxxxxxxxxx $
bxxxxxxxx m
bxxxxxxxx d
bxxxxxxxx e
0"<
1"=
bxxx ">
b0000000 "?
b0000000 "@
$end
#4000
1%
1"<
b0000000 :
b0000000 <
b0000000 >
b0000000 @
0-
b0000000 C
b0000000 E
b0000000 G
b0000000 I
b0000000 K
b0000000 M
b0000000 O
b000 Q
0q
b000 ">
b00000000 S
0U
0W
0Y
b00000000 [
b0000000010000000 o
b00000000 ]
b0000000010000000 p
b00000000 _
0a
0r
b00000000 n
b00000000 "A
b00000000 "B
b00000000 m
b0000000000000000000 "5
b0000000000000000000 "6
b0000000000000000000 "7
b0000000000000000000 "8
b000000000000 {
b000000000000 "!
b000000000000 "%
b000000000000 ")
b000000000000 "*
b000000000000 "&
b000000000000 ""
b000000000000 |
b000000000000 "+
b000000000000 "'
b000000000000 "#
b000000000000 }
b000000000000 ",
b000000000000 "(
b000111111110 "$
b000000000000 ~
0b
b00000000 T
b001 R
0B
0Z
b0000000 ;
b0000000 =
b0000000 ?
b0000000 A
b0000000 F
b0000000 P
b00000000 h
b11001000000000 f
0j
b0000000 D
b0000000 H
b0000000 J
b0000000 L
0X
0V
1i
b00000000 \
b00000000 t
b000000000000000000000000 s
b0010010 u
b0010010 "?
0"D
b00000000 ^
b00000000 `
b00000000 "C
b00000000 "F
b000000000000000000000 "9
b0000000000000 ":
b00000000000000 "0
b0000000000000 "4
b00000000000000 "/
b0000000000000 "3
b00000111111110 ".
b0000011111111 "2
b00000000000000 "-
b0000000000000 "1
b00000000 "E
b00000000 ";
b00000000 z
#5000
b01 /
b00000000000000000000000000000000 4
#8000
0%
0"<
#12000
1%
1"<
#13000
b10 /
#16000
0%
0"<
#20000
1%
1"<
#21000
b00000000000000000000000000000000 6
0&
0"=
b00 /
b01 .
#24000
0%
0"<
#28000
1%
1"<
b10 .
bxxxxxxx M
b001 Q
b001 ">
b010 R
#32000
0%
0"<
#36000
1%
1"<
b0000000000000000000000000000001 1
b010 Q
b010 ">
b011 R
#40000
0%
0"<
#44000
1%
1"<
b0000000000000000000000000000010 1
b011 Q
b011 ">
b100 R
#48000
0%
0"<
#52000
1%
1"<
b0000000000000000000000000000011 1
b100 Q
b100 ">
b101 R
#56000
0%
0"<
#60000
1%
1"<
b0000000000000000000000000000100 1
b101 Q
b101 ">
b110 R
#64000
0%
0"<
#68000
1%
1"<
b0000000000000000000000000000101 1
b110 Q
b110 ">
bxxxxxxxxxxxxxxxxxxx "5
bxxxxxxxxxxxxxxxxxxx "6
bxxxxxxxxxxxxxxxxxxx "7
bxxxxxxxxxxxxxxxxxxx "8
b111 R
bxxxxxxxxxxxxxxxxxxxxx "9
bxxxxxxxxxxxxx ":
bxxxxxxxx ";
#72000
0%
0"<
#76000
1%
1"<
b0000000000000000000000000000110 1
b111 Q
b111 ">
b0000001 v
b0000001 "@
b00000001 T
b000 R
0k
b00000010 "C
b00000010 "E
#80000
0%
0"<
#84000
1%
1"<
b0000000000000000000000000000111 1
b000 Q
b000 ">
b00000001 S
b00000010 "A
b001 R
b0000001 l
b11001000000001 f
1k
bxxxxxxxx z
b00000100 "C
b00000100 "E
#85000
b00000000 e
#88000
0%
0"<
#92000
1%
1"<
b0000000000000000000000000001000 1
b001 Q
b001 ">
bxxxxxxxx n
b00000100 "A
b010 R
b00001000 "C
b00001000 "E
#96000
0%
0"<
#100000
1%
1"<
b0000000000000000000000000001001 1
b010 Q
b010 ">
b00001000 "A
b0000000000000000000 "5
b011 R
b00010000 "C
b00010000 "E
#104000
0%
0"<
#108000
1%
1"<
b0000000000000000000000000001010 1
b011 Q
b011 ">
b00010000 "A
b0000000000000000000 "6
b100 R
b00100000 "C
1"D
b00001110 "E
b00000001 "F
#112000
0%
0"<
#116000
1%
1"<
b0000000000000000000000000001011 1
b100 Q
b100 ">
b00001110 "A
b00000001 "B
b00000001 m
b0000000000000000000 "7
b101 R
b00000001 h
b00011100 "C
b00000011 "F
b00001010 "E
#120000
0%
0"<
#124000
1%
1"<
b0000000000000000000000000001100 1
b101 Q
b101 ">
b00001010 "A
b00000011 "B
b00000011 m
b0000000000000000000 "8
b110 R
b00000011 h
b00010100 "C
b00000111 "F
b000000000000000000000 "9
b0000000000000 ":
b00000010 "E
b00000000 ";
#128000
0%
0"<
#132000
1%
1"<
b0000000000000000000000000001101 1
b110 Q
b110 ">
b00000010 "A
b00000111 "B
b00000111 m
bxxxxxxxxxxxxxxxxxxx "5
bxxxxxxxxxxxxxxxxxxx "6
bxxxxxxxxxxxxxxxxxxx "7
bxxxxxxxxxxxxxxxxxxx "8
b111 R
b00000111 h
b00000100 "C
0"D
b00001110 "F
bxxxxxxxxxxxxxxxxxxxxx "9
bxxxxxxxxxxxxx ":
b00000100 "E
bxxxxxxxx ";
#136000
0%
0"<
#140000
1%
1"<
b0000000000000000000000000001110 1
b111 Q
b111 ">
b00000100 "A
b00001110 "B
b00001110 m
b0000010 v
b0000010 "@
b00000010 T
b000 R
b00001110 h
0k
b00000100 "C
b00011100 "F
#144000
0%
0"<
#148000
1%
1"<
b0000000000000000000000000001111 1
b000 Q
b000 ">
b00000010 S
b00011100 "B
b00011100 m
b001 R
b0000010 l
b00011100 h
b11001000000010 f
1k
b00001000 "C
b00111000 "F
b00001000 "E
#149000
b00001110 e
#152000
0%
0"<
#156000
1%
1"<
b0000000000000000000000000010000 1
b001 Q
b001 ">
b00001000 "A
b00111000 "B
b00111000 m
b010 R
b00111000 h
b00010000 "C
b01110000 "F
b00010000 "E
#160000
0%
0"<
#164000
1%
1"<
b0000000000000000000000000010001 1
b010 Q
b010 ">
b00010000 "A
b01110000 "B
b01110000 m
b0000000000000000000 "5
b011 R
b01110000 h
b00100000 "C
1"D
b11100001 "F
b00001110 "E
#168000
0%
0"<
#172000
1%
1"<
b0000000000000000000000000010010 1
b011 Q
b011 ">
b00001110 "A
b11100001 "B
b11100001 m
b0000000000000000000 "6
b100 R
b11100001 h
b00011100 "C
b11000011 "F
b00001010 "E
#176000
0%
0"<
#180000
1%
1"<
b0000000000000000000000000010011 1
b100 Q
b100 ">
b00001010 "A
b11000011 "B
b11000011 m
b0000000000000000000 "7
b101 R
b11000011 h
b00010100 "C
b10000111 "F
b00000010 "E
#184000
0%
0"<
#188000
1%
1"<
b0000000000000000000000000010100 1
b101 Q
b101 ">
b00000010 "A
b10000111 "B
b10000111 m
b0000000000000000000 "8
b110 R
b10000111 h
b00000100 "C
0"D
b00001110 "F
b000000000000000000000 "9
b0000000000000 ":
b00000100 "E
b00000000 ";
#192000
0%
0"<
#196000
1%
1"<
b0000000000000000000000000010101 1
b110 Q
b110 ">
b00000100 "A
b00001110 "B
b00001110 m
bxxxxxxxxxxxxxxxxxxx "5
bxxxxxxxxxxxxxxxxxxx "6
bxxxxxxxxxxxxxxxxxxx "7
bxxxxxxxxxxxxxxxxxxx "8
b111 R
b00001110 h
b00001000 "C
b00011100 "F
bxxxxxxxxxxxxxxxxxxxxx "9
bxxxxxxxxxxxxx ":
b00001000 "E
bxxxxxxxx ";
#200000
0%
0"<
#204000
1%
1"<
b0000000000000000000000000010110 1
b111 Q
b111 ">
b00001000 "A
b00011100 "B
b00011100 m
b0000011 v
b0000011 "@
b00000011 T
b000 R
b00011100 h
0k
b00000110 "C
b00111000 "F
b00000110 "E
#208000
0%
0"<
#212000
1%
1"<
b0000000000000000000000000010111 1
b000 Q
b000 ">
b00000011 S
b00000110 "A
b00111000 "B
b00111000 m
b001 R
b0000011 l
b00111000 h
b11001000000011 f
1k
b00001100 "C
b01110000 "F
b00001100 "E
#213000
b00011100 e
#216000
0%
0"<
#220000
1%
1"<
b0000000000000000000000000011000 1
b001 Q
b001 ">
b00001100 "A
b01110000 "B
b01110000 m
b010 R
b01110000 h
b00011000 "C
1"D
b11100001 "F
b00000110 "E
#224000
0%
0"<
#228000
1%
1"<
b0000000000000000000000000011001 1
b010 Q
b010 ">
b00000110 "A
b11100001 "B
b11100001 m
b0000000000000000000 "5
b011 R
b11100001 h
b00001100 "C
0"D
b11000010 "F
b00001100 "E
#232000
0%
0"<
#236000
1%
1"<
b0000000000000000000000000011010 1
b011 Q
b011 ">
b00001100 "A
b11000010 "B
b11000010 m
b0000000000000000000 "6
b100 R
b11000010 h
b00011000 "C
1"D
b10000101 "F
b00000110 "E
#240000
0%
0"<
#244000
1%
1"<
b0000000000000000000000000011011 1
b100 Q
b100 ">
b00000110 "A
b10000101 "B
b10000101 m
b0000000000000000000 "7
b101 R
b10000101 h
b00001100 "C
0"D
b00001010 "F
b00001100 "E
#248000
0%
0"<
#252000
1%
1"<
b0000000000000000000000000011100 1
b101 Q
b101 ">
b00001100 "A
b00001010 "B
b00001010 m
b0000000000000000000 "8
b110 R
b00001010 h
b00011000 "C
1"D
b00010101 "F
b000000000000000000000 "9
b0000000000000 ":
b00000110 "E
b00000000 ";
#256000
0%
0"<
#260000
1%
1"<
b0000000000000000000000000011101 1
b110 Q
b110 ">
b00000110 "A
b00010101 "B
b00010101 m
bxxxxxxxxxxxxxxxxxxx "5
bxxxxxxxxxxxxxxxxxxx "6
bxxxxxxxxxxxxxxxxxxx "7
bxxxxxxxxxxxxxxxxxxx "8
b111 R
b00010101 h
b00001100 "C
0"D
b00101010 "F
bxxxxxxxxxxxxxxxxxxxxx "9
bxxxxxxxxxxxxx ":
b00001100 "E
bxxxxxxxx ";
#264000
0%
0"<
#268000
1%
1"<
b0000000000000000000000000011110 1
b111 Q
b111 ">
b00001100 "A
b00101010 "B
b00101010 m
b0000100 v
b0000100 "@
b00000100 T
b000 R
b00101010 h
0k
b00001000 "C
b01010100 "F
b00001000 "E
#272000
0%
0"<
#276000
1%
1"<
b0000000000000000000000000011111 1
b000 Q
b000 ">
b00000100 S
b00001000 "A
b01010100 "B
b01010100 m
b001 R
b0000100 l
b01010100 h
b11001000000100 f
1k
b00010000 "C
b10101000 "F
b00010000 "E
#277000
b00101010 e
#280000
0%
0"<
#284000
1%
1"<
b0000000000000000000000000100000 1
b001 Q
b001 ">
b00010000 "A
b10101000 "B
b10101000 m
b010 R
b10101000 h
b00100000 "C
1"D
b01010001 "F
b00001110 "E
#288000
0%
0"<
#292000
1%
1"<
b0000000000000000000000000100001 1
b010 Q
b010 ">
b00001110 "A
b01010001 "B
b01010001 m
b0000000000000000000 "5
b011 R
b01010001 h
b00011100 "C
b10100011 "F
b00001010 "E
#296000
0%
0"<
#300000
1%
1"<
b0000000000000000000000000100010 1
b011 Q
b011 ">
b00001010 "A
b10100011 "B
b10100011 m
b0000000000000000000 "6
b100 R
b10100011 h
b00010100 "C
b01000111 "F
b00000010 "E
#304000
0%
0"<
#308000
1%
1"<
b0000000000000000000000000100011 1
b100 Q
b100 ">
b00000010 "A
b01000111 "B
b01000111 m
b0000000000000000000 "7
b101 R
b01000111 h
b00000100 "C
0"D
b10001110 "F
b00000100 "E
#312000
0%
0"<
#316000
1%
1"<
b0000000000000000000000000100100 1
b101 Q
b101 ">
b00000100 "A
b10001110 "B
b10001110 m
b0000000000000000000 "8
b110 R
b10001110 h
b00001000 "C
b00011100 "F
b000000000000000000000 "9
b0000000000000 ":
b00001000 "E
b00000000 ";
#320000
0%
0"<
#324000
1%
1"<
b0000000000000000000000000100101 1
b110 Q
b110 ">
b00001000 "A
b00011100 "B
b00011100 m
bxxxxxxxxxxxxxxxxxxx "5
bxxxxxxxxxxxxxxxxxxx "6
bxxxxxxxxxxxxxxxxxxx "7
bxxxxxxxxxxxxxxxxxxx "8
b111 R
b00011100 h
b00010000 "C
b00111000 "F
bxxxxxxxxxxxxxxxxxxxxx "9
bxxxxxxxxxxxxx ":
b00010000 "E
bxxxxxxxx ";
#328000
0%
0"<
#332000
1%
1"<
b0000000000000000000000000100110 1
b111 Q
b111 ">
b00010000 "A
b00111000 "B
b00111000 m
b0000101 v
b0000101 "@
b00000101 T
b000 R
b00111000 h
0k
b00001010 "C
b01110000 "F
b00001010 "E
#336000
0%
0"<
#340000
1%
1"<
b0000000000000000000000000100111 1
b000 Q
b000 ">
b00000101 S
b00001010 "A
b01110000 "B
b01110000 m
b001 R
b0000101 l
b01110000 h
b11001000000101 f
1k
b00010100 "C
1"D
b11100001 "F
b00000010 "E
#341000
b00111000 e
#344000
0%
0"<
#348000
1%
1"<
b0000000000000000000000000101000 1
b001 Q
b001 ">
b00000010 "A
b11100001 "B
b11100001 m
b010 R
b11100001 h
b00000100 "C
0"D
b11000010 "F
b00000100 "E
#352000
0%
0"<
#356000
1%
1"<
b0000000000000000000000000101001 1
b010 Q
b010 ">
b00000100 "A
b11000010 "B
b11000010 m
b0000000000000000000 "5
b011 R
b11000010 h
b00001000 "C
b10000100 "F
b00001000 "E
#360000
0%
0"<
#364000
1%
1"<
b0000000000000000000000000101010 1
b011 Q
b011 ">
b00001000 "A
b10000100 "B
b10000100 m
b0000000000000000000 "6
b100 R
b10000100 h
b00010000 "C
b00001000 "F
b00010000 "E
#368000
0%
0"<
#372000
1%
1"<
b0000000000000000000000000101011 1
b100 Q
b100 ">
b00010000 "A
b00001000 "B
b00001000 m
b0000000000000000000 "7
b101 R
b00001000 h
b00100000 "C
1"D
b00010001 "F
b00001110 "E
#376000
0%
0"<
#380000
1%
1"<
b0000000000000000000000000101100 1
b101 Q
b101 ">
b00001110 "A
b00010001 "B
b00010001 m
b0000000000000000000 "8
b110 R
b00010001 h
b00011100 "C
b00100011 "F
b000000000000000000000 "9
b0000000000000 ":
b00001010 "E
b00000000 ";
#384000
0%
0"<
#388000
1%
1"<
b0000000000000000000000000101101 1
b110 Q
b110 ">
b00001010 "A
b00100011 "B
b00100011 m
bxxxxxxxxxxxxxxxxxxx "5
bxxxxxxxxxxxxxxxxxxx "6
bxxxxxxxxxxxxxxxxxxx "7
bxxxxxxxxxxxxxxxxxxx "8
b111 R
b00100011 h
b00010100 "C
b01000111 "F
bxxxxxxxxxxxxxxxxxxxxx "9
bxxxxxxxxxxxxx ":
b00000010 "E
bxxxxxxxx ";
#392000
0%
0"<
#396000
1%
1"<
b0000000000000000000000000101110 1
b111 Q
b111 ">
b00000010 "A
b01000111 "B
b01000111 m
b0000110 v
b0000110 "@
b00000110 T
b000 R
b01000111 h
0k
b00001100 "C
0"D
b10001110 "F
b00001100 "E
#400000
0%
0"<
#404000
1%
1"<
b0000000000000000000000000101111 1
b000 Q
b000 ">
b00000110 S
b00001100 "A
b10001110 "B
b10001110 m
b001 R
b0000110 l
b10001110 h
b11001000000110 f
1k
b00011000 "C
1"D
b00011101 "F
b00000110 "E
#405000
b01000111 e
#408000
0%
0"<
#412000
1%
1"<
b0000000000000000000000000110000 1
b001 Q
b001 ">
b00000110 "A
b00011101 "B
b00011101 m
b010 R
b00011101 h
b00001100 "C
0"D
b00111010 "F
b00001100 "E
#416000
0%
0"<
#420000
1%
1"<
b0000000000000000000000000110001 1
b010 Q
b010 ">
b00001100 "A
b00111010 "B
b00111010 m
b0000000000000000000 "5
b011 R
b00111010 h
b00011000 "C
1"D
b01110101 "F
b00000110 "E
#424000
0%
0"<
#428000
1%
1"<
b0000000000000000000000000110010 1
b011 Q
b011 ">
b00000110 "A
b01110101 "B
b01110101 m
b0000000000000000000 "6
b100 R
b01110101 h
b00001100 "C
0"D
b11101010 "F
b00001100 "E
#432000
0%
0"<
#436000
1%
1"<
b0000000000000000000000000110011 1
b100 Q
b100 ">
b00001100 "A
b11101010 "B
b11101010 m
b0000000000000000000 "7
b101 R
b11101010 h
b00011000 "C
1"D
b11010101 "F
b00000110 "E
#440000
0%
0"<
#444000
1%
1"<
b0000000000000000000000000110100 1
b101 Q
b101 ">
b00000110 "A
b11010101 "B
b11010101 m
b0000000000000000000 "8
b110 R
b11010101 h
b00001100 "C
0"D
b10101010 "F
b000000000000000000000 "9
b0000000000000 ":
b00001100 "E
b00000000 ";
#448000
0%
0"<
#452000
1%
1"<
b0000000000000000000000000110101 1
b110 Q
b110 ">
b00001100 "A
b10101010 "B
b10101010 m
bxxxxxxxxxxxxxxxxxxx "5
bxxxxxxxxxxxxxxxxxxx "6
bxxxxxxxxxxxxxxxxxxx "7
bxxxxxxxxxxxxxxxxxxx "8
b111 R
b10101010 h
b00011000 "C
1"D
b01010101 "F
bxxxxxxxxxxxxxxxxxxxxx "9
bxxxxxxxxxxxxx ":
b00000110 "E
bxxxxxxxx ";
#456000
0%
0"<
#460000
1%
1"<
b0000000000000000000000000110110 1
b111 Q
b111 ">
b00000110 "A
b01010101 "B
b01010101 m
b0000111 v
b0000111 "@
b00000111 T
b000 R
b01010101 h
0k
b00001110 "C
0"D
b10101010 "F
b00001110 "E
#464000
0%
0"<
#468000
1%
1"<
b0000000000000000000000000110111 1
b000 Q
b000 ">
b00000111 S
b00001110 "A
b10101010 "B
b10101010 m
b001 R
b0000111 l
b10101010 h
b11001000000111 f
1k
b00011100 "C
1"D
b01010101 "F
b00001010 "E
#469000
b01010101 e
#472000
0%
0"<
#476000
1%
1"<
b0000000000000000000000000111000 1
b001 Q
b001 ">
b00001010 "A
b01010101 "B
b01010101 m
b010 R
b01010101 h
b00010100 "C
b10101011 "F
b00000010 "E
#480000
0%
0"<
#484000
1%
1"<
b0000000000000000000000000111001 1
b010 Q
b010 ">
b00000010 "A
b10101011 "B
b10101011 m
b0000000000000000000 "5
b011 R
b10101011 h
b00000100 "C
0"D
b01010110 "F
b00000100 "E
#488000
0%
0"<
#492000
1%
1"<
b0000000000000000000000000111010 1
b011 Q
b011 ">
b00000100 "A
b01010110 "B
b01010110 m
b0000000000000000000 "6
b100 R
b01010110 h
b00001000 "C
b10101100 "F
b00001000 "E
#496000
0%
0"<
#500000
1%
1"<
b0000000000000000000000000111011 1
b100 Q
b100 ">
b00001000 "A
b10101100 "B
b10101100 m
b0000000000000000000 "7
b101 R
b10101100 h
b00010000 "C
b01011000 "F
b00010000 "E
#504000
0%
0"<
#508000
1%
1"<
b0000000000000000000000000111100 1
b101 Q
b101 ">
b00010000 "A
b01011000 "B
b01011000 m
b0000000000000000000 "8
b110 R
b01011000 h
b00100000 "C
1"D
b10110001 "F
b000000000000000000000 "9
b0000000000000 ":
b00001110 "E
b00000000 ";
#512000
0%
0"<
#516000
1%
1"<
b0000000000000000000000000111101 1
b110 Q
b110 ">
b00001110 "A
b10110001 "B
b10110001 m
bxxxxxxxxxxxxxxxxxxx "5
bxxxxxxxxxxxxxxxxxxx "6
bxxxxxxxxxxxxxxxxxxx "7
bxxxxxxxxxxxxxxxxxxx "8
b111 R
b10110001 h
b00011100 "C
b01100011 "F
bxxxxxxxxxxxxxxxxxxxxx "9
bxxxxxxxxxxxxx ":
b00001010 "E
bxxxxxxxx ";
#520000
0%
0"<
#524000
1%
1"<
b0000000000000000000000000111110 1
b111 Q
b111 ">
b00001010 "A
b01100011 "B
b01100011 m
b0001000 v
b0001000 "@
b00001000 T
b000 R
b01100011 h
0k
b00010000 "C
0"D
b11000110 "F
b00010000 "E
#528000
0%
0"<
#532000
1%
1"<
b0000000000000000000000000111111 1
b000 Q
b000 ">
b00001000 S
b00010000 "A
b11000110 "B
b11000110 m
b001 R
b0001000 l
b11000110 h
b11001000001000 f
1k
b00100000 "C
1"D
b10001101 "F
b00001110 "E
#533000
b01100011 e
#536000
0%
0"<
#540000
1%
1"<
b0000000000000000000000001000000 1
b001 Q
b001 ">
b00001110 "A
b10001101 "B
b10001101 m
b010 R
b10001101 h
b00011100 "C
b00011011 "F
b00001010 "E
#544000
0%
0"<
#548000
1%
1"<
b0000000000000000000000001000001 1
b010 Q
b010 ">
b00001010 "A
b00011011 m
b0000000000000000000 "5
b011 R
b00010100 "C
b00110111 "F
b00000010 "E
#552000
0%
0"<
#556000
1%
1"<
b0000000000000000000000001000010 1
b011 Q
b011 ">
b00000010 "A
b00110111 m
b0000000000000000000 "6
b100 R
b00000100 "C
0"D
b01101110 "F
b00000100 "E
#560000
0%
0"<
#564000
1%
1"<
b0000000000000000000000001000011 1
b100 Q
b100 ">
b00000100 "A
b01101110 m
b0000000000000000000 "7
b101 R
b00001000 "C
b11011100 "F
b00001000 "E
#568000
0%
0"<
