ver5/sim/Bicubic.vcd
$date
	Sat Aug 23 22:21:32 2025
$end

$version
	Synopsys VCS version W-2024.09-SP2_Full64
$end

$timescale
	1ps
$end

$comment Csum: 1 1014ac1b65eed0ef $end


$scope module testfixture $end
$var integer 32 ! fd $end
$var integer 32 " i $end
$var integer 32 # j $end
$var integer 32 $ patnum $end
$var reg 1 % CLK $end
$var reg 1 & RST $end
$var reg 7 ' V0 [6:0] $end
$var reg 7 ( H0 [6:0] $end
$var reg 5 ) SW [4:0] $end
$var reg 5 * SH [4:0] $end
$var reg 6 + TW [5:0] $end
$var reg 6 , TH [5:0] $end
$var wire 1 - DONE $end
$var reg 2 . state [1:0] $end
$var reg 2 / rst_count [1:0] $end
$var reg 32 0 pat_n [31:0] $end
$var reg 31 1 cycle_pat [30:0] $end
$var integer 32 2 charcount $end
$var integer 32 3 freturn $end
$var integer 32 4 wait_done $end
$var integer 32 5 error_pixels $end
$var integer 32 6 total_error_pixels $end
$var reg 8 7 pv [7:0] $end
$var integer 32 8 idx $end

$scope task score $end
$var integer 32 9 error_pixels $end
$upscope $end


$scope begin READ_PATTERN $end
$upscope $end


$scope module u_Bicubic $end
$var wire 1 % CLK $end
$var wire 1 & RST $end
$var wire 7 ' V0 [6:0] $end
$var wire 7 ( H0 [6:0] $end
$var wire 5 ) SW [4:0] $end
$var wire 5 * SH [4:0] $end
$var wire 6 + TW [5:0] $end
$var wire 6 , TH [5:0] $end
$var reg 1 - DONE $end
$var reg 7 : coord_h [6:0] $end
$var reg 7 ; coord_h_next [6:0] $end
$var reg 7 < coord_v [6:0] $end
$var reg 7 = coord_v_next [6:0] $end
$var reg 7 > prev_coord_h [6:0] $end
$var reg 7 ? prev_coord_h_next [6:0] $end
$var reg 7 @ prev_coord_v [6:0] $end
$var reg 7 A prev_coord_v_next [6:0] $end
$var reg 1 B DONE_next $end
$var reg 7 C quot_h [6:0] $end
$var reg 7 D quot_h_next [6:0] $end
$var reg 7 E quot_v [6:0] $end
$var reg 7 F quot_v_next [6:0] $end
$var reg 7 G rem_h [6:0] $end
$var reg 7 H rem_h_next [6:0] $end
$var reg 7 I rem_v [6:0] $end
$var reg 7 J rem_v_next [6:0] $end
$var reg 7 K prev_rem_v [6:0] $end
$var reg 7 L prev_rem_v_next [6:0] $end
$var reg 7 M next_rem_h [6:0] $end
$var reg 7 N next_rem_h_next [6:0] $end
$var reg 7 O next_rem_v [6:0] $end
$var reg 7 P next_rem_v_next [6:0] $end
$var reg 3 Q cycle_cnt [2:0] $end
$var reg 3 R cycle_cnt_next [2:0] $end
$var reg 8 S cycle_cnt_lv2 [7:0] $end
$var reg 8 T cycle_cnt_lv2_next [7:0] $end
$var reg 1 U mode $end
$var reg 1 V mode_next $end
$var reg 1 W prev_mode $end
$var reg 1 X prev_mode_next $end
$var reg 1 Y next_mode $end
$var reg 1 Z next_mode_next $end
$var reg 8 [ x1 [7:0] $end
$var reg 8 \ x1_next [7:0] $end
$var reg 8 ] x2 [7:0] $end
$var reg 8 ^ x2_next [7:0] $end
$var reg 8 _ x3 [7:0] $end
$var reg 8 ` x3_next [7:0] $end
$var reg 1 a state $end
$var reg 1 b state_next $end
$var reg 3 c line_shift [2:0] $end
$var wire 8 d ROM_data_o [7:0] $end
$var wire 8 e SRAM_data_o [7:0] $end
$var reg 14 f SRAM_addr [13:0] $end
$var reg 14 g ROM_addr [13:0] $end
$var reg 8 h SRAM_data_i [7:0] $end
$var reg 1 i ROM_CEN $end
$var reg 1 j SRAM_WEN $end
$var reg 1 k SRAM_CEN $end
$var reg 7 l calc_addr [6:0] $end
$var wire 8 m frac_val [7:0] $end
$var wire 8 m frac_8_val [7:0] $end
$var wire 8 n cubic_val [7:0] $end
$var wire 16 o x_x_raw_round [15:0] $end
$var wire 16 p x2_x_raw_round [15:0] $end
$var wire 1 q X_valid $end
$var wire 1 r V_valid $end
$var wire 24 s X_in [23:0] $end
$var wire 8 t P_in [7:0] $end
$var reg 7 u divider [6:0] $end
$var reg 7 v dividend [6:0] $end
$var reg 7 w ROM_addr_v [6:0] $end
$var reg 7 x ROM_addr_h [6:0] $end
$var reg 8 y signed_temp [7:0] $end

$scope module cubic_engine $end
$var wire 1 % clk $end
$var wire 1 & rst $end
$var wire 24 s X_in [23:0] $end
$var wire 8 t P_in [7:0] $end
$var wire 3 Q cycle_cnt [2:0] $end
$var reg 8 n out [7:0] $end
$var reg 8 n XCP [7:0] $end
$var reg 8 z XCP_next [7:0] $end
$var reg 22 { multiplier1 [21:0] $end
$var reg 22 | multiplier2 [21:0] $end
$var reg 22 } multiplier3 [21:0] $end
$var reg 22 ~ multiplier4 [21:0] $end
$var reg 24 "! adder1 [23:0] $end
$var wire 13 "" XCP_round [12:0] $end
$var wire 8 "# XCP_round_clamp [7:0] $end
$var reg 12 "$ p0 [11:0] $end
$var reg 12 "% p1 [11:0] $end
$var reg 12 "& p2 [11:0] $end
$var reg 12 "' p3 [11:0] $end
$upscope $end


$scope module sns_divider $end
$var wire 1 "( clk $end
$var wire 1 ") rst $end
$var wire 3 "* cycle_cnt [2:0] $end
$var wire 7 "+ divider [6:0] $end
$var wire 7 ", dividend [6:0] $end
$var wire 8 m frac_val [7:0] $end
$var reg 8 "- remainder [7:0] $end
$var reg 8 ". qoutient [7:0] $end
$var wire 8 "/ remainder_shift [7:0] $end
$var wire 1 "0 isGE $end
$var wire 8 "1 remainder_next [7:0] $end
$var wire 8 "2 qoutient_next [7:0] $end
$upscope $end

$upscope $end

$upscope $end

$enddefinitions $end

#0
$dumpvars
0%
xB
xi
1&
1k
1j
xU
xV
xY
xZ
xW
xX
xb
xq
xr
x-
xa
b0101101 (
bxxxxxxxx t
b00000000000000 g
b0000000 x
b0000000 w
b11101 *
b00000000000000 f
bxxxxxxxx h
b10000 )
b100101 ,
b011010 +
b0101101 '
bxxxxxxxx n
bxxxxxxxx z
bxxxxxxxxxxxxx ""
bxxxxxxxx "#
bxxxxxxxxxxxxxxxxxxxxxxxx s
bxxxxxxxxxxxxxxxxxxxxxxxx "!
b0000000 l
b00000000000000000000000000000000 2
bxxxxxxx :
bxxxxxxx ;
bxxxxxxx <
bxxxxxxx =
bxxx Q
bxxxxxxxx S
bxxxxxxxx T
bxxx R
b0000000000000000000000000000000 1
b0000000 v
b0000000 u
bxxxxxxxxxxxxxxxxxxxxxxxxxxxxxxxx 5
b10000000000000000000000000000011 !
b00000000000000000000000000000001 3
b00000000000000000000000000000001 "
bxxxxxxxxxxxxxxxxxxxxxxxxxxxxxxxx 8
b00000000000000000000011110000100 #
b000 c
bxxxxxxxxxxxxxxxxxxxxxx {
bxxxxxxxxxxxxxxxxxxxxxx |
bxxxxxxxxxxxxxxxxxxxxxx }
bxxxxxxxxxxxxxxxxxxxxxx ~
bxxxxxxx M
bxxxxxxx O
bxxxxxxx P
bxxxxxxxxxxxx "$
bxxxxxxxxxxxx "%
bxxxxxxxxxxxx "&
bxxxxxxxxxxxx "'
bxxxxxxx >
bxxxxxxx ?
bxxxxxxx @
bxxxxxxx A
bxxxxxxx K
bxxxxxxx L
bxxxxxxxx 7
bxxxxxxx C
bxxxxxxx D
bxxxxxxx E
bxxxxxxx F
bxxxxxxx G
bxxxxxxx H
bxxxxxxx I
bxxxxxxx J
b00 /
bxxxxxxxxxxxxxxxxxxxxxxxxxxxxxxxx 9
b00000000 y
b00 .
bxxxxxxxxxxxxxxxxxxxxxxxxxxxxxxxx 6
bxxxxxxxxxxxxxxxxxxxxxxxxxxxxxxxx 4
bxxxxxxxx [
bxxxxxxxx \
bxxxxxxxx ]
bxxxxxxxx ^
bxxxxxxxxxxxxxxxx p
bxxxxxxxx _
bxxxxxxxx `
bxxxxxxxxxxxxxxxx o
b00000000000000000000000000000000 0
x"0
bxxxxxxxx ".
bxxxxxxxx "2
bxxxxxxxx "-
bxxxxxxxx "1
bxxxxxxx0 "/
bxxxxxxx N
bxxxxxxxxxxxxxxxxxxxxxxxxxxxxxxxx $
bxxxxxxxx m
bxxxxxxxx d
bxxxxxxxx e
0"(
1")
bxxx "*
b0000000 "+
b0000000 ",
$end
#4000
1%
1"(
b0000000 :
b0000000 <
b0000000 >
b0000000 @
0-
b0000000 C
b0000000 E
b0000000 G
b0000000 I
b0000000 K
b0000000 M
b0000000 O
b000 Q
0q
b000 "*
b00000000 S
0U
0W
0Y
b00000000 [
b0000000010000000 o
b00000000 ]
b0000000010000000 p
b00000000 _
0a
0r
b00000000 n
b00000000 "-
b00000000 ".
b00000000 m
0b
b00000000 T
b001 R
0B
0Z
b0000000 ;
b0000000 =
b0000000 ?
b0000000 A
b0000000 F
b0000000 P
b00000000 h
b11001000000000 f
0j
b0000000 D
b0000000 H
b0000000 J
b0000000 L
0X
0V
1i
b00000000 \
b000000000000000000000000 "!
b0000000000000 ""
b0000000000000000000000 ~
b0000000000000000000000 }
b0000000000000000000000 |
b0000000000000000000000 {
b00000000 t
b000000000000000000000000 s
b0011001 u
b0011001 "+
0"0
b00000000 ^
b00000000 `
b00000000 "/
b00000000 "2
b00000000 "#
b00000000 "1
b00000000 z
#5000
b01 /
b00000000000000000000000000000000 4
#8000
0%
0"(
#12000
1%
1"(
#13000
b10 /
#16000
0%
0"(
#20000
1%
1"(
#21000
b00000000000000000000000000000000 6
0&
0")
b00 /
b01 .
#24000
0%
0"(
#28000
1%
1"(
b10 .
bxxxxxxx M
b001 Q
b001 "*
b010 R
b000000000000 "'
b000000000000 "&
b000000000000 "%
b000000000000 "$
#32000
0%
0"(
#36000
1%
1"(
b0000000000000000000000000000001 1
b010 Q
b010 "*
b011 R
b000000000000000111111110 "!
b0000000000000111111110 ~
b000111111110 "'
#40000
0%
0"(
#44000
1%
1"(
b0000000000000000000000000000010 1
b011 Q
b011 "*
b100 R
b000000000000000000000000 "!
b0000000000000000000000 ~
b000000000000 "'
#48000
0%
0"(
#52000
1%
1"(
b0000000000000000000000000000011 1
b100 Q
b100 "*
b101 R
#56000
0%
0"(
#60000
1%
1"(
b0000000000000000000000000000100 1
b101 Q
b101 "*
b110 R
#64000
0%
0"(
#68000
1%
1"(
b0000000000000000000000000000101 1
b110 Q
b110 "*
b111 R
#72000
0%
0"(
#76000
1%
1"(
b0000000000000000000000000000110 1
b111 Q
b111 "*
b0000001 v
b0000001 ",
b00000001 T
b000 R
0k
b00000010 "/
b00000010 "1
#80000
0%
0"(
#84000
1%
1"(
b0000000000000000000000000000111 1
b000 Q
b000 "*
b00000001 S
b00000010 "-
b001 R
b0000001 l
b11001000000001 f
1k
b00000100 "/
b00000100 "1
#85000
b00000000 e
#88000
0%
0"(
#92000
1%
1"(
b0000000000000000000000000001000 1
b001 Q
b001 "*
b00000100 "-
b010 R
b00001000 "/
b00001000 "1
#96000
0%
0"(
#100000
1%
1"(
b0000000000000000000000000001001 1
b010 Q
b010 "*
b00001000 "-
b011 R
b000000000000000111111110 "!
b0000000000000111111110 ~
b000111111110 "'
b00010000 "/
b00010000 "1
#104000
0%
0"(
#108000
1%
1"(
b0000000000000000000000000001010 1
b011 Q
b011 "*
b00010000 "-
b100 R
b000000000000000000000000 "!
b0000000000000000000000 ~
b000000000000 "'
b00100000 "/
1"0
b00000111 "1
b00000001 "2
#112000
0%
0"(
#116000
1%
1"(
b0000000000000000000000000001011 1
b100 Q
b100 "*
b00000111 "-
b00000001 ".
b00000001 m
b101 R
b00000001 h
b00001110 "/
0"0
b00000010 "2
b00001110 "1
#120000
0%
0"(
#124000
1%
1"(
b0000000000000000000000000001100 1
b101 Q
b101 "*
b00001110 "-
b00000010 ".
b00000010 m
b110 R
b00000010 h
b00011100 "/
1"0
b00000101 "2
b00000011 "1
#128000
0%
0"(
#132000
1%
1"(
b0000000000000000000000000001101 1
b110 Q
b110 "*
b00000011 "-
b00000101 ".
b00000101 m
b111 R
b00000101 h
b00000110 "/
0"0
b00001010 "2
b00000110 "1
#136000
0%
0"(
#140000
1%
1"(
b0000000000000000000000000001110 1
b111 Q
b111 "*
b00000110 "-
b00001010 ".
b00001010 m
b0000010 v
b0000010 ",
b00000010 T
b000 R
b00001010 h
0k
b00000100 "/
b00010100 "2
b00000100 "1
#144000
0%
0"(
#148000
1%
1"(
b0000000000000000000000000001111 1
b000 Q
b000 "*
b00000010 S
b00000100 "-
b00010100 ".
b00010100 m
b001 R
b0000010 l
b00010100 h
b11001000000010 f
1k
b00001000 "/
b00101000 "2
b00001000 "1
#149000
b00001010 e
#152000
0%
0"(
#156000
1%
1"(
b0000000000000000000000000010000 1
b001 Q
b001 "*
b00001000 "-
b00101000 ".
b00101000 m
b010 R
b00101000 h
b00010000 "/
b01010000 "2
b00010000 "1
#160000
0%
0"(
#164000
1%
1"(
b0000000000000000000000000010001 1
b010 Q
b010 "*
b00010000 "-
b01010000 ".
b01010000 m
b011 R
b01010000 h
b000000000000000111111110 "!
b0000000000000111111110 ~
b000111111110 "'
b00100000 "/
1"0
b10100001 "2
b00000111 "1
#168000
0%
0"(
#172000
1%
1"(
b0000000000000000000000000010010 1
b011 Q
b011 "*
b00000111 "-
b10100001 ".
b10100001 m
b100 R
b10100001 h
b000000000000000000000000 "!
b0000000000000000000000 ~
b000000000000 "'
b00001110 "/
0"0
b01000010 "2
b00001110 "1
#176000
0%
0"(
#180000
1%
1"(
b0000000000000000000000000010011 1
b100 Q
b100 "*
b00001110 "-
b01000010 ".
b01000010 m
b101 R
b01000010 h
b00011100 "/
1"0
b10000101 "2
b00000011 "1
#184000
0%
0"(
#188000
1%
1"(
b0000000000000000000000000010100 1
b101 Q
b101 "*
b00000011 "-
b10000101 ".
b10000101 m
b110 R
b10000101 h
b00000110 "/
0"0
b00001010 "2
b00000110 "1
#192000
0%
0"(
#196000
1%
1"(
b0000000000000000000000000010101 1
b110 Q
b110 "*
b00000110 "-
b00001010 ".
b00001010 m
b111 R
b00001010 h
b00001100 "/
b00010100 "2
b00001100 "1
#200000
0%
0"(
#204000
1%
1"(
b0000000000000000000000000010110 1
b111 Q
b111 "*
b00001100 "-
b00010100 ".
b00010100 m
b0000011 v
b0000011 ",
b00000011 T
b000 R
b00010100 h
0k
b00000110 "/
b00101000 "2
b00000110 "1
#208000
0%
0"(
#212000
1%
1"(
b0000000000000000000000000010111 1
b000 Q
b000 "*
b00000011 S
b00000110 "-
b00101000 ".
b00101000 m
b001 R
b0000011 l
b00101000 h
b11001000000011 f
1k
b00001100 "/
b01010000 "2
b00001100 "1
#213000
b00010100 e
#216000
0%
0"(
#220000
1%
1"(
b0000000000000000000000000011000 1
b001 Q
b001 "*
b00001100 "-
b01010000 ".
b01010000 m
b010 R
b01010000 h
b00011000 "/
b10100000 "2
b00011000 "1
#224000
0%
0"(
#228000
1%
1"(
b0000000000000000000000000011001 1
b010 Q
b010 "*
b00011000 "-
b10100000 ".
b10100000 m
b011 R
b10100000 h
b000000000000000111111110 "!
b0000000000000111111110 ~
b000111111110 "'
b00110000 "/
1"0
b01000001 "2
b00010111 "1
#232000
0%
0"(
#236000
1%
1"(
b0000000000000000000000000011010 1
b011 Q
b011 "*
b00010111 "-
b01000001 ".
b01000001 m
b100 R
b01000001 h
b000000000000000000000000 "!
b0000000000000000000000 ~
b000000000000 "'
b00101110 "/
b10000011 "2
b00010101 "1
#240000
0%
0"(
#244000
1%
1"(
b0000000000000000000000000011011 1
b100 Q
b100 "*
b00010101 "-
b10000011 ".
b10000011 m
b101 R
b10000011 h
b00101010 "/
b00000111 "2
b00010001 "1
#248000
0%
0"(
#252000
1%
1"(
b0000000000000000000000000011100 1
b101 Q
b101 "*
b00010001 "-
b00000111 ".
b00000111 m
b110 R
b00000111 h
b00100010 "/
b00001111 "2
b00001001 "1
#256000
0%
0"(
#260000
1%
1"(
b0000000000000000000000000011101 1
b110 Q
b110 "*
b00001001 "-
b00001111 ".
b00001111 m
b111 R
b00001111 h
b00010010 "/
0"0
b00011110 "2
b00010010 "1
#264000
0%
0"(
#268000
1%
1"(
b0000000000000000000000000011110 1
b111 Q
b111 "*
b00010010 "-
b00011110 ".
b00011110 m
b0000100 v
b0000100 ",
b00000100 T
b000 R
b00011110 h
0k
b00001000 "/
b00111100 "2
b00001000 "1
#272000
0%
0"(
#276000
1%
1"(
b0000000000000000000000000011111 1
b000 Q
b000 "*
b00000100 S
b00001000 "-
b00111100 ".
b00111100 m
b001 R
b0000100 l
b00111100 h
b11001000000100 f
1k
b00010000 "/
b01111000 "2
b00010000 "1
#277000
b00011110 e
#280000
0%
0"(
#284000
1%
1"(
b0000000000000000000000000100000 1
b001 Q
b001 "*
b00010000 "-
b01111000 ".
b01111000 m
b010 R
b01111000 h
b00100000 "/
1"0
b11110001 "2
b00000111 "1
#288000
0%
0"(
#292000
1%
1"(
b0000000000000000000000000100001 1
b010 Q
b010 "*
b00000111 "-
b11110001 ".
b11110001 m
b011 R
b11110001 h
b000000000000000111111110 "!
b0000000000000111111110 ~
b000111111110 "'
b00001110 "/
0"0
b11100010 "2
b00001110 "1
#296000
0%
0"(
#300000
1%
1"(
b0000000000000000000000000100010 1
b011 Q
b011 "*
b00001110 "-
b11100010 ".
b11100010 m
b100 R
b11100010 h
b000000000000000000000000 "!
b0000000000000000000000 ~
b000000000000 "'
b00011100 "/
1"0
b11000101 "2
b00000011 "1
#304000
0%
0"(
#308000
1%
1"(
b0000000000000000000000000100011 1
b100 Q
b100 "*
b00000011 "-
b11000101 ".
b11000101 m
b101 R
b11000101 h
b00000110 "/
0"0
b10001010 "2
b00000110 "1
#312000
0%
0"(
#316000
1%
1"(
b0000000000000000000000000100100 1
b101 Q
b101 "*
b00000110 "-
b10001010 ".
b10001010 m
b110 R
b10001010 h
b00001100 "/
b00010100 "2
b00001100 "1
#320000
0%
0"(
#324000
1%
1"(
b0000000000000000000000000100101 1
b110 Q
b110 "*
b00001100 "-
b00010100 ".
b00010100 m
b111 R
b00010100 h
b00011000 "/
b00101000 "2
b00011000 "1
#328000
0%
0"(
#332000
1%
1"(
b0000000000000000000000000100110 1
b111 Q
b111 "*
b00011000 "-
b00101000 ".
b00101000 m
b0000101 v
b0000101 ",
b00000101 T
b000 R
b00101000 h
0k
b00001010 "/
b01010000 "2
b00001010 "1
#336000
0%
0"(
#340000
1%
1"(
b0000000000000000000000000100111 1
b000 Q
b000 "*
b00000101 S
b00001010 "-
b01010000 ".
b01010000 m
b001 R
b0000101 l
b01010000 h
b11001000000101 f
1k
b00010100 "/
b10100000 "2
b00010100 "1
#341000
b00101000 e
#344000
0%
0"(
#348000
1%
1"(
b0000000000000000000000000101000 1
b001 Q
b001 "*
b00010100 "-
b10100000 ".
b10100000 m
b010 R
b10100000 h
b00101000 "/
1"0
b01000001 "2
b00001111 "1
#352000
0%
0"(
#356000
1%
1"(
b0000000000000000000000000101001 1
b010 Q
b010 "*
b00001111 "-
b01000001 ".
b01000001 m
b011 R
b01000001 h
b000000000000000111111110 "!
b0000000000000111111110 ~
b000111111110 "'
b00011110 "/
b10000011 "2
b00000101 "1
#360000
0%
0"(
#364000
1%
1"(
b0000000000000000000000000101010 1
b011 Q
b011 "*
b00000101 "-
b10000011 ".
b10000011 m
b100 R
b10000011 h
b000000000000000000000000 "!
b0000000000000000000000 ~
b000000000000 "'
b00001010 "/
0"0
b00000110 "2
b00001010 "1
#368000
0%
0"(
#372000
1%
1"(
b0000000000000000000000000101011 1
b100 Q
b100 "*
b00001010 "-
b00000110 ".
b00000110 m
b101 R
b00000110 h
b00010100 "/
b00001100 "2
b00010100 "1
#376000
0%
0"(
#380000
1%
1"(
b0000000000000000000000000101100 1
b101 Q
b101 "*
b00010100 "-
b00001100 ".
b00001100 m
b110 R
b00001100 h
b00101000 "/
1"0
b00011001 "2
b00001111 "1
#384000
0%
0"(
#388000
1%
1"(
b0000000000000000000000000101101 1
b110 Q
b110 "*
b00001111 "-
b00011001 ".
b00011001 m
b111 R
b00011001 h
b00011110 "/
b00110011 "2
b00000101 "1
#392000
0%
0"(
#396000
1%
1"(
b0000000000000000000000000101110 1
b111 Q
b111 "*
b00000101 "-
b00110011 ".
b00110011 m
b0000110 v
b0000110 ",
b00000110 T
b000 R
b00110011 h
0k
b00001100 "/
0"0
b01100110 "2
b00001100 "1
#400000
0%
0"(
#404000
1%
1"(
b0000000000000000000000000101111 1
b000 Q
b000 "*
b00000110 S
b00001100 "-
b01100110 ".
b01100110 m
b001 R
b0000110 l
b01100110 h
b11001000000110 f
1k
b00011000 "/
b11001100 "2
b00011000 "1
#405000
b00110011 e
#408000
0%
0"(
#412000
1%
1"(
b0000000000000000000000000110000 1
b001 Q
b001 "*
b00011000 "-
b11001100 ".
b11001100 m
b010 R
b11001100 h
b00110000 "/
1"0
b10011001 "2
b00010111 "1
#416000
0%
0"(
#420000
1%
1"(
b0000000000000000000000000110001 1
b010 Q
b010 "*
b00010111 "-
b10011001 ".
b10011001 m
b011 R
b10011001 h
b000000000000000111111110 "!
b0000000000000111111110 ~
b000111111110 "'
b00101110 "/
b00110011 "2
b00010101 "1
#424000
0%
0"(
#428000
1%
1"(
b0000000000000000000000000110010 1
b011 Q
b011 "*
b00010101 "-
b00110011 ".
b00110011 m
b100 R
b00110011 h
b000000000000000000000000 "!
b0000000000000000000000 ~
b000000000000 "'
b00101010 "/
b01100111 "2
b00010001 "1
#432000
0%
0"(
#436000
1%
1"(
b0000000000000000000000000110011 1
b100 Q
b100 "*
b00010001 "-
b01100111 ".
b01100111 m
b101 R
b01100111 h
b00100010 "/
b11001111 "2
b00001001 "1
#440000
0%
0"(
#444000
1%
1"(
b0000000000000000000000000110100 1
b101 Q
b101 "*
b00001001 "-
b11001111 ".
b11001111 m
b110 R
b11001111 h
b00010010 "/
0"0
b10011110 "2
b00010010 "1
#448000
0%
0"(
#452000
1%
1"(
b0000000000000000000000000110101 1
b110 Q
b110 "*
b00010010 "-
b10011110 ".
b10011110 m
b111 R
b10011110 h
b00100100 "/
1"0
b00111101 "2
b00001011 "1
#456000
0%
0"(
#460000
1%
1"(
b0000000000000000000000000110110 1
b111 Q
b111 "*
b00001011 "-
b00111101 ".
b00111101 m
b0000111 v
b0000111 ",
b00000111 T
b000 R
b00111101 h
0k
b00001110 "/
0"0
b01111010 "2
b00001110 "1
#464000
0%
0"(
#468000
1%
1"(
b0000000000000000000000000110111 1
b000 Q
b000 "*
b00000111 S
b00001110 "-
b01111010 ".
b01111010 m
b001 R
b0000111 l
b01111010 h
b11001000000111 f
1k
b00011100 "/
1"0
b11110101 "2
b00000011 "1
#469000
b00111101 e
#472000
0%
0"(
#476000
1%
1"(
b0000000000000000000000000111000 1
b001 Q
b001 "*
b00000011 "-
b11110101 ".
b11110101 m
b010 R
b11110101 h
b00000110 "/
0"0
b11101010 "2
b00000110 "1
#480000
0%
0"(
#484000
1%
1"(
b0000000000000000000000000111001 1
b010 Q
b010 "*
b00000110 "-
b11101010 ".
b11101010 m
b011 R
b11101010 h
b000000000000000111111110 "!
b0000000000000111111110 ~
b000111111110 "'
b00001100 "/
b11010100 "2
b00001100 "1
#488000
0%
0"(
#492000
1%
1"(
b0000000000000000000000000111010 1
b011 Q
b011 "*
b00001100 "-
b11010100 ".
b11010100 m
b100 R
b11010100 h
b000000000000000000000000 "!
b0000000000000000000000 ~
b000000000000 "'
b00011000 "/
b10101000 "2
b00011000 "1
#496000
0%
0"(
#500000
1%
1"(
b0000000000000000000000000111011 1
b100 Q
b100 "*
b00011000 "-
b10101000 ".
b10101000 m
b101 R
b10101000 h
b00110000 "/
1"0
b01010001 "2
b00010111 "1
#504000
0%
0"(
#508000
1%
1"(
b0000000000000000000000000111100 1
b101 Q
b101 "*
b00010111 "-
b01010001 ".
b01010001 m
b110 R
b01010001 h
b00101110 "/
b10100011 "2
b00010101 "1
#512000
0%
0"(
#516000
1%
1"(
b0000000000000000000000000111101 1
b110 Q
b110 "*
b00010101 "-
b10100011 ".
b10100011 m
b111 R
b10100011 h
b00101010 "/
b01000111 "2
b00010001 "1
#520000
0%
0"(
#524000
1%
1"(
b0000000000000000000000000111110 1
b111 Q
b111 "*
b00010001 "-
b01000111 ".
b01000111 m
b0001000 v
b0001000 ",
b00001000 T
b000 R
b01000111 h
0k
b00010000 "/
0"0
b10001110 "2
b00010000 "1
#528000
0%
0"(
#532000
1%
1"(
b0000000000000000000000000111111 1
b000 Q
b000 "*
b00001000 S
b00010000 "-
b10001110 ".
b10001110 m
b001 R
b0001000 l
b10001110 h
b11001000001000 f
1k
b00100000 "/
1"0
b00011101 "2
b00000111 "1
#533000
b01000111 e
#536000
0%
0"(
#540000
1%
1"(
b0000000000000000000000001000000 1
b001 Q
b001 "*
b00000111 "-
b00011101 ".
b00011101 m
b010 R
b00011101 h
b00001110 "/
0"0
b00111010 "2
b00001110 "1
#544000
0%
0"(
#548000
1%
1"(
b0000000000000000000000001000001 1
b010 Q
b010 "*
b00001110 "-
b00111010 m
b011 R
b000000000000000111111110 "!
b0000000000000111111110 ~
b000111111110 "'
b00011100 "/
1"0
b01110101 "2
b00000011 "1
#552000
0%
0"(
#556000
1%
1"(
b0000000000000000000000001000010 1
b011 Q
b011 "*
b00000011 "-
b01110101 m
b100 R
b000000000000000000000000 "!
b0000000000000000000000 ~
b000000000000 "'
b00000110 "/
0"0
b11101010 "2
b00000110 "1
#560000
0%
0"(
#564000
1%
1"(
b0000000000000000000000001000011 1
b100 Q
b100 "*
b00000110 "-
b11101010 m
b101 R
b00001100 "/
b11010100 "2
b00001100 "1
#568000
0%
0"(
#572000
1%
1"(
b0000000000000000000000001000100 1
b101 Q
b101 "*
b00001100 "-
b11010100 m
b110 R
b00011000 "/
b10101000 "2
b00011000 "1
#576000
0%
0"(
#580000
1%
1"(
b0000000000000000000000001000101 1
b110 Q
b110 "*
b00011000 "-
b10101000 m
b111 R
b00110000 "/
1"0
b01010001 "2
b00010111 "1
#584000
0%
0"(
#588000
1%
1"(
b0000000000000000000000001000110 1
b111 Q
b111 "*
b00010111 "-
b01010001 m
b0001001 v
b0001001 ",
b00001001 T
b000 R
0k
b00010010 "/
0"0
b10100010 "2
b00010010 "1
#592000
0%
0"(
#596000
1%
1"(
b0000000000000000000000001000111 1
b000 Q
b000 "*
b00001001 S
b00010010 "-
b10100010 m
b001 R
b0001001 l
b11001000001001 f
1k
b00100100 "/
1"0
b01000101 "2
b00001011 "1
#597000
b01010001 e
#600000
0%
0"(
#604000
1%
1"(
b0000000000000000000000001001000 1
b001 Q
b001 "*
b00001011 "-
b01000101 m
b010 R
b00010110 "/
0"0
b10001010 "2
b00010110 "1
#608000
0%
0"(
#612000
1%
1"(
b0000000000000000000000001001001 1
b010 Q
b010 "*
b00010110 "-
b10001010 m
b011 R
b000000000000000111111110 "!
b0000000000000111111110 ~
b000111111110 "'
b00101100 "/
1"0
b00010101 "2
b00010011 "1
#616000
0%
0"(
#620000
1%
1"(
b0000000000000000000000001001010 1
b011 Q
b011 "*
b00010011 "-
b00010101 m
b100 R
b000000000000000000000000 "!
b0000000000000000000000 ~
b000000000000 "'
b00100110 "/
b00101011 "2
b00001101 "1
#624000
0%
0"(
#628000
1%
1"(
b0000000000000000000000001001011 1
b100 Q
b100 "*
b00001101 "-
b00101011 m
b101 R
b00011010 "/
b01010111 "2
b00000001 "1
#632000
0%
0"(
#636000
1%
1"(
b0000000000000000000000001001100 1
b101 Q
b101 "*
b00000001 "-
b01010111 m
b110 R
b00000010 "/
0"0
b10101110 "2
b00000010 "1
#640000
0%
0"(
#644000
1%
1"(
b0000000000000000000000001001101 1
b110 Q
b110 "*
b00000010 "-
b10101110 m
b111 R
b00000100 "/
b01011100 "2
b00000100 "1
#648000
0%
0"(
#652000
1%
1"(
b0000000000000000000000001001110 1
b111 Q
b111 "*
b00000100 "-
b01011100 m
b0001010 v
b0001010 ",
b00001010 T
b000 R
0k
b00010100 "/
b10111000 "2
b00010100 "1
#656000
0%
0"(
#660000
1%
1"(
b0000000000000000000000001001111 1
b000 Q
b000 "*
b00001010 S
b00010100 "-
b10111000 m
b001 R
b0001010 l
b11001000001010 f
1k
b00101000 "/
1"0
b01110001 "2
b00001111 "1
#661000
b01011100 e
#664000
0%
0"(
#668000
1%
1"(
b0000000000000000000000001010000 1
b001 Q
b001 "*
b00001111 "-
b01110001 m
b010 R
b00011110 "/
b11100011 "2
b00000101 "1
#672000
0%
0"(
#676000
1%
1"(
b0000000000000000000000001010001 1
b010 Q
b010 "*
b00000101 "-
b11100011 m
b011 R
b000000000000000111111110 "!
b0000000000000111111110 ~
b000111111110 "'
b00001010 "/
0"0
b11000110 "2
b00001010 "1
#680000
0%
0"(
#684000
1%
1"(
b0000000000000000000000001010010 1
b011 Q
b011 "*
b00001010 "-
b11000110 m
b100 R
b000000000000000000000000 "!
b0000000000000000000000 ~
b000000000000 "'
b00010100 "/
b10001100 "2
b00010100 "1
#688000
0%
0"(
#692000
1%
1"(
b0000000000000000000000001010011 1
b100 Q
b100 "*
b00010100 "-
b10001100 m
b101 R
b00101000 "/
1"0
b00011001 "2
b00001111 "1
#696000
0%
0"(
#700000
1%
1"(
b0000000000000000000000001010100 1
b101 Q
b101 "*
b00001111 "-
b00011001 m
b110 R
b00011110 "/
b00110011 "2
b00000101 "1
#704000
0%
0"(
#708000
1%
1"(
b0000000000000000000000001010101 1
b110 Q
b110 "*
b00000101 "-
b00110011 m
b111 R
b00001010 "/
0"0
b01100110 "2
b00001010 "1
#712000
0%
0"(
#716000
1%
1"(
b0000000000000000000000001010110 1
b111 Q
b111 "*
b00001010 "-
b01100110 m
b0001011 v
b0001011 ",
b00001011 T
b000 R
0k
b00010110 "/
b11001100 "2
b00010110 "1
#720000
0%
0"(
