ver3/sim/Bicubic.vcd
$date
	Mon Aug 18 09:43:26 2025
$end

$version
	Synopsys VCS version W-2024.09-SP2_Full64
$end

$timescale
	1ps
$end

$comment Csum: 1 1014ac1b65eed0ef $end


$scope module testfixture $end
$var integer 32 ! fd $end
$var integer 32 " i $end
$var integer 32 # j $end
$var integer 32 $ patnum $end
$var reg 1 % CLK $end
$var reg 1 & RST $end
$var reg 7 ' V0 [6:0] $end
$var reg 7 ( H0 [6:0] $end
$var reg 5 ) SW [4:0] $end
$var reg 5 * SH [4:0] $end
$var reg 6 + TW [5:0] $end
$var reg 6 , TH [5:0] $end
$var wire 1 - DONE $end
$var reg 2 . state [1:0] $end
$var reg 2 / rst_count [1:0] $end
$var reg 32 0 pat_n [31:0] $end
$var reg 31 1 cycle_pat [30:0] $end
$var integer 32 2 charcount $end
$var integer 32 3 freturn $end
$var integer 32 4 wait_done $end
$var integer 32 5 error_pixels $end
$var integer 32 6 total_error_pixels $end
$var reg 8 7 pv [7:0] $end
$var integer 32 8 idx $end

$scope task score $end
$var integer 32 9 error_pixels $end
$upscope $end


$scope begin READ_PATTERN $end
$upscope $end


$scope module u_Bicubic $end
$var wire 1 : CLK $end
$var wire 1 & RST $end
$var wire 7 ' V0 [6:0] $end
$var wire 7 ( H0 [6:0] $end
$var wire 5 ) SW [4:0] $end
$var wire 5 * SH [4:0] $end
$var wire 6 + TW [5:0] $end
$var wire 6 , TH [5:0] $end
$var reg 1 - DONE $end
$var reg 7 ; coord_h [6:0] $end
$var reg 7 < coord_h_next [6:0] $end
$var reg 7 = coord_v [6:0] $end
$var reg 7 > coord_v_next [6:0] $end
$var reg 7 ? prev_coord_h [6:0] $end
$var reg 7 @ prev_coord_h_next [6:0] $end
$var reg 7 A prev_coord_v [6:0] $end
$var reg 7 B prev_coord_v_next [6:0] $end
$var reg 1 C DONE_next $end
$var reg 7 D quot_h [6:0] $end
$var reg 7 E quot_h_next [6:0] $end
$var reg 7 F quot_v [6:0] $end
$var reg 7 G quot_v_next [6:0] $end
$var reg 7 H rem_h [6:0] $end
$var reg 7 I rem_h_next [6:0] $end
$var reg 7 J rem_v [6:0] $end
$var reg 7 K rem_v_next [6:0] $end
$var reg 7 L next_rem_h [6:0] $end
$var reg 7 M next_rem_h_next [6:0] $end
$var reg 7 N next_rem_v [6:0] $end
$var reg 7 O next_rem_v_next [6:0] $end
$var reg 3 P cycle_cnt [2:0] $end
$var reg 3 Q cycle_cnt_next [2:0] $end
$var reg 8 R cycle_cnt_lv2 [7:0] $end
$var reg 8 S cycle_cnt_lv2_next [7:0] $end
$var reg 1 T mode $end
$var reg 1 U mode_next $end
$var reg 1 V prev_mode $end
$var reg 1 W prev_mode_next $end
$var reg 1 X next_mode $end
$var reg 1 Y next_mode_next $end
$var reg 8 Z x1 [7:0] $end
$var reg 8 [ x1_next [7:0] $end
$var reg 8 \ x2 [7:0] $end
$var reg 8 ] x2_next [7:0] $end
$var reg 8 ^ x3 [7:0] $end
$var reg 8 _ x3_next [7:0] $end
$var reg 1 ` state $end
$var reg 1 a state_next $end
$var reg 3 b line_shift [2:0] $end
$var wire 8 c ROM_data_o [7:0] $end
$var wire 8 d SRAM_data_o [7:0] $end
$var reg 14 e SRAM_addr [13:0] $end
$var reg 14 f ROM_addr [13:0] $end
$var reg 8 g SRAM_data_i [7:0] $end
$var reg 1 h ROM_CEN $end
$var reg 1 i SRAM_WEN $end
$var reg 1 j SRAM_CEN $end
$var reg 7 k calc_addr [6:0] $end
$var wire 8 l frac_val [7:0] $end
$var wire 8 m cubic_val [7:0] $end
$var wire 16 n x_x_raw_round [15:0] $end
$var wire 16 o x2_x_raw_round [15:0] $end
$var wire 1 p X_valid $end
$var wire 1 q V_valid $end
$var wire 24 r X_in [23:0] $end
$var wire 8 s P_in [7:0] $end
$var reg 7 t divider [6:0] $end
$var reg 7 u dividend [6:0] $end
$var reg 7 v ROM_addr_v [6:0] $end
$var reg 7 w ROM_addr_h [6:0] $end
$var reg 8 x signed_temp [7:0] $end

$scope module cubic_engine $end
$var wire 1 : clk $end
$var wire 1 & rst $end
$var wire 24 r X_in [23:0] $end
$var wire 8 s P_in [7:0] $end
$var wire 3 P cycle_cnt [2:0] $end
$var reg 8 m out [7:0] $end
$var reg 8 m XCP [7:0] $end
$var reg 8 y XCP_next [7:0] $end
$var wire 12 z XC0_prod0 [11:0] $end
$var wire 12 { XC0_prod1 [11:0] $end
$var wire 12 | XC0_prod2 [11:0] $end
$var wire 12 } XC0_prod3 [11:0] $end
$var wire 12 ~ XC1_prod0 [11:0] $end
$var wire 12 "! XC1_prod1 [11:0] $end
$var wire 12 "" XC1_prod2 [11:0] $end
$var wire 12 "# XC1_prod3 [11:0] $end
$var wire 12 "$ XC2_prod0 [11:0] $end
$var wire 12 "% XC2_prod1 [11:0] $end
$var wire 12 "& XC2_prod2 [11:0] $end
$var wire 12 "' XC2_prod3 [11:0] $end
$var wire 12 "( XC3_prod0 [11:0] $end
$var wire 12 ") XC3_prod1 [11:0] $end
$var wire 12 "* XC3_prod2 [11:0] $end
$var wire 12 "+ XC3_prod3 [11:0] $end
$var wire 14 ", XC_sum0 [13:0] $end
$var wire 14 "- XC_sum1 [13:0] $end
$var wire 14 ". XC_sum2 [13:0] $end
$var wire 14 "/ XC_sum3 [13:0] $end
$var wire 13 "0 XC_sum0_round_shift [12:0] $end
$var wire 13 "1 XC_sum1_round_shift [12:0] $end
$var wire 13 "2 XC_sum2_round_shift [12:0] $end
$var wire 13 "3 XC_sum3_round_shift [12:0] $end
$var wire 19 "4 XC0P0_prod [18:0] $end
$var wire 19 "5 XC1P1_prod [18:0] $end
$var wire 19 "6 XC2P2_prod [18:0] $end
$var wire 19 "7 XC3P3_prod [18:0] $end
$var wire 21 "8 XCP_sum [20:0] $end
$var wire 13 "9 XCP_sum_round_shift [12:0] $end
$var wire 8 ": XCP_sum_round_shift_clamp [7:0] $end
$upscope $end


$scope module sns_divider $end
$var wire 1 : clk $end
$var wire 1 & rst $end
$var wire 3 P cycle_cnt [2:0] $end
$var wire 7 t divider [6:0] $end
$var wire 7 u dividend [6:0] $end
$var wire 8 l frac_val [7:0] $end
$var reg 8 "; remainder [7:0] $end
$var reg 8 l qoutient [7:0] $end
$var wire 8 "< remainder_shift [7:0] $end
$var wire 1 "= isGE $end
$var wire 8 "> remainder_next [7:0] $end
$var wire 8 "? qoutient_next [7:0] $end
$upscope $end

$upscope $end

$upscope $end

$enddefinitions $end

#0
$dumpvars
0%
xC
xh
1&
1j
1i
x"=
xT
xU
xX
xY
xV
xW
xa
xp
xq
x-
x`
b1010001 (
bxxxxxxxx s
b00000000000000 f
b0000000 w
b0000000 v
bxxxxxxxx c
b01111 *
b00000000000000 e
bxxxxxxxx g
b10001 )
b011100 ,
b010110 +
b0010010 '
bxxxxxxxxxxxxxxxxxxx "4
bxxxxxxxxxxxx z
bxxxxxxxxxxxx {
bxxxxxxxxxxxx |
bxxxxxxxxxxxx }
bxxxxxxxxxxxxxxxxxxx "5
bxxxxxxxxxxxx ~
bxxxxxxxxxxxx "!
bxxxxxxxxxxxx ""
bxxxxxxxxxxxx "#
bxxxxxxxxxxxxxxxxxxx "6
bxxxxxxxxxxxx "$
bxxxxxxxxxxxx "%
bxxxxxxxxxxxx "&
bxxxxxxxxxxxx "'
bxxxxxxxxxxxxxxxxxxx "7
bxxxxxxxxxxxx "(
bxxxxxxxxxxxx ")
bxxxxxxxxxxxx "*
bxxxxxxxxxxxx "+
bxxxxxxxx m
bxxxxxxxx y
bxxxxxxxxxxxxxxxxxxxxx "8
bxxxxxxxxxxxxx "9
bxxxxxxxx ":
bxxxxxxxxxxxxxx ",
bxxxxxxxxxxxxx "0
bxxxxxxxxxxxxxx "-
bxxxxxxxxxxxxx "1
bxxxxxxxxxxxxxx ".
bxxxxxxxxxxxxx "2
bxxxxxxxxxxxxxx "/
bxxxxxxxxxxxxx "3
bxxxxxxxxxxxxxxxxxxxxxxxx r
bxxxxxxx k
b00000000000000000000000000000000 2
bxxxxxxx ;
b0000001 <
bxxxxxxx =
bxxxxxxx >
bxxx P
bxxxxxxxx R
bxxxxxxxx S
bxxx Q
b0000000000000000000000000000000 1
b0000000 u
b0000000 t
bxxxxxxxxxxxxxxxxxxxxxxxxxxxxxxxx 5
b10000000000000000000000000000011 !
b00000000000000000000000000000001 3
b00000000000000000000000000000001 "
bxxxxxxxxxxxxxxxxxxxxxxxxxxxxxxxx 8
b00000000000000000000010011010000 #
bxxx b
bxxxxxxx L
bxxxxxxx N
bxxxxxxx O
bxxxxxxx ?
bxxxxxxx @
bxxxxxxx A
bxxxxxxx B
bxxxxxxxx 7
bxxxxxxxx l
bxxxxxxxx "?
b0000000 D
bxxxxxxx F
bxxxxxxx G
bxxxxxxx H
bxxxxxxx J
bxxxxxxx K
bxxxxxxxx ";
bxxxxxxxx ">
bxxxxxxx0 "<
b00 /
bxxxxxxxxxxxxxxxxxxxxxxxxxxxxxxxx 9
b00000000 x
b00 .
bxxxxxxxxxxxxxxxxxxxxxxxxxxxxxxxx 6
bxxxxxxxxxxxxxxxxxxxxxxxxxxxxxxxx 4
bxxxxxxxx Z
bxxxxxxxx [
bxxxxxxxx \
bxxxxxxxx ]
bxxxxxxxxxxxxxxxx o
bxxxxxxxx ^
bxxxxxxxx _
bxxxxxxxxxxxxxxxx n
b00000000000000000000000000000000 0
bxxxxxxx M
bxxxxxxx I
bxxxxxxx E
bxxxxxxxxxxxxxxxxxxxxxxxxxxxxxxxx $
bxxxxxxxx d
0:
$end
#4000
1%
1:
b0000001 ;
b0000000 =
b0000001 ?
b0000000 A
0-
b0000000 F
b0001110 H
b0000000 J
b0001110 L
b0000000 N
b000 P
0p
b00000000 R
0T
0V
0X
b00000000 Z
b0000000010000000 n
b00000000 \
b0000000010000000 o
b00000000 ^
0`
0q
b00000000 m
b00000000 ";
b00000000 l
b0000000000000000000 "4
b0000000000000000000 "5
b0000000000000000000 "6
b0000000000000000000 "7
b000000000000 z
b000000000000 ~
b000000000000 "$
b000000000000 "(
b000000000000 ")
b000000000000 "%
b000000000000 "!
b000000000000 {
b000000000000 "*
b000000000000 "&
b000000000000 ""
b000000000000 |
b000000000000 "+
b000000000000 "'
b000111111110 "#
b000000000000 }
b0000000 >
b0000001 @
b0000000 B
0C
0a
b00000000 S
b001 Q
b000 b
0Y
0U
b0000000 K
b0000000 G
b0000000 O
b00000000 g
b1100100xxxxxxx e
0i
0W
b0000000 k
1h
b00000000 [
bxxxxxxxxxxxx z
bxxxxxxxxxxxx ~
bxxxxxxxxxxxx "$
bxxxxxxxxxxxx "(
bxxxxxxxxxxxx ")
bxxxxxxxxxxxx "%
bxxxxxxxxxxxx "!
bxxxxxxxxxxxx {
bxxxxxxxxxxxx "*
bxxxxxxxxxxxx "&
bxxxxxxxxxxxx ""
bxxxxxxxxxxxx |
b000000000000000000000000 r
b00000000 s
b0010101 t
0"=
b00000000 ]
b00000000 _
b00000000 "<
b00000000 "?
b000000000000000000000 "8
b0000000000000 "9
bxxxxxxxxxxxxxx "/
bxxxxxxxxxxxxxx ".
bxxxxxxxxxxxxxx "-
bxxxxxxxxxxxxxx ",
b11001000000000 e
b000000000000 z
b000000000000 ~
b000000000000 "$
b000000000000 "(
b000000000000 ")
b000000000000 "%
b000000000000 "!
b000000000000 {
b000000000000 "*
b000000000000 "&
b000000000000 ""
b000000000000 |
b00000000 ">
b00000000 ":
b00000000000000 "/
b0000000000000 "3
b00000000000000 ".
b0000000000000 "2
b00000111111110 "-
b0000011111111 "1
b00000000000000 ",
b0000000000000 "0
b00000000 y
#5000
b01 /
b00000000000000000000000000000000 4
#8000
0%
0:
#12000
1%
1:
#13000
b10 /
#16000
0%
0:
#20000
1%
1:
#21000
b00000000000000000000000000000000 6
0&
b00 /
b01 .
#24000
0%
0:
#28000
1%
1:
b10 .
bxxxxxxx D
bxxxxxxx H
bxxxxxxx L
b001 P
b010 Q
b0000000 D
bxxxxxxxx [
#32000
0%
0:
#36000
1%
1:
b0000000000000000000000000000001 1
bxxxxxxx D
b010 P
bxxxxxxxx Z
bxxxxxxxxxxxxxxxx n
bxxxxxxxxxxxxxxxx o
b011 Q
b0000000 D
bxxxxxxxx ]
bxxxxxxxx _
#40000
0%
0:
#44000
1%
1:
b0000000000000000000000000000010 1
bxxxxxxx D
b011 P
bxxxxxxxx \
bxxxxxxxx ^
b100 Q
b0000000 D
#48000
0%
0:
#52000
1%
1:
b0000000000000000000000000000011 1
bxxxxxxx D
b100 P
b101 Q
b0000000 D
#56000
0%
0:
#60000
1%
1:
b0000000000000000000000000000100 1
bxxxxxxx D
b101 P
b110 Q
b0000000 D
#64000
0%
0:
#68000
1%
1:
b0000000000000000000000000000101 1
bxxxxxxx D
b110 P
bxxxxxxxxxxxxxxxxxxx "4
bxxxxxxxxxxxxxxxxxxx "5
bxxxxxxxxxxxxxxxxxxx "6
bxxxxxxxxxxxxxxxxxxx "7
b111 Q
b0000000 D
bxxxxxxxxxxxxxxxxxxxxx "8
bxxxxxxxxxxxxx "9
bxxxxxxxx ":
#72000
0%
0:
#76000
1%
1:
b0000000000000000000000000000110 1
bxxxxxxx D
b111 P
b0000001 u
b00000001 S
b000 Q
b0000000 D
0j
b00000010 "<
b00000010 ">
#80000
0%
0:
#84000
1%
1:
b0000000000000000000000000000111 1
bxxxxxxx D
b000 P
b00000001 R
b00000010 ";
b001 Q
b0000000 D
b0000001 k
b11001000000001 e
1j
bxxxxxxxx y
b00000100 "<
b00000100 ">
#85000
b00000000 d
#88000
0%
0:
#92000
1%
1:
b0000000000000000000000000001000 1
bxxxxxxx D
b001 P
bxxxxxxxx m
b00000100 ";
b010 Q
b0000000 D
b00000000 [
b00001000 "<
b00001000 ">
#96000
0%
0:
#100000
1%
1:
b0000000000000000000000000001001 1
bxxxxxxx D
b010 P
b00000000 Z
b0000000010000000 n
b00001000 ";
b0000000000000000000 "4
b011 Q
b0000000 D
b00000000 ]
b00010000 "<
b00010000 ">
#104000
0%
0:
#108000
1%
1:
b0000000000000000000000000001010 1
bxxxxxxx D
b011 P
b00000000 \
b0000000010000000 o
b00010000 ";
b0000000000000000000 "5
b100 Q
b0000000 D
b00000000 _
b00100000 "<
1"=
b00001011 ">
b00000001 "?
#112000
0%
0:
#116000
1%
1:
b0000000000000000000000000001011 1
bxxxxxxx D
b100 P
b00000000 ^
b00001011 ";
b00000001 l
b0000000000000000000 "6
b101 Q
b0000000 D
b00000001 g
b00010110 "<
b00000011 "?
b00000001 ">
#120000
0%
0:
#124000
1%
1:
b0000000000000000000000000001100 1
bxxxxxxx D
b101 P
b00000001 ";
b00000011 l
b0000000000000000000 "7
b110 Q
b0000000 D
b00000011 g
b00000010 "<
0"=
b00000110 "?
b000000000000000000000 "8
b0000000000000 "9
b00000010 ">
b00000000 ":
#128000
0%
0:
#132000
1%
1:
b0000000000000000000000000001101 1
bxxxxxxx D
b110 P
b00000010 ";
b00000110 l
bxxxxxxxxxxxxxxxxxxx "4
bxxxxxxxxxxxxxxxxxxx "5
bxxxxxxxxxxxxxxxxxxx "6
bxxxxxxxxxxxxxxxxxxx "7
b111 Q
b0000000 D
b00000110 g
b00000100 "<
b00001100 "?
bxxxxxxxxxxxxxxxxxxxxx "8
bxxxxxxxxxxxxx "9
b00000100 ">
bxxxxxxxx ":
#136000
0%
0:
#140000
1%
1:
b0000000000000000000000000001110 1
bxxxxxxx D
b111 P
b00000100 ";
b00001100 l
b0000010 u
b00000010 S
b000 Q
b0000000 D
b00001100 g
0j
b00000100 "<
b00011000 "?
#144000
0%
0:
#148000
1%
1:
b0000000000000000000000000001111 1
bxxxxxxx D
b000 P
b00000010 R
b00011000 l
b001 Q
b0000000 D
b0000010 k
b00011000 g
b11001000000010 e
1j
b00001000 "<
b00110000 "?
b00001000 ">
#149000
b00001100 d
#152000
0%
0:
#156000
1%
1:
b0000000000000000000000000010000 1
bxxxxxxx D
b001 P
b00001000 ";
b00110000 l
b010 Q
b0000000 D
b00110000 g
b00001100 [
b00010000 "<
b01100000 "?
b00010000 ">
#160000
0%
0:
#164000
1%
1:
b0000000000000000000000000010001 1
bxxxxxxx D
b010 P
b00001100 Z
b0000000100010000 n
b00010000 ";
b01100000 l
b0000000000000000000 "4
b011 Q
b0000000 D
b01100000 g
b00000001 ]
b00100000 "<
1"=
b11000001 "?
b00001011 ">
#168000
0%
0:
#172000
1%
1:
b0000000000000000000000000010010 1
bxxxxxxx D
b011 P
b00000001 \
b0000000010001100 o
b00001011 ";
b11000001 l
b0000000000000000000 "5
b100 Q
b0000000 D
b11000001 g
b00010110 "<
b10000011 "?
b00000001 ">
#176000
0%
0:
#180000
1%
1:
b0000000000000000000000000010011 1
bxxxxxxx D
b100 P
b00000001 ";
b10000011 l
b0000000000000000000 "6
b101 Q
b0000000 D
b10000011 g
b00000010 "<
0"=
b00000110 "?
b00000010 ">
#184000
0%
0:
#188000
1%
1:
b0000000000000000000000000010100 1
bxxxxxxx D
b101 P
b00000010 ";
b00000110 l
b0000000000000000000 "7
b110 Q
b0000000 D
b00000110 g
b00000100 "<
b00001100 "?
b000000000000000000000 "8
b0000000000000 "9
b00000100 ">
b00000000 ":
#192000
0%
0:
#196000
1%
1:
b0000000000000000000000000010101 1
bxxxxxxx D
b110 P
b00000100 ";
b00001100 l
bxxxxxxxxxxxxxxxxxxx "4
bxxxxxxxxxxxxxxxxxxx "5
bxxxxxxxxxxxxxxxxxxx "6
bxxxxxxxxxxxxxxxxxxx "7
b111 Q
b0000000 D
b00001100 g
b00001000 "<
b00011000 "?
bxxxxxxxxxxxxxxxxxxxxx "8
bxxxxxxxxxxxxx "9
b00001000 ">
bxxxxxxxx ":
#200000
0%
0:
#204000
1%
1:
b0000000000000000000000000010110 1
bxxxxxxx D
b111 P
b00001000 ";
b00011000 l
b0000011 u
b00000011 S
b000 Q
b0000000 D
b00011000 g
0j
b00000110 "<
b00110000 "?
b00000110 ">
#208000
0%
0:
#212000
1%
1:
b0000000000000000000000000010111 1
bxxxxxxx D
b000 P
b00000011 R
b00000110 ";
b00110000 l
b001 Q
b0000000 D
b0000011 k
b00110000 g
b11001000000011 e
1j
b00001100 "<
b01100000 "?
b00001100 ">
#213000
b00011000 d
#216000
0%
0:
#220000
1%
1:
b0000000000000000000000000011000 1
bxxxxxxx D
b001 P
b00001100 ";
b01100000 l
b010 Q
b0000000 D
b01100000 g
b00011000 [
b00011000 "<
1"=
b11000001 "?
b00000011 ">
#224000
0%
0:
#228000
1%
1:
b0000000000000000000000000011001 1
bxxxxxxx D
b010 P
b00011000 Z
b0000001011000000 n
b0000000010011000 o
b00000011 ";
b11000001 l
b0000000000000000000 "4
b011 Q
b0000000 D
b11000001 g
b00000010 ]
b00000110 "<
0"=
b10000010 "?
b00000110 ">
#232000
0%
0:
#236000
1%
1:
b0000000000000000000000000011010 1
bxxxxxxx D
b011 P
b00000010 \
b0000000010110000 o
b00000110 ";
b10000010 l
b0000000000000000000 "5
b100 Q
b0000000 D
b10000010 g
b00001100 "<
b00000100 "?
b00001100 ">
#240000
0%
0:
#244000
1%
1:
b0000000000000000000000000011011 1
bxxxxxxx D
b100 P
b00001100 ";
b00000100 l
b0000000000000000000 "6
b101 Q
b0000000 D
b00000100 g
b00011000 "<
1"=
b00001001 "?
b00000011 ">
#248000
0%
0:
#252000
1%
1:
b0000000000000000000000000011100 1
bxxxxxxx D
b101 P
b00000011 ";
b00001001 l
b0000000000000000000 "7
b110 Q
b0000000 D
b00001001 g
b00000110 "<
0"=
b00010010 "?
b000000000000000000000 "8
b0000000000000 "9
b00000110 ">
b00000000 ":
#256000
0%
0:
#260000
1%
1:
b0000000000000000000000000011101 1
bxxxxxxx D
b110 P
b00000110 ";
b00010010 l
bxxxxxxxxxxxxxxxxxxx "4
bxxxxxxxxxxxxxxxxxxx "5
bxxxxxxxxxxxxxxxxxxx "6
bxxxxxxxxxxxxxxxxxxx "7
b111 Q
b0000000 D
b00010010 g
b00001100 "<
b00100100 "?
bxxxxxxxxxxxxxxxxxxxxx "8
bxxxxxxxxxxxxx "9
b00001100 ">
bxxxxxxxx ":
#264000
0%
0:
#268000
1%
1:
b0000000000000000000000000011110 1
bxxxxxxx D
b111 P
b00001100 ";
b00100100 l
b0000100 u
b00000100 S
b000 Q
b0000000 D
b00100100 g
0j
b00001000 "<
b01001000 "?
b00001000 ">
#272000
0%
0:
#276000
1%
1:
b0000000000000000000000000011111 1
bxxxxxxx D
b000 P
b00000100 R
b00001000 ";
b01001000 l
b001 Q
b0000000 D
b0000100 k
b01001000 g
b11001000000100 e
1j
b00010000 "<
b10010000 "?
b00010000 ">
#277000
b00100100 d
#280000
0%
0:
#284000
1%
1:
b0000000000000000000000000100000 1
bxxxxxxx D
b001 P
b00010000 ";
b10010000 l
b010 Q
b0000000 D
b10010000 g
b00100100 [
b00100000 "<
1"=
b00100001 "?
b00001011 ">
#288000
0%
0:
#292000
1%
1:
b0000000000000000000000000100001 1
bxxxxxxx D
b010 P
b00100100 Z
b0000010110010000 n
b0000000011001000 o
b00001011 ";
b00100001 l
b0000000000000000000 "4
b011 Q
b0000000 D
b00100001 g
b00000101 ]
b00010110 "<
b01000011 "?
b00000001 ">
#296000
0%
0:
#300000
1%
1:
b0000000000000000000000000100010 1
bxxxxxxx D
b011 P
b00000101 \
b0000000100110100 o
b00000001 ";
b01000011 l
b0000000000000000000 "5
b100 Q
b0000000 D
b01000011 g
b00000001 _
b00000010 "<
0"=
b10000110 "?
b00000010 ">
#304000
0%
0:
#308000
1%
1:
b0000000000000000000000000100011 1
bxxxxxxx D
b100 P
b00000001 ^
b00000010 ";
b10000110 l
b0000000000000000000 "6
b101 Q
b0000000 D
b10000110 g
b00000100 "<
b00001100 "?
b00000100 ">
#312000
0%
0:
#316000
1%
1:
b0000000000000000000000000100100 1
bxxxxxxx D
b101 P
b00000100 ";
b00001100 l
b0000000000000000000 "7
b110 Q
b0000000 D
b00001100 g
b00001000 "<
b00011000 "?
b000000000000000000000 "8
b0000000000000 "9
b00001000 ">
b00000000 ":
#320000
0%
0:
#324000
1%
1:
b0000000000000000000000000100101 1
bxxxxxxx D
b110 P
b00001000 ";
b00011000 l
bxxxxxxxxxxxxxxxxxxx "4
bxxxxxxxxxxxxxxxxxxx "5
bxxxxxxxxxxxxxxxxxxx "6
bxxxxxxxxxxxxxxxxxxx "7
b111 Q
b0000000 D
b00011000 g
b00010000 "<
b00110000 "?
bxxxxxxxxxxxxxxxxxxxxx "8
bxxxxxxxxxxxxx "9
b00010000 ">
bxxxxxxxx ":
#328000
0%
0:
#332000
1%
1:
b0000000000000000000000000100110 1
bxxxxxxx D
b111 P
b00010000 ";
b00110000 l
b0000101 u
b00000101 S
b000 Q
b0000000 D
b00110000 g
0j
b00001010 "<
b01100000 "?
b00001010 ">
#336000
0%
0:
#340000
1%
1:
b0000000000000000000000000100111 1
bxxxxxxx D
b000 P
b00000101 R
b00001010 ";
b01100000 l
b001 Q
b0000000 D
b0000101 k
b01100000 g
b11001000000101 e
1j
b00010100 "<
b11000000 "?
b00010100 ">
#341000
b00110000 d
#344000
0%
0:
#348000
1%
1:
b0000000000000000000000000101000 1
bxxxxxxx D
b001 P
b00010100 ";
b11000000 l
b010 Q
b0000000 D
b11000000 g
b00110000 [
b00101000 "<
1"=
b10000001 "?
b00010011 ">
#352000
0%
0:
#356000
1%
1:
b0000000000000000000000000101001 1
bxxxxxxx D
b010 P
b00110000 Z
b0000100110000000 n
b0000000101110000 o
b00010011 ";
b10000001 l
b0000000000000000000 "4
b011 Q
b0000000 D
b10000001 g
b00001001 ]
b00100110 "<
b00000011 "?
b00010001 ">
#360000
0%
0:
#364000
1%
1:
b0000000000000000000000000101010 1
bxxxxxxx D
b011 P
b00001001 \
b0000001000110000 o
b00010001 ";
b00000011 l
b0000000000000000000 "5
b100 Q
b0000000 D
b00000011 g
b00000010 _
b00100010 "<
b00000111 "?
b00001101 ">
#368000
0%
0:
#372000
1%
1:
b0000000000000000000000000101011 1
bxxxxxxx D
b100 P
b00000010 ^
b00001101 ";
b00000111 l
b0000000000000000000 "6
b101 Q
b0000000 D
b00000111 g
b00011010 "<
b00001111 "?
b00000101 ">
#376000
0%
0:
#380000
1%
1:
b0000000000000000000000000101100 1
bxxxxxxx D
b101 P
b00000101 ";
b00001111 l
b0000000000000000000 "7
b110 Q
b0000000 D
b00001111 g
b00001010 "<
0"=
b00011110 "?
b000000000000000000000 "8
b0000000000000 "9
b00001010 ">
b00000000 ":
#384000
0%
0:
#388000
1%
1:
b0000000000000000000000000101101 1
bxxxxxxx D
b110 P
b00001010 ";
b00011110 l
bxxxxxxxxxxxxxxxxxxx "4
bxxxxxxxxxxxxxxxxxxx "5
bxxxxxxxxxxxxxxxxxxx "6
bxxxxxxxxxxxxxxxxxxx "7
b111 Q
b0000000 D
b00011110 g
b00010100 "<
b00111100 "?
bxxxxxxxxxxxxxxxxxxxxx "8
bxxxxxxxxxxxxx "9
b00010100 ">
bxxxxxxxx ":
#392000
0%
0:
#396000
1%
1:
b0000000000000000000000000101110 1
bxxxxxxx D
b111 P
b00010100 ";
b00111100 l
b0000110 u
b00000110 S
b000 Q
b0000000 D
b00111100 g
0j
b00001100 "<
b01111000 "?
b00001100 ">
#400000
0%
0:
#404000
1%
1:
b0000000000000000000000000101111 1
bxxxxxxx D
b000 P
b00000110 R
b00001100 ";
b01111000 l
b001 Q
b0000000 D
b0000110 k
b01111000 g
b11001000000110 e
1j
b00011000 "<
1"=
b11110001 "?
b00000011 ">
#405000
b00111100 d
#408000
0%
0:
#412000
1%
1:
b0000000000000000000000000110000 1
bxxxxxxx D
b001 P
b00000011 ";
b11110001 l
b010 Q
b0000000 D
b11110001 g
b00111100 [
b00000110 "<
0"=
b11100010 "?
b00000110 ">
#416000
0%
0:
#420000
1%
1:
b0000000000000000000000000110001 1
bxxxxxxx D
b010 P
b00111100 Z
b0000111010010000 n
b0000001010011100 o
b00000110 ";
b11100010 l
b0000000000000000000 "4
b011 Q
b0000000 D
b11100010 g
b00001110 ]
b00001100 "<
b11000100 "?
b00001100 ">
#424000
0%
0:
#428000
1%
1:
b0000000000000000000000000110010 1
bxxxxxxx D
b011 P
b00001110 \
b0000001111001000 o
b00001100 ";
b11000100 l
b0000000000000000000 "5
b100 Q
b0000000 D
b11000100 g
b00000011 _
b00011000 "<
1"=
b10001001 "?
b00000011 ">
#432000
0%
0:
#436000
1%
1:
b0000000000000000000000000110011 1
bxxxxxxx D
b100 P
b00000011 ^
b00000011 ";
b10001001 l
b0000000000000000000 "6
b101 Q
b0000000 D
b10001001 g
b00000110 "<
0"=
b00010010 "?
b00000110 ">
#440000
0%
0:
#444000
1%
1:
b0000000000000000000000000110100 1
bxxxxxxx D
b101 P
b00000110 ";
b00010010 l
b0000000000000000000 "7
b110 Q
b0000000 D
b00010010 g
b00001100 "<
b00100100 "?
b000000000000000000000 "8
b0000000000000 "9
b00001100 ">
b00000000 ":
#448000
0%
0:
#452000
1%
1:
b0000000000000000000000000110101 1
bxxxxxxx D
b110 P
b00001100 ";
b00100100 l
bxxxxxxxxxxxxxxxxxxx "4
bxxxxxxxxxxxxxxxxxxx "5
bxxxxxxxxxxxxxxxxxxx "6
bxxxxxxxxxxxxxxxxxxx "7
b111 Q
b0000000 D
b00100100 g
b00011000 "<
1"=
b01001001 "?
bxxxxxxxxxxxxxxxxxxxxx "8
bxxxxxxxxxxxxx "9
b00000011 ">
bxxxxxxxx ":
#456000
0%
0:
#460000
1%
1:
b0000000000000000000000000110110 1
bxxxxxxx D
b111 P
b00000011 ";
b01001001 l
b0000111 u
b00000111 S
b000 Q
b0000000 D
b01001001 g
0j
b00001110 "<
0"=
b10010010 "?
b00001110 ">
#464000
0%
0:
#468000
1%
1:
b0000000000000000000000000110111 1
bxxxxxxx D
b000 P
b00000111 R
b00001110 ";
b10010010 l
b001 Q
b0000000 D
b0000111 k
b10010010 g
b11001000000111 e
1j
b00011100 "<
1"=
b00100101 "?
b00000111 ">
#469000
b01001001 d
#472000
0%
0:
#476000
1%
1:
b0000000000000000000000000111000 1
bxxxxxxx D
b001 P
b00000111 ";
b00100101 l
b010 Q
b0000000 D
b00100101 g
b01001001 [
b00001110 "<
0"=
b01001010 "?
b00001110 ">
#480000
0%
0:
#484000
1%
1:
b0000000000000000000000000111001 1
bxxxxxxx D
b010 P
b01001001 Z
b0001010101010001 n
b0000010001111110 o
b00001110 ";
b01001010 l
b0000000000000000000 "4
b011 Q
b0000000 D
b01001010 g
b00010101 ]
b00000100 _
b00011100 "<
1"=
b10010101 "?
b00000111 ">
#488000
0%
0:
#492000
1%
1:
b0000000000000000000000000111010 1
bxxxxxxx D
b011 P
b00010101 \
b0000011001111101 o
b00000100 ^
b00000111 ";
b10010101 l
b0000000000000000000 "5
b100 Q
b0000000 D
b10010101 g
b00000110 _
b00001110 "<
0"=
b00101010 "?
b00001110 ">
#496000
0%
0:
#500000
1%
1:
b0000000000000000000000000111011 1
bxxxxxxx D
b100 P
b00000110 ^
b00001110 ";
b00101010 l
b0000000000000000000 "6
b101 Q
b0000000 D
b00101010 g
b00011100 "<
1"=
b01010101 "?
b00000111 ">
#504000
0%
0:
#508000
1%
1:
b0000000000000000000000000111100 1
bxxxxxxx D
b101 P
b00000111 ";
b01010101 l
b0000000000000000000 "7
b110 Q
b0000000 D
b01010101 g
b00001110 "<
0"=
b10101010 "?
b000000000000000000000 "8
b0000000000000 "9
b00001110 ">
b00000000 ":
#512000
0%
0:
