ver3/sim/Bicubic.vcd
$date
	Fri Aug  8 13:43:29 2025
$end

$version
	Synopsys VCS version W-2024.09-SP2_Full64
$end

$timescale
	1ps
$end

$comment Csum: 1 1014ac1b65eed0ef $end


$scope module testfixture $end
$var integer 32 ! fd $end
$var integer 32 " i $end
$var integer 32 # j $end
$var integer 32 $ patnum $end
$var reg 1 % CLK $end
$var reg 1 & RST $end
$var reg 7 ' V0 [6:0] $end
$var reg 7 ( H0 [6:0] $end
$var reg 5 ) SW [4:0] $end
$var reg 5 * SH [4:0] $end
$var reg 6 + TW [5:0] $end
$var reg 6 , TH [5:0] $end
$var wire 1 - DONE $end
$var reg 2 . state [1:0] $end
$var reg 2 / rst_count [1:0] $end
$var reg 32 0 pat_n [31:0] $end
$var reg 31 1 cycle_pat [30:0] $end
$var integer 32 2 charcount $end
$var integer 32 3 freturn $end
$var integer 32 4 wait_done $end
$var integer 32 5 error_pixels $end
$var integer 32 6 total_error_pixels $end
$var reg 8 7 pv [7:0] $end
$var integer 32 8 idx $end

$scope task score $end
$var integer 32 9 error_pixels $end
$upscope $end


$scope begin READ_PATTERN $end
$upscope $end


$scope module u_Bicubic $end
$var wire 1 : CLK $end
$var wire 1 & RST $end
$var wire 7 ' V0 [6:0] $end
$var wire 7 ( H0 [6:0] $end
$var wire 5 ) SW [4:0] $end
$var wire 5 * SH [4:0] $end
$var wire 6 + TW [5:0] $end
$var wire 6 , TH [5:0] $end
$var reg 1 - DONE $end
$var reg 7 ; coord_h [6:0] $end
$var reg 7 < coord_h_next [6:0] $end
$var reg 7 = coord_v [6:0] $end
$var reg 7 > coord_v_next [6:0] $end
$var reg 1 ? DONE_next $end
$var reg 7 @ quot_h [6:0] $end
$var reg 7 A quot_h_next [6:0] $end
$var reg 7 B quot_v [6:0] $end
$var reg 7 C quot_v_next [6:0] $end
$var reg 7 D rem_h [6:0] $end
$var reg 7 E rem_h_next [6:0] $end
$var reg 7 F rem_v [6:0] $end
$var reg 7 G rem_v_next [6:0] $end
$var reg 7 H next_rem_h [6:0] $end
$var reg 7 I next_rem_h_next [6:0] $end
$var reg 7 J next_rem_v [6:0] $end
$var reg 7 K next_rem_v_next [6:0] $end
$var reg 3 L cycle_cnt [2:0] $end
$var reg 3 M cycle_cnt_next [2:0] $end
$var reg 8 N cycle_cnt_lv2 [7:0] $end
$var reg 8 O cycle_cnt_lv2_next [7:0] $end
$var reg 1 P mode $end
$var reg 1 Q mode_next $end
$var reg 8 R x [7:0] $end
$var reg 8 S x_next [7:0] $end
$var reg 8 T x2 [7:0] $end
$var reg 8 U x2_next [7:0] $end
$var reg 8 V x3 [7:0] $end
$var reg 8 W x3_next [7:0] $end
$var reg 1 X state $end
$var reg 1 Y state_next $end
$var reg 3 Z line_shift [2:0] $end
$var wire 8 [ ROM_data_o [7:0] $end
$var wire 8 S SRAM_data_o [7:0] $end
$var reg 14 \ SRAM_addr [13:0] $end
$var reg 14 ] ROM_addr [13:0] $end
$var reg 8 ^ SRAM_data_i [7:0] $end
$var wire 1 _ ROM_CEN $end
$var reg 1 ` SRAM_WEN $end
$var reg 1 a SRAM_CEN $end
$var reg 7 b calc_addr [6:0] $end
$var wire 8 c frac_val [7:0] $end
$var wire 8 d cubic_val [7:0] $end
$var wire 16 e x_x_raw_round [15:0] $end
$var wire 16 f x2_x_raw_round [15:0] $end
$var wire 1 g X_valid $end
$var wire 1 X V_valid $end
$var wire 24 h X_in [23:0] $end
$var wire 8 i P_in [7:0] $end
$var wire 7 j prev_coord_v [6:0] $end
$var wire 7 k prev_coord_h [6:0] $end
$var reg 7 l divider [6:0] $end
$var reg 7 m dividend [6:0] $end
$var reg 7 n ROM_addr_v [6:0] $end
$var reg 7 o ROM_addr_h [6:0] $end

$scope module cubic_engine $end
$var wire 1 : clk $end
$var wire 1 & rst $end
$var wire 24 h X_in [23:0] $end
$var wire 8 i P_in [7:0] $end
$var wire 3 L cycle_cnt [2:0] $end
$var wire 8 d out [7:0] $end
$var wire 12 p XC0_prod0 [11:0] $end
$var wire 12 q XC0_prod1 [11:0] $end
$var wire 12 r XC0_prod2 [11:0] $end
$var wire 12 s XC0_prod3 [11:0] $end
$var wire 12 t XC1_prod0 [11:0] $end
$var wire 12 u XC1_prod1 [11:0] $end
$var wire 12 v XC1_prod2 [11:0] $end
$var wire 12 w XC1_prod3 [11:0] $end
$var wire 12 x XC2_prod0 [11:0] $end
$var wire 12 y XC2_prod1 [11:0] $end
$var wire 12 z XC2_prod2 [11:0] $end
$var wire 12 { XC2_prod3 [11:0] $end
$var wire 12 | XC3_prod0 [11:0] $end
$var wire 12 } XC3_prod1 [11:0] $end
$var wire 12 ~ XC3_prod2 [11:0] $end
$var wire 12 "! XC3_prod3 [11:0] $end
$var wire 14 "" XC_sum0 [13:0] $end
$var wire 14 "# XC_sum1 [13:0] $end
$var wire 14 "$ XC_sum2 [13:0] $end
$var wire 14 "% XC_sum3 [13:0] $end
$var wire 13 "& XC_sum0_round_shift [12:0] $end
$var wire 13 "' XC_sum1_round_shift [12:0] $end
$var wire 13 "( XC_sum2_round_shift [12:0] $end
$var wire 13 ") XC_sum3_round_shift [12:0] $end
$var wire 19 "* XC0P0_prod [18:0] $end
$var wire 19 "+ XC1P1_prod [18:0] $end
$var wire 19 ", XC2P2_prod [18:0] $end
$var wire 19 "- XC3P3_prod [18:0] $end
$var wire 21 ". XCP_sum [20:0] $end
$var wire 13 "/ XCP_sum_round_shift [12:0] $end
$var wire 8 d XCP_sum_round_shift_clamp [7:0] $end
$upscope $end


$scope module sns_divider $end
$var wire 1 : clk $end
$var wire 1 & rst $end
$var wire 3 L cycle_cnt [2:0] $end
$var wire 7 l divider [6:0] $end
$var wire 7 m dividend [6:0] $end
$var wire 8 c frac_val [7:0] $end
$var reg 8 "0 remainder [7:0] $end
$var reg 8 c qoutient [7:0] $end
$var wire 8 "1 remainder_shift [7:0] $end
$var wire 1 "2 isGE $end
$var wire 8 "3 remainder_next [7:0] $end
$var wire 8 "4 qoutient_next [7:0] $end
$upscope $end

$upscope $end

$upscope $end

$enddefinitions $end

#0
$dumpvars
0%
x?
1&
0a
1`
x"2
xP
xQ
1Y
xg
x-
xX
b1010001 (
bxxxxxxxx i
bxxxxxxxxxxxxxx ]
bxxxxxxx o
bxxxxxxx n
bxxxxxxxx [
b01111 *
b1100101xxxxxxx \
bxxxxxxxx ^
bxxxxxxxx S
b10001 )
b011100 ,
b010110 +
b0010010 '
bxxxxxxxxxxxxxxxxxxx "*
bxxxxxxxxxxxx p
bxxxxxxxxxxxx q
bxxxxxxxxxxxx r
bxxxxxxxxxxxx s
bxxxxxxxxxxxxxxxxxxx "+
bxxxxxxxxxxxx t
bxxxxxxxxxxxx u
bxxxxxxxxxxxx v
bxxxxxxxxxxxx w
bxxxxxxxxxxxxxxxxxxx ",
bxxxxxxxxxxxx x
bxxxxxxxxxxxx y
bxxxxxxxxxxxx z
bxxxxxxxxxxxx {
bxxxxxxxxxxxxxxxxxxx "-
bxxxxxxxxxxxx |
bxxxxxxxxxxxx }
bxxxxxxxxxxxx ~
bxxxxxxxxxxxx "!
bxxxxxxxxxxxxxxxxxxxxx ".
bxxxxxxxxxxxxx "/
bxxxxxxxxxxxxxx ""
bxxxxxxxxxxxxx "&
bxxxxxxxxxxxxxx "#
bxxxxxxxxxxxxx "'
bxxxxxxxxxxxxxx "$
bxxxxxxxxxxxxx "(
bxxxxxxxxxxxxxx "%
bxxxxxxxxxxxxx ")
bxxxxxxxxxxxxxxxxxxxxxxxx h
bxxxxxxx b
b00000000000000000000000000000000 2
bxxxxxxx ;
b0000001 <
bxxxxxxx =
bxxxxxxx >
bxxxxxxxx d
bxxx L
bxxxxxxxx N
bxxxxxxxx O
bxxx M
b0000000000000000000000000000000 1
b0000000 m
b0000000 l
bxxxxxxxxxxxxxxxxxxxxxxxxxxxxxxxx 5
b10000000000000000000000000000011 !
b00000000000000000000000000000001 3
b00000000000000000000000000000001 "
bxxxxxxxxxxxxxxxxxxxxxxxxxxxxxxxx 8
b00000000000000000000010011010000 #
b000 Z
bxxxxxxx H
bxxxxxxx J
bxxxxxxx K
bxxxxxxx j
bxxxxxxxx 7
bxxxxxxxx c
bxxxxxxxx "4
b0000000 @
bxxxxxxx B
bxxxxxxx C
bxxxxxxx D
bxxxxxxx F
bxxxxxxx G
bxxxxxxxx "0
bxxxxxxxx "3
bxxxxxxx0 "1
b00 /
bxxxxxxxxxxxxxxxxxxxxxxxxxxxxxxxx 9
b00 .
bxxxxxxxxxxxxxxxxxxxxxxxxxxxxxxxx 6
bxxxxxxxxxxxxxxxxxxxxxxxxxxxxxxxx 4
bxxxxxxxx R
bxxxxxxxx T
bxxxxxxxx U
bxxxxxxxxxxxxxxxx f
bxxxxxxxx V
bxxxxxxxx W
bxxxxxxxxxxxxxxxx e
b00000000000000000000000000000000 0
b0000001 k
0_
bxxxxxxx I
bxxxxxxx E
bxxxxxxx A
bxxxxxxxxxxxxxxxxxxxxxxxxxxxxxxxx $
0:
$end
#4000
1%
1:
b0000001 ;
b0000000 =
b1100011 j
0-
b0000000 B
b0001110 D
b0000000 F
b0001110 H
b0000000 J
b000 L
0g
b00000000 N
0P
b00000000 R
b0000000010000000 e
b00000000 T
b0000000010000000 f
b00000000 V
0X
b00000000 "0
b00000000 "1
b00000000 c
b00000001 "4
b0000000000000000000 "*
b0000000000000000000 "+
b0000000000000000000 ",
b0000000000000000000 "-
b000000000000 p
b000000000000 t
b000000000000 x
b000000000000 |
b000000000000 }
b000000000000 y
b000000000000 u
b000000000000 q
b000000000000 ~
b000000000000 z
b000000000000 v
b000000000000 r
b000000000000 "!
b000000000000 {
b000111111110 w
b000000000000 s
b0000000 >
0Q
0?
b00000000 O
0Y
b001 M
b00000000 ^
b1100100xxxxxxx \
1a
0`
b0000000 G
b0000000 C
b00000000000000 ]
b0000000 K
b0000000 b
bxxxxxxxxxxxx p
bxxxxxxxxxxxx t
bxxxxxxxxxxxx x
bxxxxxxxxxxxx |
bxxxxxxxxxxxx }
bxxxxxxxxxxxx y
bxxxxxxxxxxxx u
bxxxxxxxxxxxx q
bxxxxxxxxxxxx ~
bxxxxxxxxxxxx z
bxxxxxxxxxxxx v
bxxxxxxxxxxxx r
b000000000000000000000000 h
b00000000 i
b0010101 l
b00000000 U
b00000000 W
b00000000 "3
0"2
b00000000 "4
b000000000000000000000 ".
b0000000000000 "/
bxxxxxxxxxxxxxx "%
bxxxxxxxxxxxxxx "$
bxxxxxxxxxxxxxx "#
bxxxxxxxxxxxxxx ""
b11001000000000 \
b000000000000 p
b000000000000 t
b000000000000 x
b000000000000 |
b000000000000 }
b000000000000 y
b000000000000 u
b000000000000 q
b000000000000 ~
b000000000000 z
b000000000000 v
b000000000000 r
b00000000 d
b00000000000000 "%
b0000000000000 ")
b00000000000000 "$
b0000000000000 "(
b00000111111110 "#
b0000011111111 "'
b00000000000000 ""
b0000000000000 "&
#5000
b01 /
b00000000000000000000000000000000 4
#8000
0%
0:
#12000
1%
1:
#13000
b11001001 [
b10 /
#16000
0%
0:
#20000
1%
1:
#21000
b00000000000000000000000000000000 6
0&
b00 /
b01 .
#24000
0%
0:
#28000
1%
1:
b10 .
bxxxxxxx @
bxxxxxxx D
bxxxxxxx H
b001 L
bxxxxxxxx R
bxxxxxxxxxxxxxxxx e
bxxxxxxxxxxxxxxxx f
b010 M
b0000000 @
bxxxxxxxx U
bxxxxxxxx W
#32000
0%
0:
#36000
1%
1:
b0000000000000000000000000000001 1
bxxxxxxx @
b010 L
bxxxxxxxx T
bxxxxxxxx V
b011 M
b0000000 @
#40000
0%
0:
#44000
1%
1:
b0000000000000000000000000000010 1
bxxxxxxx @
b011 L
b100 M
b0000000 @
#48000
0%
0:
#52000
1%
1:
b0000000000000000000000000000011 1
bxxxxxxx @
b100 L
b101 M
b0000000 @
#56000
0%
0:
#60000
1%
1:
b0000000000000000000000000000100 1
bxxxxxxx @
b101 L
b110 M
b0000000 @
#64000
0%
0:
#68000
1%
1:
b0000000000000000000000000000101 1
bxxxxxxx @
b110 L
bxxxxxxxxxxxxxxxxxxx "*
bxxxxxxxxxxxxxxxxxxx "+
bxxxxxxxxxxxxxxxxxxx ",
bxxxxxxxxxxxxxxxxxxx "-
b111 M
b0000000 @
bxxxxxxxxxxxxxxxxxxxxx ".
bxxxxxxxxxxxxx "/
bxxxxxxxx d
#72000
0%
0:
#76000
1%
1:
b0000000000000000000000000000110 1
bxxxxxxx @
b111 L
b0000001 m
b00000001 O
b000 M
b0000000 @
0a
b00000001 "3
#80000
0%
0:
#84000
1%
1:
b0000000000000000000000000000111 1
bxxxxxxx @
b000 L
b00000001 N
b00000001 "0
b00000010 "1
b001 M
b0000000 @
b0000001 b
b11001000000001 \
1a
b00000010 "3
#85000
b00000000 S
#88000
0%
0:
#92000
1%
1:
b0000000000000000000000000001000 1
bxxxxxxx @
b001 L
b00000000 R
b0000000010000000 e
b00000010 "0
b00000100 "1
b010 M
b0000000 @
b00000000 U
b00000100 "3
#96000
0%
0:
#100000
1%
1:
b0000000000000000000000000001001 1
bxxxxxxx @
b010 L
b00000000 T
b0000000010000000 f
b00000100 "0
b00001000 "1
b0000000000000000000 "*
b011 M
b0000000 @
b00000000 W
b00001000 "3
#104000
0%
0:
#108000
1%
1:
b0000000000000000000000000001010 1
bxxxxxxx @
b011 L
b00000000 V
b00001000 "0
b00010000 "1
b0000000000000000000 "+
b100 M
b0000000 @
b00010000 "3
#112000
0%
0:
#116000
1%
1:
b0000000000000000000000000001011 1
bxxxxxxx @
b100 L
b00010000 "0
b00100000 "1
b0000000000000000000 ",
b101 M
b0000000 @
b00100000 "3
1"2
b00000001 "4
b00001011 "3
#120000
0%
0:
#124000
1%
1:
b0000000000000000000000000001100 1
bxxxxxxx @
b101 L
b00001011 "0
b00010110 "1
b00000001 c
b00000011 "4
b0000000000000000000 "-
b110 M
b0000000 @
b00000001 ^
b00000001 "3
b000000000000000000000 ".
b0000000000000 "/
b00000000 d
#128000
0%
0:
#132000
1%
1:
b0000000000000000000000000001101 1
bxxxxxxx @
b110 L
b00000001 "0
b00000010 "1
b00000011 c
b00000110 "4
bxxxxxxxxxxxxxxxxxxx "*
bxxxxxxxxxxxxxxxxxxx "+
bxxxxxxxxxxxxxxxxxxx ",
bxxxxxxxxxxxxxxxxxxx "-
b111 M
b0000000 @
b00000011 ^
b11101101 "3
0"2
bxxxxxxxxxxxxxxxxxxxxx ".
bxxxxxxxxxxxxx "/
b00000010 "3
bxxxxxxxx d
#136000
0%
0:
#140000
1%
1:
b0000000000000000000000000001110 1
bxxxxxxx @
b111 L
b00000010 "0
b00000100 "1
b00000110 c
b00001100 "4
b0000010 m
b00000010 O
b000 M
b0000000 @
b00000110 ^
0a
b00000010 "3
#144000
0%
0:
#148000
1%
1:
b0000000000000000000000000001111 1
bxxxxxxx @
b000 L
b00000010 N
b00001100 c
b00011000 "4
b001 M
b0000000 @
b0000010 b
b00001100 ^
b11001000000010 \
1a
b00000100 "3
#149000
b00000110 S
#152000
0%
0:
#156000
1%
1:
b0000000000000000000000000010000 1
bxxxxxxx @
b001 L
b00000110 R
b0000000010100100 e
b00000100 "0
b00001000 "1
b00011000 c
b00110000 "4
b010 M
b0000000 @
b00011000 ^
b00001000 "3
#160000
0%
0:
#164000
1%
1:
b0000000000000000000000000010001 1
bxxxxxxx @
b010 L
b00001000 "0
b00010000 "1
b00110000 c
b01100000 "4
b0000000000000000000 "*
b011 M
b0000000 @
b00110000 ^
b00010000 "3
#168000
0%
0:
#172000
1%
1:
b0000000000000000000000000010010 1
bxxxxxxx @
b011 L
b00010000 "0
b00100000 "1
b01100000 c
b11000001 "4
b0000000000000000000 "+
b100 M
b0000000 @
b01100000 ^
b00100000 "3
1"2
b00001011 "3
#176000
0%
0:
#180000
1%
1:
b0000000000000000000000000010011 1
bxxxxxxx @
b100 L
b00001011 "0
b00010110 "1
b11000001 c
b10000011 "4
b0000000000000000000 ",
b101 M
b0000000 @
b11000001 ^
b00000001 "3
#184000
0%
0:
#188000
1%
1:
b0000000000000000000000000010100 1
bxxxxxxx @
b101 L
b00000001 "0
b00000010 "1
b10000011 c
b00000110 "4
b0000000000000000000 "-
b110 M
b0000000 @
b10000011 ^
b11101101 "3
0"2
b000000000000000000000 ".
b0000000000000 "/
b00000010 "3
b00000000 d
#192000
0%
0:
#196000
1%
1:
b0000000000000000000000000010101 1
bxxxxxxx @
b110 L
b00000010 "0
b00000100 "1
b00000110 c
b00001100 "4
bxxxxxxxxxxxxxxxxxxx "*
bxxxxxxxxxxxxxxxxxxx "+
bxxxxxxxxxxxxxxxxxxx ",
bxxxxxxxxxxxxxxxxxxx "-
b111 M
b0000000 @
b00000110 ^
b00000100 "3
bxxxxxxxxxxxxxxxxxxxxx ".
bxxxxxxxxxxxxx "/
bxxxxxxxx d
#200000
0%
0:
#204000
1%
1:
b0000000000000000000000000010110 1
bxxxxxxx @
b111 L
b00000100 "0
b00001000 "1
b00001100 c
b00011000 "4
b0000011 m
b00000011 O
b000 M
b0000000 @
b00001100 ^
0a
b00000011 "3
#208000
0%
0:
#212000
1%
1:
b0000000000000000000000000010111 1
bxxxxxxx @
b000 L
b00000011 N
b00000011 "0
b00000110 "1
b00011000 c
b00110000 "4
b001 M
b0000000 @
b0000011 b
b00011000 ^
b11001000000011 \
1a
b00000110 "3
#213000
b00001100 S
#216000
0%
0:
#220000
1%
1:
b0000000000000000000000000011000 1
bxxxxxxx @
b001 L
b00001100 R
b0000000100010000 e
b00000110 "0
b00001100 "1
b00110000 c
b01100000 "4
b010 M
b0000000 @
b00110000 ^
b00000001 U
b00001100 "3
#224000
0%
0:
#228000
1%
1:
b0000000000000000000000000011001 1
bxxxxxxx @
b010 L
b00000001 T
b0000000010001100 f
b00001100 "0
b00011000 "1
b01100000 c
b11000001 "4
b0000000000000000000 "*
b011 M
b0000000 @
b01100000 ^
b00011000 "3
1"2
b00000011 "3
#232000
0%
0:
#236000
1%
1:
b0000000000000000000000000011010 1
bxxxxxxx @
b011 L
b00000011 "0
b00000110 "1
b11000001 c
b10000010 "4
b0000000000000000000 "+
b100 M
b0000000 @
b11000001 ^
b11110001 "3
0"2
b00000110 "3
#240000
0%
0:
#244000
1%
1:
b0000000000000000000000000011011 1
bxxxxxxx @
b100 L
b00000110 "0
b00001100 "1
b10000010 c
b00000100 "4
b0000000000000000000 ",
b101 M
b0000000 @
b10000010 ^
b00001100 "3
#248000
0%
0:
#252000
1%
1:
b0000000000000000000000000011100 1
bxxxxxxx @
b101 L
b00001100 "0
b00011000 "1
b00000100 c
b00001001 "4
b0000000000000000000 "-
b110 M
b0000000 @
b00000100 ^
b00011000 "3
1"2
b000000000000000000000 ".
b0000000000000 "/
b00000011 "3
b00000000 d
#256000
0%
0:
#260000
1%
1:
b0000000000000000000000000011101 1
bxxxxxxx @
b110 L
b00000011 "0
b00000110 "1
b00001001 c
b00010010 "4
bxxxxxxxxxxxxxxxxxxx "*
bxxxxxxxxxxxxxxxxxxx "+
bxxxxxxxxxxxxxxxxxxx ",
bxxxxxxxxxxxxxxxxxxx "-
b111 M
b0000000 @
b00001001 ^
b11110001 "3
0"2
bxxxxxxxxxxxxxxxxxxxxx ".
bxxxxxxxxxxxxx "/
b00000110 "3
bxxxxxxxx d
#264000
0%
0:
#268000
1%
1:
b0000000000000000000000000011110 1
bxxxxxxx @
b111 L
b00000110 "0
b00001100 "1
b00010010 c
b00100100 "4
b0000100 m
b00000100 O
b000 M
b0000000 @
b00010010 ^
0a
b00000100 "3
#272000
0%
0:
#276000
1%
1:
b0000000000000000000000000011111 1
bxxxxxxx @
b000 L
b00000100 N
b00000100 "0
b00001000 "1
b00100100 c
b01001000 "4
b001 M
b0000000 @
b0000100 b
b00100100 ^
b11001000000100 \
1a
b00001000 "3
#277000
b00010010 S
#280000
0%
0:
#284000
1%
1:
b0000000000000000000000000100000 1
bxxxxxxx @
b001 L
b00010010 R
b0000000111000100 e
b0000000010010010 f
b00001000 "0
b00010000 "1
b01001000 c
b10010000 "4
b010 M
b0000000 @
b01001000 ^
b00010000 "3
#288000
0%
0:
#292000
1%
1:
b0000000000000000000000000100001 1
bxxxxxxx @
b010 L
b00010000 "0
b00100000 "1
b10010000 c
b00100001 "4
b0000000000000000000 "*
b011 M
b0000000 @
b10010000 ^
b00100000 "3
1"2
b00001011 "3
#296000
0%
0:
#300000
1%
1:
b0000000000000000000000000100010 1
bxxxxxxx @
b011 L
b00001011 "0
b00010110 "1
b00100001 c
b01000011 "4
b0000000000000000000 "+
b100 M
b0000000 @
b00100001 ^
b00000001 "3
#304000
0%
0:
#308000
1%
1:
b0000000000000000000000000100011 1
bxxxxxxx @
b100 L
b00000001 "0
b00000010 "1
b01000011 c
b10000110 "4
b0000000000000000000 ",
b101 M
b0000000 @
b01000011 ^
b11101101 "3
0"2
b00000010 "3
#312000
0%
0:
#316000
1%
1:
b0000000000000000000000000100100 1
bxxxxxxx @
b101 L
b00000010 "0
b00000100 "1
b10000110 c
b00001100 "4
b0000000000000000000 "-
b110 M
b0000000 @
b10000110 ^
b00000100 "3
b000000000000000000000 ".
b0000000000000 "/
b00000000 d
#320000
0%
0:
#324000
1%
1:
b0000000000000000000000000100101 1
bxxxxxxx @
b110 L
b00000100 "0
b00001000 "1
b00001100 c
b00011000 "4
bxxxxxxxxxxxxxxxxxxx "*
bxxxxxxxxxxxxxxxxxxx "+
bxxxxxxxxxxxxxxxxxxx ",
bxxxxxxxxxxxxxxxxxxx "-
b111 M
b0000000 @
b00001100 ^
b00001000 "3
bxxxxxxxxxxxxxxxxxxxxx ".
bxxxxxxxxxxxxx "/
bxxxxxxxx d
#328000
0%
0:
#332000
1%
1:
b0000000000000000000000000100110 1
bxxxxxxx @
b111 L
b00001000 "0
b00010000 "1
b00011000 c
b00110000 "4
b0000101 m
b00000101 O
b000 M
b0000000 @
b00011000 ^
0a
b00000101 "3
#336000
0%
0:
#340000
1%
1:
b0000000000000000000000000100111 1
bxxxxxxx @
b000 L
b00000101 N
b00000101 "0
b00001010 "1
b00110000 c
b01100000 "4
b001 M
b0000000 @
b0000101 b
b00110000 ^
b11001000000101 \
1a
b00001010 "3
#341000
b00011000 S
#344000
0%
0:
#348000
1%
1:
b0000000000000000000000000101000 1
bxxxxxxx @
b001 L
b00011000 R
b0000001011000000 e
b0000000010011000 f
b00001010 "0
b00010100 "1
b01100000 c
b11000000 "4
b010 M
b0000000 @
b01100000 ^
b00000010 U
b00010100 "3
#352000
0%
0:
#356000
1%
1:
b0000000000000000000000000101001 1
bxxxxxxx @
b010 L
b00000010 T
b0000000010110000 f
b00010100 "0
b00101000 "1
b11000000 c
b10000001 "4
b0000000000000000000 "*
b011 M
b0000000 @
b11000000 ^
b00101000 "3
1"2
b00010011 "3
#360000
0%
0:
#364000
1%
1:
b0000000000000000000000000101010 1
bxxxxxxx @
b011 L
b00010011 "0
b00100110 "1
b10000001 c
b00000011 "4
b0000000000000000000 "+
b100 M
b0000000 @
b10000001 ^
b00010001 "3
#368000
0%
0:
#372000
1%
1:
b0000000000000000000000000101011 1
bxxxxxxx @
b100 L
b00010001 "0
b00100010 "1
b00000011 c
b00000111 "4
b0000000000000000000 ",
b101 M
b0000000 @
b00000011 ^
b00001101 "3
#376000
0%
0:
#380000
1%
1:
b0000000000000000000000000101100 1
bxxxxxxx @
b101 L
b00001101 "0
b00011010 "1
b00000111 c
b00001111 "4
b0000000000000000000 "-
b110 M
b0000000 @
b00000111 ^
b00000101 "3
b000000000000000000000 ".
b0000000000000 "/
b00000000 d
#384000
0%
0:
#388000
1%
1:
b0000000000000000000000000101101 1
bxxxxxxx @
b110 L
b00000101 "0
b00001010 "1
b00001111 c
b00011110 "4
bxxxxxxxxxxxxxxxxxxx "*
bxxxxxxxxxxxxxxxxxxx "+
bxxxxxxxxxxxxxxxxxxx ",
bxxxxxxxxxxxxxxxxxxx "-
b111 M
b0000000 @
b00001111 ^
b11110101 "3
0"2
bxxxxxxxxxxxxxxxxxxxxx ".
bxxxxxxxxxxxxx "/
b00001010 "3
bxxxxxxxx d
#392000
0%
0:
#396000
1%
1:
b0000000000000000000000000101110 1
bxxxxxxx @
b111 L
b00001010 "0
b00010100 "1
b00011110 c
b00111100 "4
b0000110 m
b00000110 O
b000 M
b0000000 @
b00011110 ^
0a
b00000110 "3
#400000
0%
0:
#404000
1%
1:
b0000000000000000000000000101111 1
bxxxxxxx @
b000 L
b00000110 N
b00000110 "0
b00001100 "1
b00111100 c
b01111000 "4
b001 M
b0000000 @
b0000110 b
b00111100 ^
b11001000000110 \
1a
b00001100 "3
#405000
b00011110 S
#408000
0%
0:
#412000
1%
1:
b0000000000000000000000000110000 1
bxxxxxxx @
b001 L
b00011110 R
b0000010000000100 e
b0000000010111100 f
b00001100 "0
b00011000 "1
b01111000 c
b11110001 "4
b010 M
b0000000 @
b01111000 ^
b00000100 U
b00011000 "3
1"2
b00000011 "3
#416000
0%
0:
#420000
1%
1:
b0000000000000000000000000110001 1
bxxxxxxx @
b010 L
b00000100 T
b0000000011111000 f
b00000011 "0
b00000110 "1
b11110001 c
b11100010 "4
b0000000000000000000 "*
b011 M
b0000000 @
b11110001 ^
b11110001 "3
0"2
b00000110 "3
#424000
0%
0:
#428000
1%
1:
b0000000000000000000000000110010 1
bxxxxxxx @
b011 L
b00000110 "0
b00001100 "1
b11100010 c
b11000100 "4
b0000000000000000000 "+
b100 M
b0000000 @
b11100010 ^
b00001100 "3
#432000
0%
0:
#436000
1%
1:
b0000000000000000000000000110011 1
bxxxxxxx @
b100 L
b00001100 "0
b00011000 "1
b11000100 c
b10001001 "4
b0000000000000000000 ",
b101 M
b0000000 @
b11000100 ^
b00011000 "3
1"2
b00000011 "3
#440000
0%
0:
#444000
1%
1:
b0000000000000000000000000110100 1
bxxxxxxx @
b101 L
b00000011 "0
b00000110 "1
b10001001 c
b00010010 "4
b0000000000000000000 "-
b110 M
b0000000 @
b10001001 ^
b11110001 "3
0"2
b000000000000000000000 ".
b0000000000000 "/
b00000110 "3
b00000000 d
#448000
0%
0:
#452000
1%
1:
b0000000000000000000000000110101 1
bxxxxxxx @
b110 L
b00000110 "0
b00001100 "1
b00010010 c
b00100100 "4
bxxxxxxxxxxxxxxxxxxx "*
bxxxxxxxxxxxxxxxxxxx "+
bxxxxxxxxxxxxxxxxxxx ",
bxxxxxxxxxxxxxxxxxxx "-
b111 M
b0000000 @
b00010010 ^
b00001100 "3
bxxxxxxxxxxxxxxxxxxxxx ".
bxxxxxxxxxxxxx "/
bxxxxxxxx d
#456000
0%
0:
#460000
1%
1:
b0000000000000000000000000110110 1
bxxxxxxx @
b111 L
b00001100 "0
b00011000 "1
b00100100 c
b01001000 "4
b0000111 m
b00000111 O
b000 M
b0000000 @
b00100100 ^
0a
b00000111 "3
#464000
0%
0:
#468000
1%
1:
b0000000000000000000000000110111 1
bxxxxxxx @
b000 L
b00000111 N
b00000111 "0
b00001110 "1
b01001000 c
b10010000 "4
b001 M
b0000000 @
b0000111 b
b01001000 ^
b11001000000111 \
1a
0"2
b00001110 "3
#469000
b00100100 S
#472000
0%
0:
#476000
1%
1:
b0000000000000000000000000111000 1
bxxxxxxx @
b001 L
b00100100 R
b0000010110010000 e
b0000000100010000 f
b00001110 "0
b00011100 "1
b10010000 c
b00100001 "4
b010 M
b0000000 @
b10010000 ^
b00000101 U
b00000001 W
b00011100 "3
1"2
b00000111 "3
#480000
0%
0:
#484000
1%
1:
b0000000000000000000000000111001 1
bxxxxxxx @
b010 L
b00000101 T
b0000000100110100 f
b00000001 V
b00000111 "0
b00001110 "1
b00100001 c
b01000010 "4
b0000000000000000000 "*
b011 M
b0000000 @
b00100001 ^
b11111001 "3
0"2
b00001110 "3
#488000
0%
0:
#492000
1%
1:
b0000000000000000000000000111010 1
bxxxxxxx @
b011 L
b00001110 "0
b00011100 "1
b01000010 c
b10000101 "4
b0000000000000000000 "+
b100 M
b0000000 @
b01000010 ^
b00011100 "3
1"2
b00000111 "3
#496000
0%
0:
#500000
1%
1:
b0000000000000000000000000111011 1
bxxxxxxx @
b100 L
b00000111 "0
b00001110 "1
b10000101 c
b00001010 "4
b0000000000000000000 ",
b101 M
b0000000 @
b10000101 ^
b11111001 "3
0"2
b00001110 "3
#504000
0%
0:
#508000
1%
1:
b0000000000000000000000000111100 1
bxxxxxxx @
b101 L
b00001110 "0
b00011100 "1
b00001010 c
b00010101 "4
b0000000000000000000 "-
b110 M
b0000000 @
b00001010 ^
b00011100 "3
1"2
b000000000000000000000 ".
b0000000000000 "/
b00000111 "3
b00000000 d
#512000
0%
0:
#516000
1%
1:
b0000000000000000000000000111101 1
bxxxxxxx @
b110 L
b00000111 "0
b00001110 "1
b00010101 c
b00101010 "4
bxxxxxxxxxxxxxxxxxxx "*
bxxxxxxxxxxxxxxxxxxx "+
bxxxxxxxxxxxxxxxxxxx ",
bxxxxxxxxxxxxxxxxxxx "-
b111 M
b0000000 @
b00010101 ^
b11111001 "3
0"2
bxxxxxxxxxxxxxxxxxxxxx ".
bxxxxxxxxxxxxx "/
b00001110 "3
bxxxxxxxx d
#520000
0%
0:
#524000
1%
1:
b0000000000000000000000000111110 1
bxxxxxxx @
b111 L
b00001110 "0
b00011100 "1
b00101010 c
b01010100 "4
b0001000 m
b00001000 O
b000 M
b0000000 @
b00101010 ^
0a
b00001000 "3
#528000
0%
0:
#532000
1%
1:
b0000000000000000000000000111111 1
bxxxxxxx @
b000 L
b00001000 N
b00001000 "0
b00010000 "1
b01010100 c
b10101000 "4
b001 M
b0000000 @
b0001000 b
b01010100 ^
b11001000001000 \
1a
0"2
b00010000 "3
#533000
b00101010 S
#536000
0%
0:
