ver3/sim/Bicubic.vcd
$date
	Thu Aug  7 17:36:46 2025
$end

$version
	Synopsys VCS version W-2024.09-SP2_Full64
$end

$timescale
	1ps
$end

$comment Csum: 1 1014ac1b65eed0ef $end


$scope module testfixture $end
$var integer 32 ! fd $end
$var integer 32 " i $end
$var integer 32 # j $end
$var integer 32 $ patnum $end
$var reg 1 % CLK $end
$var reg 1 & RST $end
$var reg 7 ' V0 [6:0] $end
$var reg 7 ( H0 [6:0] $end
$var reg 5 ) SW [4:0] $end
$var reg 5 * SH [4:0] $end
$var reg 6 + TW [5:0] $end
$var reg 6 , TH [5:0] $end
$var wire 1 - DONE $end
$var reg 2 . state [1:0] $end
$var reg 2 / rst_count [1:0] $end
$var reg 32 0 pat_n [31:0] $end
$var reg 31 1 cycle_pat [30:0] $end
$var integer 32 2 charcount $end
$var integer 32 3 freturn $end
$var integer 32 4 wait_done $end
$var integer 32 5 error_pixels $end
$var integer 32 6 total_error_pixels $end
$var reg 8 7 pv [7:0] $end
$var integer 32 8 idx $end

$scope task score $end
$var integer 32 9 error_pixels $end
$upscope $end


$scope begin READ_PATTERN $end
$upscope $end


$scope module u_Bicubic $end
$var wire 1 : CLK $end
$var wire 1 & RST $end
$var wire 7 ' V0 [6:0] $end
$var wire 7 ( H0 [6:0] $end
$var wire 5 ) SW [4:0] $end
$var wire 5 * SH [4:0] $end
$var wire 6 + TW [5:0] $end
$var wire 6 , TH [5:0] $end
$var reg 1 - DONE $end
$var reg 7 ; coord_h [6:0] $end
$var reg 7 < coord_h_next [6:0] $end
$var reg 7 = coord_v [6:0] $end
$var reg 7 > coord_v_next [6:0] $end
$var reg 1 ? DONE_next $end
$var reg 7 @ quot_h [6:0] $end
$var reg 7 A quot_h_next [6:0] $end
$var reg 7 B quot_v [6:0] $end
$var reg 7 C quot_v_next [6:0] $end
$var reg 7 D rem_h [6:0] $end
$var reg 7 E rem_h_next [6:0] $end
$var reg 7 F rem_v [6:0] $end
$var reg 7 G rem_v_next [6:0] $end
$var reg 7 H next_rem_h [6:0] $end
$var reg 7 I next_rem_h_next [6:0] $end
$var reg 7 J next_rem_v [6:0] $end
$var reg 7 K next_rem_v_next [6:0] $end
$var reg 3 L cycle_cnt [2:0] $end
$var reg 3 M cycle_cnt_next [2:0] $end
$var reg 8 N cycle_cnt_lv2 [7:0] $end
$var reg 8 O cycle_cnt_lv2_next [7:0] $end
$var reg 3 P line_shift [2:0] $end
$var reg 3 Q line_shift_next [2:0] $end
$var reg 1 R mode $end
$var reg 1 S mode_next $end
$var reg 8 T x [7:0] $end
$var reg 8 U x_next [7:0] $end
$var reg 8 V x2 [7:0] $end
$var reg 8 W x2_next [7:0] $end
$var reg 8 X x3 [7:0] $end
$var reg 8 Y x3_next [7:0] $end
$var reg 1 Z state $end
$var reg 1 [ state_next $end
$var wire 8 \ ROM_data_o [7:0] $end
$var wire 8 U SRAM_data_o [7:0] $end
$var reg 14 ] SRAM_addr [13:0] $end
$var reg 14 ^ ROM_addr [13:0] $end
$var reg 8 _ SRAM_data_i [7:0] $end
$var wire 1 ` ROM_CEN $end
$var reg 1 a SRAM_WEN $end
$var reg 1 b SRAM_CEN $end
$var reg 7 c calc_addr [6:0] $end
$var wire 8 d frac_val [7:0] $end
$var wire 8 e cubic_val [7:0] $end
$var wire 16 f x_x_raw_round [15:0] $end
$var wire 16 g x2_x_raw_round [15:0] $end
$var wire 1 h X_valid $end
$var wire 1 Z V_valid $end
$var wire 24 i X_in [23:0] $end
$var wire 8 j P_in [7:0] $end
$var wire 7 k prev_coord_v [6:0] $end
$var wire 7 l prev_coord_h [6:0] $end
$var reg 7 m divider [6:0] $end
$var reg 7 n dividend [6:0] $end

$scope module cubic_engine $end
$var wire 1 : clk $end
$var wire 1 & rst $end
$var wire 24 i X_in [23:0] $end
$var wire 8 j P_in [7:0] $end
$var wire 3 L cycle_cnt [2:0] $end
$var wire 8 e out [7:0] $end
$var wire 12 o XC0_prod0 [11:0] $end
$var wire 12 p XC0_prod1 [11:0] $end
$var wire 12 q XC0_prod2 [11:0] $end
$var wire 12 r XC0_prod3 [11:0] $end
$var wire 12 s XC1_prod0 [11:0] $end
$var wire 12 t XC1_prod1 [11:0] $end
$var wire 12 u XC1_prod2 [11:0] $end
$var wire 12 v XC1_prod3 [11:0] $end
$var wire 12 w XC2_prod0 [11:0] $end
$var wire 12 x XC2_prod1 [11:0] $end
$var wire 12 y XC2_prod2 [11:0] $end
$var wire 12 z XC2_prod3 [11:0] $end
$var wire 12 { XC3_prod0 [11:0] $end
$var wire 12 | XC3_prod1 [11:0] $end
$var wire 12 } XC3_prod2 [11:0] $end
$var wire 12 ~ XC3_prod3 [11:0] $end
$var wire 14 "! XC_sum0 [13:0] $end
$var wire 14 "" XC_sum1 [13:0] $end
$var wire 14 "# XC_sum2 [13:0] $end
$var wire 14 "$ XC_sum3 [13:0] $end
$var wire 13 "% XC_sum0_round_shift [12:0] $end
$var wire 13 "& XC_sum1_round_shift [12:0] $end
$var wire 13 "' XC_sum2_round_shift [12:0] $end
$var wire 13 "( XC_sum3_round_shift [12:0] $end
$var wire 19 ") XC0P0_prod [18:0] $end
$var wire 19 "* XC1P1_prod [18:0] $end
$var wire 19 "+ XC2P2_prod [18:0] $end
$var wire 19 ", XC3P3_prod [18:0] $end
$var wire 21 "- XCP_sum [20:0] $end
$var wire 13 ". XCP_sum_round_shift [12:0] $end
$var wire 8 e XCP_sum_round_shift_clamp [7:0] $end
$upscope $end


$scope module sns_divider $end
$var wire 1 : clk $end
$var wire 1 & rst $end
$var wire 3 L cycle_cnt [2:0] $end
$var wire 7 m divider [6:0] $end
$var wire 7 n dividend [6:0] $end
$var wire 8 d frac_val [7:0] $end
$var reg 8 "/ remainder [7:0] $end
$var reg 8 d qoutient [7:0] $end
$var wire 8 "0 remainder_shift [7:0] $end
$var wire 1 "1 isGE $end
$var wire 8 "2 remainder_next [7:0] $end
$var wire 8 "3 qoutient_next [7:0] $end
$upscope $end

$upscope $end

$upscope $end

$enddefinitions $end

#0
$dumpvars
0%
x?
1&
0b
1a
x"1
xR
xS
1[
xh
x-
xZ
b1010001 (
bxxxxxxxx j
bxxxxxxxxxxxxxx ^
bxxxxxxxx \
b01111 *
b1100101xxxxxxx ]
bxxxxxxxx _
bxxxxxxxx U
b10001 )
b011100 ,
b010110 +
b0010010 '
bxxxxxxxxxxxxxxxxxxx ")
bxxxxxxxxxxxx o
bxxxxxxxxxxxx p
bxxxxxxxxxxxx q
bxxxxxxxxxxxx r
bxxxxxxxxxxxxxxxxxxx "*
bxxxxxxxxxxxx s
bxxxxxxxxxxxx t
bxxxxxxxxxxxx u
bxxxxxxxxxxxx v
bxxxxxxxxxxxxxxxxxxx "+
bxxxxxxxxxxxx w
bxxxxxxxxxxxx x
bxxxxxxxxxxxx y
bxxxxxxxxxxxx z
bxxxxxxxxxxxxxxxxxxx ",
bxxxxxxxxxxxx {
bxxxxxxxxxxxx |
bxxxxxxxxxxxx }
bxxxxxxxxxxxx ~
bxxxxxxxxxxxxxxxxxxxxx "-
bxxxxxxxxxxxxx ".
bxxxxxxxxxxxxxx "!
bxxxxxxxxxxxxx "%
bxxxxxxxxxxxxxx ""
bxxxxxxxxxxxxx "&
bxxxxxxxxxxxxxx "#
bxxxxxxxxxxxxx "'
bxxxxxxxxxxxxxx "$
bxxxxxxxxxxxxx "(
bxxxxxxxxxxxxxxxxxxxxxxxx i
bxxxxxxx c
b00000000000000000000000000000000 2
bxxxxxxx ;
b0000001 <
bxxxxxxx =
bxxxxxxx >
bxxxxxxxx e
bxxx L
bxxxxxxxx N
bxxxxxxxx O
bxxx M
b0000000000000000000000000000000 1
b0000000 n
b0000000 m
bxxxxxxxxxxxxxxxxxxxxxxxxxxxxxxxx 5
b10000000000000000000000000000011 !
b00000000000000000000000000000001 3
b00000000000000000000000000000001 "
bxxxxxxxxxxxxxxxxxxxxxxxxxxxxxxxx 8
b00000000000000000000010011010000 #
bxxx P
b000 Q
bxxxxxxx H
bxxxxxxx J
bxxxxxxx K
bxxxxxxx k
bxxxxxxxx 7
bxxxxxxxx d
bxxxxxxxx "3
b0000001 @
bxxxxxxx B
bxxxxxxx C
bxxxxxxx D
bxxxxxxx F
bxxxxxxx G
bxxxxxxxx "/
bxxxxxxxx "2
bxxxxxxx0 "0
b00 /
bxxxxxxxxxxxxxxxxxxxxxxxxxxxxxxxx 9
b00 .
bxxxxxxxxxxxxxxxxxxxxxxxxxxxxxxxx 6
bxxxxxxxxxxxxxxxxxxxxxxxxxxxxxxxx 4
bxxxxxxxx T
bxxxxxxxx V
bxxxxxxxx W
bxxxxxxxxxxxxxxxx g
bxxxxxxxx X
bxxxxxxxx Y
bxxxxxxxxxxxxxxxx f
b00000000000000000000000000000000 0
b0000001 l
0`
bxxxxxxx I
bxxxxxxx E
bxxxxxxx A
bxxxxxxxxxxxxxxxxxxxxxxxxxxxxxxxx $
0:
$end
#4000
1%
1:
b0000001 ;
b0000000 =
b1100011 k
0-
b0000000 @
b0000000 B
b0001110 D
b0000000 F
b0001110 H
b0000000 J
b000 L
0h
b00000000 N
0R
b000 P
b00000000 T
b0000000010000000 f
b00000000 V
b0000000010000000 g
b00000000 X
0Z
b00000000 "/
b00000000 "0
1"1
b00000000 d
b0000000000000000000 ")
b0000000000000000000 "*
b0000000000000000000 "+
b0000000000000000000 ",
b000000000000 o
b000000000000 s
b000000000000 w
b000000000000 {
b000000000000 |
b000000000000 x
b000000000000 t
b000000000000 p
b000000000000 }
b000000000000 y
b000000000000 u
b000000000000 q
b000000000000 ~
b000000000000 z
b000111111110 v
b000000000000 r
b0000000 >
0S
0?
b00000000 O
0[
b001 M
b00000000 _
b1100100xxxxxxx ]
1b
0a
b00000001010000 ^
b0001110 G
b0000000 C
b0000001 @
b0000000 K
b0000000 c
bxxxxxxxxxxxx o
bxxxxxxxxxxxx s
bxxxxxxxxxxxx w
bxxxxxxxxxxxx {
bxxxxxxxxxxxx |
bxxxxxxxxxxxx x
bxxxxxxxxxxxx t
bxxxxxxxxxxxx p
bxxxxxxxxxxxx }
bxxxxxxxxxxxx y
bxxxxxxxxxxxx u
bxxxxxxxxxxxx q
b000000000000000000000000 i
b00000000 j
b0011011 m
0"1
b00000000 W
b00000000 Y
b00000000 "2
b00000000 "3
b000000000000000000000 "-
b0000000000000 ".
bxxxxxxxxxxxxxx "$
bxxxxxxxxxxxxxx "#
bxxxxxxxxxxxxxx ""
bxxxxxxxxxxxxxx "!
b00000001010001 ^
b11001000000000 ]
b000000000000 o
b000000000000 s
b000000000000 w
b000000000000 {
b000000000000 |
b000000000000 x
b000000000000 t
b000000000000 p
b000000000000 }
b000000000000 y
b000000000000 u
b000000000000 q
b00000000 e
b00000000000000 "$
b0000000000000 "(
b00000000000000 "#
b0000000000000 "'
b00000111111110 ""
b0000011111111 "&
b00000000000000 "!
b0000000000000 "%
#5000
b01 /
b00000000000000000000000000000000 4
#8000
0%
0:
#12000
1%
1:
b0000000 @
b00000001010000 ^
#13000
b10001001 \
b10 /
#16000
0%
0:
#20000
1%
1:
#21000
b00000000000000000000000000000000 6
b10000111 \
0&
b00 /
b01 .
#24000
0%
0:
#28000
1%
1:
b10 .
bxxxxxxx @
bxxxxxxx D
b0001110 F
bxxxxxxx H
b001 L
bxxxxxxxx T
bxxxxxxxxxxxxxxxx f
bxxxxxxxxxxxxxxxx g
bxxxxxxxxxxxxxx ^
b0000001 @
b0001001 K
b010 M
bxxxxxxxx W
bxxxxxxxx Y
b00000001010010 ^
#32000
0%
0:
#36000
1%
1:
b0000000000000000000000000000001 1
bxxxxxxx @
b0001001 J
b010 L
bxxxxxxxx V
bxxxxxxxx X
bxxxxxxxxxxxxxx ^
b011 M
b0000001 @
b00000001010011 ^
#37000
b10001101 \
#40000
0%
0:
#44000
1%
1:
b0000000000000000000000000000010 1
bxxxxxxx @
b011 L
bxxxxxxxxxxxxxx ^
b100 M
b0000001 @
b00000001010100 ^
#45000
b10010001 \
#48000
0%
0:
#52000
1%
1:
b0000000000000000000000000000011 1
bxxxxxxx @
b100 L
bxxxxxxxxxxxxxx ^
b101 M
b0000001 @
b00000001010100 ^
#53000
b10010010 \
#56000
0%
0:
#60000
1%
1:
b0000000000000000000000000000100 1
bxxxxxxx @
b101 L
bxxxxxxxxxxxxxx ^
b110 M
b0000001 @
#64000
0%
0:
#68000
1%
1:
b0000000000000000000000000000101 1
bxxxxxxx @
b110 L
bxxxxxxxxxxxxxxxxxxx ")
bxxxxxxxxxxxxxxxxxxx "*
bxxxxxxxxxxxxxxxxxxx "+
bxxxxxxxxxxxxxxxxxxx ",
b111 M
b0000001 @
bxxxxxxxxxxxxxxxxxxxxx "-
bxxxxxxxxxxxxx ".
bxxxxxxxx e
#68500
bxxxxxxxx \
#72000
0%
0:
#76000
1%
1:
b0000000000000000000000000000110 1
bxxxxxxx @
b111 L
b0000001 n
b00000001 O
b000 M
b0000001 @
0b
b00000001 "2
#80000
0%
0:
#84000
1%
1:
b0000000000000000000000000000111 1
bxxxxxxx @
b000 L
b00000001 N
b00000001 "/
b00000010 "0
b001 M
b0000001 G
b0000001 C
b0000001 @
b0000001 c
b11001000000001 ]
1b
b00000010 "2
b00000001010001 ^
#85000
b00000000 U
#88000
0%
0:
#92000
1%
1:
b0000000000000000000000000001000 1
bxxxxxxx @
b0000001 B
b0000001 F
b001 L
b00000000 T
b0000000010000000 f
b00000010 "/
b00000100 "0
bxxxxxxxxxxxxxx ^
b0000001 @
b0011001 K
b010 M
b00000000 W
b00000100 "2
b00000001010010 ^
#93000
b10001001 \
#96000
0%
0:
#100000
1%
1:
b0000000000000000000000000001001 1
bxxxxxxx @
b0011001 J
b010 L
b00000000 V
b0000000010000000 g
b00000100 "/
b00001000 "0
b0000000000000000000 ")
bxxxxxxxxxxxxxx ^
b011 M
b0000001 @
b00000000 Y
b00001000 "2
b00000001010011 ^
#101000
b10001101 \
#104000
0%
0:
#108000
1%
1:
b0000000000000000000000000001010 1
bxxxxxxx @
b011 L
b00000000 X
b00001000 "/
b00010000 "0
b0000000000000000000 "*
bxxxxxxxxxxxxxx ^
b100 M
b0000001 @
b00010000 "2
b00000001010100 ^
#109000
b10010001 \
#112000
0%
0:
#116000
1%
1:
b0000000000000000000000000001011 1
bxxxxxxx @
b100 L
b00010000 "/
b00100000 "0
1"1
b0000000000000000000 "+
bxxxxxxxxxxxxxx ^
b101 M
b0000001 @
b00000101 "2
b00000001 "3
b00000001010100 ^
#117000
b10010010 \
#120000
0%
0:
#124000
1%
1:
b0000000000000000000000000001100 1
bxxxxxxx @
b101 L
b00000101 "/
b00001010 "0
0"1
b00000001 d
b0000000000000000000 ",
bxxxxxxxxxxxxxx ^
b110 M
b0000001 @
b00000001 _
b00001010 "2
b00000010 "3
b000000000000000000000 "-
b0000000000000 ".
b00000000 e
#128000
0%
0:
#132000
1%
1:
b0000000000000000000000000001101 1
bxxxxxxx @
b110 L
b00001010 "/
b00010100 "0
b00000010 d
bxxxxxxxxxxxxxxxxxxx ")
bxxxxxxxxxxxxxxxxxxx "*
bxxxxxxxxxxxxxxxxxxx "+
bxxxxxxxxxxxxxxxxxxx ",
b111 M
b0000001 @
b00000010 _
b00010100 "2
b00000100 "3
bxxxxxxxxxxxxxxxxxxxxx "-
bxxxxxxxxxxxxx ".
bxxxxxxxx e
#132500
bxxxxxxxx \
#136000
0%
0:
#140000
1%
1:
b0000000000000000000000000001110 1
bxxxxxxx @
b111 L
b00010100 "/
b00101000 "0
1"1
b00000100 d
b0000010 n
b00000010 O
b000 M
b0000001 @
b00000100 _
0b
b00000010 "2
b00001001 "3
#144000
0%
0:
#148000
1%
1:
b0000000000000000000000000001111 1
bxxxxxxx @
b000 L
b00000010 N
b00000010 "/
b00000100 "0
0"1
b00001001 d
b001 M
b0001111 G
b0000001 @
b0000010 c
b00001001 _
b11001000000010 ]
1b
b00000100 "2
b00010010 "3
b00000001010001 ^
#149000
b00000100 U
#152000
0%
0:
#156000
1%
1:
b0000000000000000000000000010000 1
bxxxxxxx @
b0001111 F
b001 L
b00000100 T
b0000000010010000 f
b00000100 "/
b00001000 "0
b00010010 d
bxxxxxxxxxxxxxx ^
b0000001 @
b0001010 K
b010 M
b00010010 _
b00001000 "2
b00100100 "3
b00000001010010 ^
#157000
b10001001 \
#160000
0%
0:
#164000
1%
1:
b0000000000000000000000000010001 1
bxxxxxxx @
b0001010 J
b010 L
b00001000 "/
b00010000 "0
b00100100 d
b0000000000000000000 ")
bxxxxxxxxxxxxxx ^
b00100100 _
b011 M
b0000001 @
b00010000 "2
b01001000 "3
b00000001010011 ^
#165000
b10001101 \
#168000
0%
0:
#172000
1%
1:
b0000000000000000000000000010010 1
bxxxxxxx @
b011 L
b00010000 "/
b00100000 "0
1"1
b01001000 d
b0000000000000000000 "*
bxxxxxxxxxxxxxx ^
b100 M
b0000001 @
b01001000 _
b00000101 "2
b10010001 "3
b00000001010100 ^
#173000
b10010001 \
#176000
0%
0:
#180000
1%
1:
b0000000000000000000000000010011 1
bxxxxxxx @
b100 L
b00000101 "/
b00001010 "0
0"1
b10010001 d
b0000000000000000000 "+
bxxxxxxxxxxxxxx ^
b101 M
b0000001 @
b10010001 _
b00001010 "2
b00100010 "3
b00000001010100 ^
#181000
b10010010 \
#184000
0%
0:
#188000
1%
1:
b0000000000000000000000000010100 1
bxxxxxxx @
b101 L
b00001010 "/
b00010100 "0
b00100010 d
b0000000000000000000 ",
bxxxxxxxxxxxxxx ^
b110 M
b0000001 @
b00100010 _
b00010100 "2
b01000100 "3
b000000000000000000000 "-
b0000000000000 ".
b00000000 e
#192000
0%
0:
#196000
1%
1:
b0000000000000000000000000010101 1
bxxxxxxx @
b110 L
b00010100 "/
b00101000 "0
1"1
b01000100 d
bxxxxxxxxxxxxxxxxxxx ")
bxxxxxxxxxxxxxxxxxxx "*
bxxxxxxxxxxxxxxxxxxx "+
bxxxxxxxxxxxxxxxxxxx ",
b111 M
b0000001 @
b01000100 _
b00001101 "2
b10001001 "3
bxxxxxxxxxxxxxxxxxxxxx "-
bxxxxxxxxxxxxx ".
bxxxxxxxx e
#196500
bxxxxxxxx \
#200000
0%
0:
#204000
1%
1:
b0000000000000000000000000010110 1
bxxxxxxx @
b111 L
b00001101 "/
b00011010 "0
0"1
b10001001 d
b0000011 n
b00000011 O
b000 M
b0000001 @
b10001001 _
0b
b00000011 "2
b00010010 "3
#208000
0%
0:
#212000
1%
1:
b0000000000000000000000000010111 1
bxxxxxxx @
b000 L
b00000011 N
b00000011 "/
b00000110 "0
b00010010 d
b001 M
b0000010 G
b0000010 C
b0000001 @
b0000011 c
b00010010 _
b11001000000011 ]
1b
b00000110 "2
b00100100 "3
b00000001010001 ^
#213000
b10001001 U
#216000
0%
0:
#220000
1%
1:
b0000000000000000000000000011000 1
bxxxxxxx @
b0000010 B
b0000010 F
b001 L
b10001001 T
b0100100111010001 f
b00000110 "/
b00001100 "0
b00100100 d
bxxxxxxxxxxxxxx ^
b0000001 @
b0011010 K
b010 M
b00100100 _
b01001001 W
b00001100 "2
b01001000 "3
b00000001010010 ^
#221000
b10001001 \
#224000
0%
0:
#228000
1%
1:
b0000000000000000000000000011001 1
bxxxxxxx @
b0011010 J
b010 L
b01001001 V
b0010011110010001 g
b00001100 "/
b00011000 "0
b01001000 d
b0000000000000000000 ")
bxxxxxxxxxxxxxx ^
b01001000 _
b011 M
b0000001 @
b00100111 Y
b00011000 "2
b10010000 "3
b00000001010011 ^
#229000
b10001101 \
#232000
0%
0:
#236000
1%
1:
b0000000000000000000000000011010 1
bxxxxxxx @
b011 L
b00100111 X
b00011000 "/
b00110000 "0
1"1
b10010000 d
b0000000000000000000 "*
bxxxxxxxxxxxxxx ^
b100 M
b0000001 @
b10010000 _
b00010101 "2
b00100001 "3
b00000001010100 ^
#237000
b10010001 \
#240000
0%
0:
#244000
1%
1:
b0000000000000000000000000011011 1
bxxxxxxx @
b100 L
b00010101 "/
b00101010 "0
b00100001 d
b0000000000000000000 "+
bxxxxxxxxxxxxxx ^
b101 M
b0000001 @
b00100001 _
b00001111 "2
b01000011 "3
b00000001010100 ^
#245000
b10010010 \
#248000
0%
0:
#252000
1%
1:
b0000000000000000000000000011100 1
bxxxxxxx @
b101 L
b00001111 "/
b00011110 "0
b01000011 d
b0000000000000000000 ",
bxxxxxxxxxxxxxx ^
b110 M
b0000001 @
b01000011 _
b00000011 "2
b10000111 "3
b000000000000000000000 "-
b0000000000000 ".
b00000000 e
#256000
0%
0:
#260000
1%
1:
b0000000000000000000000000011101 1
bxxxxxxx @
b110 L
b00000011 "/
b00000110 "0
0"1
b10000111 d
bxxxxxxxxxxxxxxxxxxx ")
bxxxxxxxxxxxxxxxxxxx "*
bxxxxxxxxxxxxxxxxxxx "+
bxxxxxxxxxxxxxxxxxxx ",
b111 M
b0000001 @
b10000111 _
b00000110 "2
b00001110 "3
bxxxxxxxxxxxxxxxxxxxxx "-
bxxxxxxxxxxxxx ".
bxxxxxxxx e
#260500
bxxxxxxxx \
#264000
0%
0:
#268000
1%
1:
b0000000000000000000000000011110 1
bxxxxxxx @
b111 L
b00000110 "/
b00001100 "0
b00001110 d
b0000100 n
b00000100 O
b000 M
b0000001 @
b00001110 _
0b
b00000100 "2
b00011100 "3
#272000
0%
0:
#276000
1%
1:
b0000000000000000000000000011111 1
bxxxxxxx @
b000 L
b00000100 N
b00000100 "/
b00001000 "0
b00011100 d
b001 M
b0010000 G
b0000001 @
b0000100 c
b00011100 _
b11001000000100 ]
1b
b00001000 "2
b00111000 "3
b00000001010001 ^
#277000
b00001110 U
#280000
0%
0:
#284000
1%
1:
b0000000000000000000000000100000 1
bxxxxxxx @
b0010000 F
b001 L
b00001110 T
b0000000101000100 f
b0000010001111110 g
b00001000 "/
b00010000 "0
b00111000 d
bxxxxxxxxxxxxxx ^
b0000001 @
b0001011 K
b010 M
b00111000 _
b00000001 W
b00000100 Y
b00010000 "2
b01110000 "3
b00000001010010 ^
#285000
b10001001 \
#288000
0%
0:
#292000
1%
1:
b0000000000000000000000000100001 1
bxxxxxxx @
b0001011 J
b010 L
b00000001 V
b0000000010001110 g
b00000100 X
b00010000 "/
b00100000 "0
1"1
b01110000 d
b0000000000000000000 ")
bxxxxxxxxxxxxxx ^
b01110000 _
b011 M
b0000001 @
b00000000 Y
b00000101 "2
b11100001 "3
b00000001010011 ^
#293000
b10001101 \
#296000
0%
0:
#300000
1%
1:
b0000000000000000000000000100010 1
bxxxxxxx @
b011 L
b00000000 X
b00000101 "/
b00001010 "0
0"1
b11100001 d
b0000000000000000000 "*
bxxxxxxxxxxxxxx ^
b100 M
b0000001 @
b11100001 _
b00001010 "2
b11000010 "3
b00000001010100 ^
#301000
b10010001 \
#304000
0%
0:
#308000
1%
1:
b0000000000000000000000000100011 1
bxxxxxxx @
b100 L
b00001010 "/
b00010100 "0
b11000010 d
b0000000000000000000 "+
bxxxxxxxxxxxxxx ^
b101 M
b0000001 @
b11000010 _
b00010100 "2
b10000100 "3
b00000001010100 ^
#309000
b10010010 \
#312000
0%
0:
#316000
1%
1:
b0000000000000000000000000100100 1
bxxxxxxx @
b101 L
b00010100 "/
b00101000 "0
1"1
b10000100 d
b0000000000000000000 ",
bxxxxxxxxxxxxxx ^
b110 M
b0000001 @
b10000100 _
b00001101 "2
b00001001 "3
b000000000000000000000 "-
b0000000000000 ".
b00000000 e
#320000
0%
0:
#324000
1%
1:
b0000000000000000000000000100101 1
bxxxxxxx @
b110 L
b00001101 "/
b00011010 "0
0"1
b00001001 d
bxxxxxxxxxxxxxxxxxxx ")
bxxxxxxxxxxxxxxxxxxx "*
bxxxxxxxxxxxxxxxxxxx "+
bxxxxxxxxxxxxxxxxxxx ",
b111 M
b0000001 @
b00001001 _
b00011010 "2
b00010010 "3
bxxxxxxxxxxxxxxxxxxxxx "-
bxxxxxxxxxxxxx ".
bxxxxxxxx e
#324500
bxxxxxxxx \
#328000
0%
0:
#332000
1%
1:
b0000000000000000000000000100110 1
bxxxxxxx @
b111 L
b00011010 "/
b00110100 "0
1"1
b00010010 d
b0000101 n
b00000101 O
b000 M
b0000001 @
b00010010 _
0b
b00000101 "2
b00100101 "3
#336000
0%
0:
#340000
1%
1:
b0000000000000000000000000100111 1
bxxxxxxx @
b000 L
b00000101 N
b00000101 "/
b00001010 "0
0"1
b00100101 d
b001 M
b0000011 G
b0000011 C
b0000001 @
b0000101 c
b00100101 _
b11001000000101 ]
1b
b00001010 "2
b01001010 "3
b00000001010001 ^
#341000
b00010010 U
#344000
0%
0:
#348000
1%
1:
b0000000000000000000000000101000 1
bxxxxxxx @
b0000011 B
b0000011 F
b001 L
b00010010 T
b0000000111000100 f
b0000000010010010 g
b00001010 "/
b00010100 "0
b01001010 d
bxxxxxxxxxxxxxx ^
b0000001 @
b0011011 K
b010 M
b01001010 _
b00010100 "2
b10010100 "3
b00000001010010 ^
#349000
b10001001 \
#352000
0%
0:
#356000
1%
1:
b0000000000000000000000000101001 1
bxxxxxxx @
b0011011 J
b010 L
b00010100 "/
b00101000 "0
1"1
b10010100 d
b0000000000000000000 ")
bxxxxxxxxxxxxxx ^
b10010100 _
b011 M
b0000001 @
b00001101 "2
b00101001 "3
b00000001010011 ^
#357000
b10001101 \
#360000
0%
0:
#364000
1%
1:
b0000000000000000000000000101010 1
bxxxxxxx @
b011 L
b00001101 "/
b00011010 "0
0"1
b00101001 d
b0000000000000000000 "*
bxxxxxxxxxxxxxx ^
b100 M
b0000001 @
b00101001 _
b00011010 "2
b01010010 "3
b00000001010100 ^
#365000
b10010001 \
#368000
0%
0:
#372000
1%
1:
b0000000000000000000000000101011 1
bxxxxxxx @
b100 L
b00011010 "/
b00110100 "0
1"1
b01010010 d
b0000000000000000000 "+
bxxxxxxxxxxxxxx ^
b101 M
b0000001 @
b01010010 _
b00011001 "2
b10100101 "3
b00000001010100 ^
#373000
b10010010 \
#376000
0%
0:
#380000
1%
1:
b0000000000000000000000000101100 1
bxxxxxxx @
b101 L
b00011001 "/
b00110010 "0
b10100101 d
b0000000000000000000 ",
bxxxxxxxxxxxxxx ^
b110 M
b0000001 @
b10100101 _
b00010111 "2
b01001011 "3
b000000000000000000000 "-
b0000000000000 ".
b00000000 e
#384000
0%
0:
#388000
1%
1:
b0000000000000000000000000101101 1
bxxxxxxx @
b110 L
b00010111 "/
b00101110 "0
b01001011 d
bxxxxxxxxxxxxxxxxxxx ")
bxxxxxxxxxxxxxxxxxxx "*
bxxxxxxxxxxxxxxxxxxx "+
bxxxxxxxxxxxxxxxxxxx ",
b111 M
b0000001 @
b01001011 _
b00010011 "2
b10010111 "3
bxxxxxxxxxxxxxxxxxxxxx "-
bxxxxxxxxxxxxx ".
bxxxxxxxx e
#388500
bxxxxxxxx \
#392000
0%
0:
#396000
1%
1:
b0000000000000000000000000101110 1
bxxxxxxx @
b111 L
b00010011 "/
b00100110 "0
b10010111 d
b0000110 n
b00000110 O
b000 M
b0000001 @
b10010111 _
0b
b00000110 "2
b00101111 "3
#400000
0%
0:
#404000
1%
1:
b0000000000000000000000000101111 1
bxxxxxxx @
b000 L
b00000110 N
b00000110 "/
b00001100 "0
0"1
b00101111 d
b001 M
b0010001 G
b0000001 @
b0000110 c
b00101111 _
b11001000000110 ]
1b
b00001100 "2
b01011110 "3
b00000001010001 ^
#405000
b10010111 U
#408000
0%
0:
#412000
1%
1:
b0000000000000000000000000110000 1
bxxxxxxx @
b0010001 F
b001 L
b10010111 T
b0101100110010001 f
b0000000100010111 g
b00001100 "/
b00011000 "0
b01011110 d
bxxxxxxxxxxxxxx ^
b0000001 @
b0001100 K
b010 M
b01011110 _
b01011001 W
b00000001 Y
b00011000 "2
b10111100 "3
b00000001010010 ^
#413000
b10001001 \
#416000
0%
0:
#420000
1%
1:
b0000000000000000000000000110001 1
bxxxxxxx @
b0001100 J
b010 L
b01011001 V
b0011010011111111 g
b00000001 X
b00011000 "/
b00110000 "0
1"1
b10111100 d
b0000000000000000000 ")
bxxxxxxxxxxxxxx ^
b10111100 _
b011 M
b0000001 @
b00110100 Y
b00010101 "2
b01111001 "3
b00000001010011 ^
#421000
b10001101 \
#424000
0%
0:
#428000
1%
1:
b0000000000000000000000000110010 1
bxxxxxxx @
b011 L
b00110100 X
b00010101 "/
b00101010 "0
b01111001 d
b0000000000000000000 "*
bxxxxxxxxxxxxxx ^
b100 M
b0000001 @
b01111001 _
b00001111 "2
b11110011 "3
b00000001010100 ^
#429000
b10010001 \
#432000
0%
0:
#436000
1%
1:
b0000000000000000000000000110011 1
bxxxxxxx @
b100 L
b00001111 "/
b00011110 "0
b11110011 d
b0000000000000000000 "+
bxxxxxxxxxxxxxx ^
b101 M
b0000001 @
b11110011 _
b00000011 "2
b11100111 "3
b00000001010100 ^
#437000
b10010010 \
#440000
0%
0:
#444000
1%
1:
b0000000000000000000000000110100 1
bxxxxxxx @
b101 L
b00000011 "/
b00000110 "0
0"1
b11100111 d
b0000000000000000000 ",
bxxxxxxxxxxxxxx ^
b110 M
b0000001 @
b11100111 _
b00000110 "2
b11001110 "3
b000000000000000000000 "-
b0000000000000 ".
b00000000 e
#448000
0%
0:
#452000
1%
1:
b0000000000000000000000000110101 1
bxxxxxxx @
b110 L
b00000110 "/
b00001100 "0
b11001110 d
bxxxxxxxxxxxxxxxxxxx ")
bxxxxxxxxxxxxxxxxxxx "*
bxxxxxxxxxxxxxxxxxxx "+
bxxxxxxxxxxxxxxxxxxx ",
b111 M
b0000001 @
b11001110 _
b00001100 "2
b10011100 "3
bxxxxxxxxxxxxxxxxxxxxx "-
bxxxxxxxxxxxxx ".
bxxxxxxxx e
#452500
bxxxxxxxx \
#456000
0%
0:
