ver3/sim/Bicubic.vcd
$date
	Sun Aug 17 16:28:24 2025
$end

$version
	Synopsys VCS version W-2024.09-SP2_Full64
$end

$timescale
	1ps
$end

$comment Csum: 1 1014ac1b65eed0ef $end


$scope module testfixture $end
$var integer 32 ! fd $end
$var integer 32 " i $end
$var integer 32 # j $end
$var integer 32 $ patnum $end
$var reg 1 % CLK $end
$var reg 1 & RST $end
$var reg 7 ' V0 [6:0] $end
$var reg 7 ( H0 [6:0] $end
$var reg 5 ) SW [4:0] $end
$var reg 5 * SH [4:0] $end
$var reg 6 + TW [5:0] $end
$var reg 6 , TH [5:0] $end
$var wire 1 - DONE $end
$var reg 2 . state [1:0] $end
$var reg 2 / rst_count [1:0] $end
$var reg 32 0 pat_n [31:0] $end
$var reg 31 1 cycle_pat [30:0] $end
$var integer 32 2 charcount $end
$var integer 32 3 freturn $end
$var integer 32 4 wait_done $end
$var integer 32 5 error_pixels $end
$var integer 32 6 total_error_pixels $end
$var reg 8 7 pv [7:0] $end
$var integer 32 8 idx $end

$scope task score $end
$var integer 32 9 error_pixels $end
$upscope $end


$scope begin READ_PATTERN $end
$upscope $end


$scope module u_Bicubic $end
$var wire 1 % CLK $end
$var wire 1 & RST $end
$var wire 7 ' V0 [6:0] $end
$var wire 7 ( H0 [6:0] $end
$var wire 5 ) SW [4:0] $end
$var wire 5 * SH [4:0] $end
$var wire 6 + TW [5:0] $end
$var wire 6 , TH [5:0] $end
$var reg 1 - DONE $end
$var reg 7 : coord_h [6:0] $end
$var reg 7 ; coord_h_next [6:0] $end
$var reg 7 < coord_v [6:0] $end
$var reg 7 = coord_v_next [6:0] $end
$var reg 7 > prev_coord_h [6:0] $end
$var reg 7 ? prev_coord_h_next [6:0] $end
$var reg 7 @ prev_coord_v [6:0] $end
$var reg 7 A prev_coord_v_next [6:0] $end
$var reg 1 B DONE_next $end
$var reg 7 C quot_h [6:0] $end
$var reg 7 D quot_h_next [6:0] $end
$var reg 7 E quot_v [6:0] $end
$var reg 7 F quot_v_next [6:0] $end
$var reg 7 G rem_h [6:0] $end
$var reg 7 H rem_h_next [6:0] $end
$var reg 7 I rem_v [6:0] $end
$var reg 7 J rem_v_next [6:0] $end
$var reg 7 K next_rem_h [6:0] $end
$var reg 7 L next_rem_h_next [6:0] $end
$var reg 7 M next_rem_v [6:0] $end
$var reg 7 N next_rem_v_next [6:0] $end
$var reg 7 O next_rem_v_p1 [6:0] $end
$var reg 7 P next_rem_v_p1_next [6:0] $end
$var reg 3 Q cycle_cnt [2:0] $end
$var reg 3 R cycle_cnt_next [2:0] $end
$var reg 8 S cycle_cnt_lv2 [7:0] $end
$var reg 8 T cycle_cnt_lv2_next [7:0] $end
$var reg 1 U mode $end
$var reg 1 V mode_next $end
$var reg 1 W prev_mode $end
$var reg 1 X prev_mode_next $end
$var reg 1 Y next_mode $end
$var reg 1 Z next_mode_next $end
$var reg 1 [ next_mode_p1 $end
$var reg 1 \ next_mode_p1_next $end
$var reg 8 ] x1 [7:0] $end
$var reg 8 ^ x1_next [7:0] $end
$var reg 8 _ x2 [7:0] $end
$var reg 8 ` x2_next [7:0] $end
$var reg 8 a x3 [7:0] $end
$var reg 8 b x3_next [7:0] $end
$var reg 1 c state $end
$var reg 1 d state_next $end
$var reg 3 e line_shift [2:0] $end
$var wire 8 f ROM_data_o [7:0] $end
$var wire 8 g SRAM_data_o [7:0] $end
$var reg 14 h SRAM_addr [13:0] $end
$var reg 14 i ROM_addr [13:0] $end
$var reg 8 j SRAM_data_i [7:0] $end
$var reg 1 k ROM_CEN $end
$var reg 1 l SRAM_WEN $end
$var reg 1 m SRAM_CEN $end
$var reg 7 n calc_addr [6:0] $end
$var wire 8 o frac_val [7:0] $end
$var wire 8 p cubic_val [7:0] $end
$var wire 16 q x_x_raw_round [15:0] $end
$var wire 16 r x2_x_raw_round [15:0] $end
$var wire 1 s X_valid $end
$var wire 1 t V_valid $end
$var wire 24 u X_in [23:0] $end
$var wire 8 v P_in [7:0] $end
$var reg 7 w divider [6:0] $end
$var reg 7 x dividend [6:0] $end
$var reg 7 y ROM_addr_v [6:0] $end
$var reg 7 z ROM_addr_h [6:0] $end
$var reg 8 { signed_temp [7:0] $end

$scope module cubic_engine $end
$var wire 1 % clk $end
$var wire 1 & rst $end
$var wire 24 u X_in [23:0] $end
$var wire 8 v P_in [7:0] $end
$var wire 3 Q cycle_cnt [2:0] $end
$var reg 8 p out [7:0] $end
$var reg 8 p XCP [7:0] $end
$var reg 8 | XCP_next [7:0] $end
$var wire 12 } XC0_prod0 [11:0] $end
$var wire 12 ~ XC0_prod1 [11:0] $end
$var wire 12 "! XC0_prod2 [11:0] $end
$var wire 12 "" XC0_prod3 [11:0] $end
$var wire 12 "# XC1_prod0 [11:0] $end
$var wire 12 "$ XC1_prod1 [11:0] $end
$var wire 12 "% XC1_prod2 [11:0] $end
$var wire 12 "& XC1_prod3 [11:0] $end
$var wire 12 "' XC2_prod0 [11:0] $end
$var wire 12 "( XC2_prod1 [11:0] $end
$var wire 12 ") XC2_prod2 [11:0] $end
$var wire 12 "* XC2_prod3 [11:0] $end
$var wire 12 "+ XC3_prod0 [11:0] $end
$var wire 12 ", XC3_prod1 [11:0] $end
$var wire 12 "- XC3_prod2 [11:0] $end
$var wire 12 ". XC3_prod3 [11:0] $end
$var wire 14 "/ XC_sum0 [13:0] $end
$var wire 14 "0 XC_sum1 [13:0] $end
$var wire 14 "1 XC_sum2 [13:0] $end
$var wire 14 "2 XC_sum3 [13:0] $end
$var wire 13 "3 XC_sum0_round_shift [12:0] $end
$var wire 13 "4 XC_sum1_round_shift [12:0] $end
$var wire 13 "5 XC_sum2_round_shift [12:0] $end
$var wire 13 "6 XC_sum3_round_shift [12:0] $end
$var wire 19 "7 XC0P0_prod [18:0] $end
$var wire 19 "8 XC1P1_prod [18:0] $end
$var wire 19 "9 XC2P2_prod [18:0] $end
$var wire 19 ": XC3P3_prod [18:0] $end
$var wire 21 "; XCP_sum [20:0] $end
$var wire 13 "< XCP_sum_round_shift [12:0] $end
$var wire 8 "= XCP_sum_round_shift_clamp [7:0] $end
$upscope $end


$scope module sns_divider $end
$var wire 1 "> clk $end
$var wire 1 "? rst $end
$var wire 3 "@ cycle_cnt [2:0] $end
$var wire 7 "A divider [6:0] $end
$var wire 7 "B dividend [6:0] $end
$var wire 8 o frac_val [7:0] $end
$var reg 8 "C remainder [7:0] $end
$var reg 8 "D qoutient [7:0] $end
$var wire 8 "E remainder_shift [7:0] $end
$var wire 1 "F isGE $end
$var wire 8 "G remainder_next [7:0] $end
$var wire 8 "H qoutient_next [7:0] $end
$upscope $end

$upscope $end

$upscope $end

$enddefinitions $end

#0
$dumpvars
0%
xB
xk
1&
1m
1l
xU
xV
xY
xZ
x[
x\
xW
xX
xd
xs
xt
x-
xc
b1010001 (
bxxxxxxxx v
b00000000000000 i
b0000000 z
b0000000 y
b01111 *
b00000000000000 h
bxxxxxxxx j
b10001 )
b011100 ,
b010110 +
b0010010 '
bxxxxxxxxxxxxxxxxxxx "7
bxxxxxxxxxxxx }
bxxxxxxxxxxxx ~
bxxxxxxxxxxxx "!
bxxxxxxxxxxxx ""
bxxxxxxxxxxxxxxxxxxx "8
bxxxxxxxxxxxx "#
bxxxxxxxxxxxx "$
bxxxxxxxxxxxx "%
bxxxxxxxxxxxx "&
bxxxxxxxxxxxxxxxxxxx "9
bxxxxxxxxxxxx "'
bxxxxxxxxxxxx "(
bxxxxxxxxxxxx ")
bxxxxxxxxxxxx "*
bxxxxxxxxxxxxxxxxxxx ":
bxxxxxxxxxxxx "+
bxxxxxxxxxxxx ",
bxxxxxxxxxxxx "-
bxxxxxxxxxxxx ".
bxxxxxxxx p
bxxxxxxxx |
bxxxxxxxxxxxxxxxxxxxxx ";
bxxxxxxxxxxxxx "<
bxxxxxxxx "=
bxxxxxxxxxxxxxx "/
bxxxxxxxxxxxxx "3
bxxxxxxxxxxxxxx "0
bxxxxxxxxxxxxx "4
bxxxxxxxxxxxxxx "1
bxxxxxxxxxxxxx "5
bxxxxxxxxxxxxxx "2
bxxxxxxxxxxxxx "6
bxxxxxxxxxxxxxxxxxxxxxxxx u
bxxxxxxx n
b00000000000000000000000000000000 2
bxxxxxxx :
b0000001 ;
bxxxxxxx <
bxxxxxxx =
bxxx Q
bxxxxxxxx S
bxxxxxxxx T
bxxx R
b0000000000000000000000000000000 1
b0000000 x
b0000000 w
bxxxxxxxxxxxxxxxxxxxxxxxxxxxxxxxx 5
b10000000000000000000000000000011 !
b00000000000000000000000000000001 3
b00000000000000000000000000000001 "
bxxxxxxxxxxxxxxxxxxxxxxxxxxxxxxxx 8
b00000000000000000000010011010000 #
bxxx e
bxxxxxxx K
bxxxxxxx M
bxxxxxxx N
bxxxxxxx O
bxxxxxxx P
bxxxxxxx >
bxxxxxxx ?
bxxxxxxx @
bxxxxxxx A
bxxxxxxxx 7
b0000000 C
bxxxxxxx E
bxxxxxxx F
bxxxxxxx G
bxxxxxxx I
bxxxxxxx J
b00 /
bxxxxxxxxxxxxxxxxxxxxxxxxxxxxxxxx 9
b00000000 {
b00 .
bxxxxxxxxxxxxxxxxxxxxxxxxxxxxxxxx 6
bxxxxxxxxxxxxxxxxxxxxxxxxxxxxxxxx 4
bxxxxxxxx ]
bxxxxxxxx ^
bxxxxxxxx _
bxxxxxxxx `
bxxxxxxxxxxxxxxxx r
bxxxxxxxx a
bxxxxxxxx b
bxxxxxxxxxxxxxxxx q
b00000000000000000000000000000000 0
x"F
bxxxxxxxx "D
bxxxxxxxx "H
bxxxxxxxx "C
bxxxxxxxx "G
bxxxxxxx0 "E
bxxxxxxx L
bxxxxxxx H
bxxxxxxx D
bxxxxxxxxxxxxxxxxxxxxxxxxxxxxxxxx $
bxxxxxxxx o
bxxxxxxxx f
bxxxxxxxx g
0">
1"?
bxxx "@
b0000000 "A
b0000000 "B
$end
#4000
1%
1">
b0000001 :
b0000000 <
b0000001 >
b0000000 @
0-
b0000000 E
b0001110 G
b0000000 I
b0001110 K
b0000000 M
b0000000 O
b000 Q
0s
b000 "@
b00000000 S
0U
0W
0Y
0[
b00000000 ]
b0000000010000000 q
b00000000 _
b0000000010000000 r
b00000000 a
0c
0t
b00000000 p
b00000000 "C
b00000000 "D
b00000000 o
b0000000000000000000 "7
b0000000000000000000 "8
b0000000000000000000 "9
b0000000000000000000 ":
b000000000000 }
b000000000000 "#
b000000000000 "'
b000000000000 "+
b000000000000 ",
b000000000000 "(
b000000000000 "$
b000000000000 ~
b000000000000 "-
b000000000000 ")
b000000000000 "%
b000000000000 "!
b000000000000 ".
b000000000000 "*
b000111111110 "&
b000000000000 ""
b0000000 =
b0000001 ?
b0000000 A
0B
0d
b00000000 T
b001 R
b000 e
0Z
0\
0V
b0000000 J
b0000000 F
b0000000 N
b0000000 P
b00000000 j
b1100100xxxxxxx h
0l
0X
b0000000 n
1k
b00000000 ^
bxxxxxxxxxxxx }
bxxxxxxxxxxxx "#
bxxxxxxxxxxxx "'
bxxxxxxxxxxxx "+
bxxxxxxxxxxxx ",
bxxxxxxxxxxxx "(
bxxxxxxxxxxxx "$
bxxxxxxxxxxxx ~
bxxxxxxxxxxxx "-
bxxxxxxxxxxxx ")
bxxxxxxxxxxxx "%
bxxxxxxxxxxxx "!
b000000000000000000000000 u
b00000000 v
b0010101 w
b0010101 "A
0"F
b00000000 `
b00000000 b
b00000000 "E
b00000000 "H
b000000000000000000000 ";
b0000000000000 "<
bxxxxxxxxxxxxxx "2
bxxxxxxxxxxxxxx "1
bxxxxxxxxxxxxxx "0
bxxxxxxxxxxxxxx "/
b11001000000000 h
b000000000000 }
b000000000000 "#
b000000000000 "'
b000000000000 "+
b000000000000 ",
b000000000000 "(
b000000000000 "$
b000000000000 ~
b000000000000 "-
b000000000000 ")
b000000000000 "%
b000000000000 "!
b00000000 "G
b00000000 "=
b00000000000000 "2
b0000000000000 "6
b00000000000000 "1
b0000000000000 "5
b00000111111110 "0
b0000011111111 "4
b00000000000000 "/
b0000000000000 "3
b00000000 |
#5000
b01 /
b00000000000000000000000000000000 4
#8000
0%
0">
#12000
1%
1">
#13000
b10 /
#16000
0%
0">
#20000
1%
1">
#21000
b00000000000000000000000000000000 6
0&
0"?
b00 /
b01 .
#24000
0%
0">
#28000
1%
1">
b10 .
bxxxxxxx C
bxxxxxxx G
bxxxxxxx K
b001 Q
b001 "@
b010 R
b0000000 C
bxxxxxxxx ^
#32000
0%
0">
#36000
1%
1">
b0000000000000000000000000000001 1
bxxxxxxx C
b010 Q
b010 "@
bxxxxxxxx ]
bxxxxxxxxxxxxxxxx q
bxxxxxxxxxxxxxxxx r
b011 R
b0000000 C
bxxxxxxxx `
bxxxxxxxx b
#40000
0%
0">
#44000
1%
1">
b0000000000000000000000000000010 1
bxxxxxxx C
b011 Q
b011 "@
bxxxxxxxx _
bxxxxxxxx a
b100 R
b0000000 C
#48000
0%
0">
#52000
1%
1">
b0000000000000000000000000000011 1
bxxxxxxx C
b100 Q
b100 "@
b101 R
b0000000 C
#56000
0%
0">
#60000
1%
1">
b0000000000000000000000000000100 1
bxxxxxxx C
b101 Q
b101 "@
b110 R
b0000000 C
#64000
0%
0">
#68000
1%
1">
b0000000000000000000000000000101 1
bxxxxxxx C
b110 Q
b110 "@
bxxxxxxxxxxxxxxxxxxx "7
bxxxxxxxxxxxxxxxxxxx "8
bxxxxxxxxxxxxxxxxxxx "9
bxxxxxxxxxxxxxxxxxxx ":
b111 R
b0000000 C
bxxxxxxxxxxxxxxxxxxxxx ";
bxxxxxxxxxxxxx "<
bxxxxxxxx "=
#72000
0%
0">
#76000
1%
1">
b0000000000000000000000000000110 1
bxxxxxxx C
b111 Q
b111 "@
b0000001 x
b0000001 "B
b00000001 T
b000 R
b0000000 C
0m
b00000010 "E
b00000010 "G
#80000
0%
0">
#84000
1%
1">
b0000000000000000000000000000111 1
bxxxxxxx C
b000 Q
b000 "@
b00000001 S
b00000010 "C
b001 R
b0000000 C
b0000001 n
b11001000000001 h
1m
bxxxxxxxx |
b00000100 "E
b00000100 "G
#85000
b00000000 g
#88000
0%
0">
#92000
1%
1">
b0000000000000000000000000001000 1
bxxxxxxx C
b001 Q
b001 "@
bxxxxxxxx p
b00000100 "C
b010 R
b0000000 C
b00000000 ^
b00001000 "E
b00001000 "G
#96000
0%
0">
#100000
1%
1">
b0000000000000000000000000001001 1
bxxxxxxx C
b010 Q
b010 "@
b00000000 ]
b0000000010000000 q
b00001000 "C
b0000000000000000000 "7
b011 R
b0000000 C
b00000000 `
b00010000 "E
b00010000 "G
#104000
0%
0">
#108000
1%
1">
b0000000000000000000000000001010 1
bxxxxxxx C
b011 Q
b011 "@
b00000000 _
b0000000010000000 r
b00010000 "C
b0000000000000000000 "8
b100 R
b0000000 C
b00000000 b
b00100000 "E
1"F
b00001011 "G
b00000001 "H
#112000
0%
0">
#116000
1%
1">
b0000000000000000000000000001011 1
bxxxxxxx C
b100 Q
b100 "@
b00000000 a
b00001011 "C
b00000001 "D
b00000001 o
b0000000000000000000 "9
b101 R
b0000000 C
b00000001 j
b00010110 "E
b00000011 "H
b00000001 "G
#120000
0%
0">
#124000
1%
1">
b0000000000000000000000000001100 1
bxxxxxxx C
b101 Q
b101 "@
b00000001 "C
b00000011 "D
b00000011 o
b0000000000000000000 ":
b110 R
b0000000 C
b00000011 j
b00000010 "E
0"F
b00000110 "H
b000000000000000000000 ";
b0000000000000 "<
b00000010 "G
b00000000 "=
#128000
0%
0">
#132000
1%
1">
b0000000000000000000000000001101 1
bxxxxxxx C
b110 Q
b110 "@
b00000010 "C
b00000110 "D
b00000110 o
bxxxxxxxxxxxxxxxxxxx "7
bxxxxxxxxxxxxxxxxxxx "8
bxxxxxxxxxxxxxxxxxxx "9
bxxxxxxxxxxxxxxxxxxx ":
b111 R
b0000000 C
b00000110 j
b00000100 "E
b00001100 "H
bxxxxxxxxxxxxxxxxxxxxx ";
bxxxxxxxxxxxxx "<
b00000100 "G
bxxxxxxxx "=
#136000
0%
0">
#140000
1%
1">
b0000000000000000000000000001110 1
bxxxxxxx C
b111 Q
b111 "@
b00000100 "C
b00001100 "D
b00001100 o
b0000010 x
b0000010 "B
b00000010 T
b000 R
b0000000 C
b00001100 j
0m
b00000100 "E
b00011000 "H
#144000
0%
0">
#148000
1%
1">
b0000000000000000000000000001111 1
bxxxxxxx C
b000 Q
b000 "@
b00000010 S
b00011000 "D
b00011000 o
b001 R
b0000000 C
b0000010 n
b00011000 j
b11001000000010 h
1m
b00001000 "E
b00110000 "H
b00001000 "G
#149000
b00001100 g
#152000
0%
0">
#156000
1%
1">
b0000000000000000000000000010000 1
bxxxxxxx C
b001 Q
b001 "@
b00001000 "C
b00110000 "D
b00110000 o
b010 R
b0000000 C
b00110000 j
b00001100 ^
b00010000 "E
b01100000 "H
b00010000 "G
#160000
0%
0">
#164000
1%
1">
b0000000000000000000000000010001 1
bxxxxxxx C
b010 Q
b010 "@
b00001100 ]
b0000000100010000 q
b00010000 "C
b01100000 "D
b01100000 o
b0000000000000000000 "7
b011 R
b0000000 C
b01100000 j
b00000001 `
b00100000 "E
1"F
b11000001 "H
b00001011 "G
#168000
0%
0">
#172000
1%
1">
b0000000000000000000000000010010 1
bxxxxxxx C
b011 Q
b011 "@
b00000001 _
b0000000010001100 r
b00001011 "C
b11000001 "D
b11000001 o
b0000000000000000000 "8
b100 R
b0000000 C
b11000001 j
b00010110 "E
b10000011 "H
b00000001 "G
#176000
0%
0">
#180000
1%
1">
b0000000000000000000000000010011 1
bxxxxxxx C
b100 Q
b100 "@
b00000001 "C
b10000011 "D
b10000011 o
b0000000000000000000 "9
b101 R
b0000000 C
b10000011 j
b00000010 "E
0"F
b00000110 "H
b00000010 "G
#184000
0%
0">
#188000
1%
1">
b0000000000000000000000000010100 1
bxxxxxxx C
b101 Q
b101 "@
b00000010 "C
b00000110 "D
b00000110 o
b0000000000000000000 ":
b110 R
b0000000 C
b00000110 j
b00000100 "E
b00001100 "H
b000000000000000000000 ";
b0000000000000 "<
b00000100 "G
b00000000 "=
#192000
0%
0">
#196000
1%
1">
b0000000000000000000000000010101 1
bxxxxxxx C
b110 Q
b110 "@
b00000100 "C
b00001100 "D
b00001100 o
bxxxxxxxxxxxxxxxxxxx "7
bxxxxxxxxxxxxxxxxxxx "8
bxxxxxxxxxxxxxxxxxxx "9
bxxxxxxxxxxxxxxxxxxx ":
b111 R
b0000000 C
b00001100 j
b00001000 "E
b00011000 "H
bxxxxxxxxxxxxxxxxxxxxx ";
bxxxxxxxxxxxxx "<
b00001000 "G
bxxxxxxxx "=
#200000
0%
0">
#204000
1%
1">
b0000000000000000000000000010110 1
bxxxxxxx C
b111 Q
b111 "@
b00001000 "C
b00011000 "D
b00011000 o
b0000011 x
b0000011 "B
b00000011 T
b000 R
b0000000 C
b00011000 j
0m
b00000110 "E
b00110000 "H
b00000110 "G
#208000
0%
0">
#212000
1%
1">
b0000000000000000000000000010111 1
bxxxxxxx C
b000 Q
b000 "@
b00000011 S
b00000110 "C
b00110000 "D
b00110000 o
b001 R
b0000000 C
b0000011 n
b00110000 j
b11001000000011 h
1m
b00001100 "E
b01100000 "H
b00001100 "G
#213000
b00011000 g
#216000
0%
0">
#220000
1%
1">
b0000000000000000000000000011000 1
bxxxxxxx C
b001 Q
b001 "@
b00001100 "C
b01100000 "D
b01100000 o
b010 R
b0000000 C
b01100000 j
b00011000 ^
b00011000 "E
1"F
b11000001 "H
b00000011 "G
#224000
0%
0">
#228000
1%
1">
b0000000000000000000000000011001 1
bxxxxxxx C
b010 Q
b010 "@
b00011000 ]
b0000001011000000 q
b0000000010011000 r
b00000011 "C
b11000001 "D
b11000001 o
b0000000000000000000 "7
b011 R
b0000000 C
b11000001 j
b00000010 `
b00000110 "E
0"F
b10000010 "H
b00000110 "G
#232000
0%
0">
#236000
1%
1">
b0000000000000000000000000011010 1
bxxxxxxx C
b011 Q
b011 "@
b00000010 _
b0000000010110000 r
b00000110 "C
b10000010 "D
b10000010 o
b0000000000000000000 "8
b100 R
b0000000 C
b10000010 j
b00001100 "E
b00000100 "H
b00001100 "G
#240000
0%
0">
#244000
1%
1">
b0000000000000000000000000011011 1
bxxxxxxx C
b100 Q
b100 "@
b00001100 "C
b00000100 "D
b00000100 o
b0000000000000000000 "9
b101 R
b0000000 C
b00000100 j
b00011000 "E
1"F
b00001001 "H
b00000011 "G
#248000
0%
0">
#252000
1%
1">
b0000000000000000000000000011100 1
bxxxxxxx C
b101 Q
b101 "@
b00000011 "C
b00001001 "D
b00001001 o
b0000000000000000000 ":
b110 R
b0000000 C
b00001001 j
b00000110 "E
0"F
b00010010 "H
b000000000000000000000 ";
b0000000000000 "<
b00000110 "G
b00000000 "=
#256000
0%
0">
#260000
1%
1">
b0000000000000000000000000011101 1
bxxxxxxx C
b110 Q
b110 "@
b00000110 "C
b00010010 "D
b00010010 o
bxxxxxxxxxxxxxxxxxxx "7
bxxxxxxxxxxxxxxxxxxx "8
bxxxxxxxxxxxxxxxxxxx "9
bxxxxxxxxxxxxxxxxxxx ":
b111 R
b0000000 C
b00010010 j
b00001100 "E
b00100100 "H
bxxxxxxxxxxxxxxxxxxxxx ";
bxxxxxxxxxxxxx "<
b00001100 "G
bxxxxxxxx "=
#264000
0%
0">
#268000
1%
1">
b0000000000000000000000000011110 1
bxxxxxxx C
b111 Q
b111 "@
b00001100 "C
b00100100 "D
b00100100 o
b0000100 x
b0000100 "B
b00000100 T
b000 R
b0000000 C
b00100100 j
0m
b00001000 "E
b01001000 "H
b00001000 "G
#272000
0%
0">
#276000
1%
1">
b0000000000000000000000000011111 1
bxxxxxxx C
b000 Q
b000 "@
b00000100 S
b00001000 "C
b01001000 "D
b01001000 o
b001 R
b0000000 C
b0000100 n
b01001000 j
b11001000000100 h
1m
b00010000 "E
b10010000 "H
b00010000 "G
#277000
b00100100 g
#280000
0%
0">
#284000
1%
1">
b0000000000000000000000000100000 1
bxxxxxxx C
b001 Q
b001 "@
b00010000 "C
b10010000 "D
b10010000 o
b010 R
b0000000 C
b10010000 j
b00100100 ^
b00100000 "E
1"F
b00100001 "H
b00001011 "G
#288000
0%
0">
#292000
1%
1">
b0000000000000000000000000100001 1
bxxxxxxx C
b010 Q
b010 "@
b00100100 ]
b0000010110010000 q
b0000000011001000 r
b00001011 "C
b00100001 "D
b00100001 o
b0000000000000000000 "7
b011 R
b0000000 C
b00100001 j
b00000101 `
b00010110 "E
b01000011 "H
b00000001 "G
#296000
0%
0">
#300000
1%
1">
b0000000000000000000000000100010 1
bxxxxxxx C
b011 Q
b011 "@
b00000101 _
b0000000100110100 r
b00000001 "C
b01000011 "D
b01000011 o
b0000000000000000000 "8
b100 R
b0000000 C
b01000011 j
b00000001 b
b00000010 "E
0"F
b10000110 "H
b00000010 "G
#304000
0%
0">
#308000
1%
1">
b0000000000000000000000000100011 1
bxxxxxxx C
b100 Q
b100 "@
b00000001 a
b00000010 "C
b10000110 "D
b10000110 o
b0000000000000000000 "9
b101 R
b0000000 C
b10000110 j
b00000100 "E
b00001100 "H
b00000100 "G
#312000
0%
0">
#316000
1%
1">
b0000000000000000000000000100100 1
bxxxxxxx C
b101 Q
b101 "@
b00000100 "C
b00001100 "D
b00001100 o
b0000000000000000000 ":
b110 R
b0000000 C
b00001100 j
b00001000 "E
b00011000 "H
b000000000000000000000 ";
b0000000000000 "<
b00001000 "G
b00000000 "=
#320000
0%
0">
#324000
1%
1">
b0000000000000000000000000100101 1
bxxxxxxx C
b110 Q
b110 "@
b00001000 "C
b00011000 "D
b00011000 o
bxxxxxxxxxxxxxxxxxxx "7
bxxxxxxxxxxxxxxxxxxx "8
bxxxxxxxxxxxxxxxxxxx "9
bxxxxxxxxxxxxxxxxxxx ":
b111 R
b0000000 C
b00011000 j
b00010000 "E
b00110000 "H
bxxxxxxxxxxxxxxxxxxxxx ";
bxxxxxxxxxxxxx "<
b00010000 "G
bxxxxxxxx "=
#328000
0%
0">
#332000
1%
1">
b0000000000000000000000000100110 1
bxxxxxxx C
b111 Q
b111 "@
b00010000 "C
b00110000 "D
b00110000 o
b0000101 x
b0000101 "B
b00000101 T
b000 R
b0000000 C
b00110000 j
0m
b00001010 "E
b01100000 "H
b00001010 "G
#336000
0%
0">
#340000
1%
1">
b0000000000000000000000000100111 1
bxxxxxxx C
b000 Q
b000 "@
b00000101 S
b00001010 "C
b01100000 "D
b01100000 o
b001 R
b0000000 C
b0000101 n
b01100000 j
b11001000000101 h
1m
b00010100 "E
b11000000 "H
b00010100 "G
#341000
b00110000 g
#344000
0%
0">
#348000
1%
1">
b0000000000000000000000000101000 1
bxxxxxxx C
b001 Q
b001 "@
b00010100 "C
b11000000 "D
b11000000 o
b010 R
b0000000 C
b11000000 j
b00110000 ^
b00101000 "E
1"F
b10000001 "H
b00010011 "G
#352000
0%
0">
#356000
1%
1">
b0000000000000000000000000101001 1
bxxxxxxx C
b010 Q
b010 "@
b00110000 ]
b0000100110000000 q
b0000000101110000 r
b00010011 "C
b10000001 "D
b10000001 o
b0000000000000000000 "7
b011 R
b0000000 C
b10000001 j
b00001001 `
b00100110 "E
b00000011 "H
b00010001 "G
#360000
0%
0">
#364000
1%
1">
b0000000000000000000000000101010 1
bxxxxxxx C
b011 Q
b011 "@
b00001001 _
b0000001000110000 r
b00010001 "C
b00000011 "D
b00000011 o
b0000000000000000000 "8
b100 R
b0000000 C
b00000011 j
b00000010 b
b00100010 "E
b00000111 "H
b00001101 "G
#368000
0%
0">
#372000
1%
1">
b0000000000000000000000000101011 1
bxxxxxxx C
b100 Q
b100 "@
b00000010 a
b00001101 "C
b00000111 "D
b00000111 o
b0000000000000000000 "9
b101 R
b0000000 C
b00000111 j
b00011010 "E
b00001111 "H
b00000101 "G
#376000
0%
0">
#380000
1%
1">
b0000000000000000000000000101100 1
bxxxxxxx C
b101 Q
b101 "@
b00000101 "C
b00001111 "D
b00001111 o
b0000000000000000000 ":
b110 R
b0000000 C
b00001111 j
b00001010 "E
0"F
b00011110 "H
b000000000000000000000 ";
b0000000000000 "<
b00001010 "G
b00000000 "=
#384000
0%
0">
#388000
1%
1">
b0000000000000000000000000101101 1
bxxxxxxx C
b110 Q
b110 "@
b00001010 "C
b00011110 "D
b00011110 o
bxxxxxxxxxxxxxxxxxxx "7
bxxxxxxxxxxxxxxxxxxx "8
bxxxxxxxxxxxxxxxxxxx "9
bxxxxxxxxxxxxxxxxxxx ":
b111 R
b0000000 C
b00011110 j
b00010100 "E
b00111100 "H
bxxxxxxxxxxxxxxxxxxxxx ";
bxxxxxxxxxxxxx "<
b00010100 "G
bxxxxxxxx "=
#392000
0%
0">
#396000
1%
1">
b0000000000000000000000000101110 1
bxxxxxxx C
b111 Q
b111 "@
b00010100 "C
b00111100 "D
b00111100 o
b0000110 x
b0000110 "B
b00000110 T
b000 R
b0000000 C
b00111100 j
0m
b00001100 "E
b01111000 "H
b00001100 "G
#400000
0%
0">
#404000
1%
1">
b0000000000000000000000000101111 1
bxxxxxxx C
b000 Q
b000 "@
b00000110 S
b00001100 "C
b01111000 "D
b01111000 o
b001 R
b0000000 C
b0000110 n
b01111000 j
b11001000000110 h
1m
b00011000 "E
1"F
b11110001 "H
b00000011 "G
#405000
b00111100 g
#408000
0%
0">
#412000
1%
1">
b0000000000000000000000000110000 1
bxxxxxxx C
b001 Q
b001 "@
b00000011 "C
b11110001 "D
b11110001 o
b010 R
b0000000 C
b11110001 j
b00111100 ^
b00000110 "E
0"F
b11100010 "H
b00000110 "G
#416000
0%
0">
#420000
1%
1">
b0000000000000000000000000110001 1
bxxxxxxx C
b010 Q
b010 "@
b00111100 ]
b0000111010010000 q
b0000001010011100 r
b00000110 "C
b11100010 "D
b11100010 o
b0000000000000000000 "7
b011 R
b0000000 C
b11100010 j
b00001110 `
b00001100 "E
b11000100 "H
b00001100 "G
#424000
0%
0">
#428000
1%
1">
b0000000000000000000000000110010 1
bxxxxxxx C
b011 Q
b011 "@
b00001110 _
b0000001111001000 r
b00001100 "C
b11000100 "D
b11000100 o
b0000000000000000000 "8
b100 R
b0000000 C
b11000100 j
b00000011 b
b00011000 "E
1"F
b10001001 "H
b00000011 "G
#432000
0%
0">
#436000
1%
1">
b0000000000000000000000000110011 1
bxxxxxxx C
b100 Q
b100 "@
b00000011 a
b00000011 "C
b10001001 "D
b10001001 o
b0000000000000000000 "9
b101 R
b0000000 C
b10001001 j
b00000110 "E
0"F
b00010010 "H
b00000110 "G
#440000
0%
0">
#444000
1%
1">
b0000000000000000000000000110100 1
bxxxxxxx C
b101 Q
b101 "@
b00000110 "C
b00010010 "D
b00010010 o
b0000000000000000000 ":
b110 R
b0000000 C
b00010010 j
b00001100 "E
b00100100 "H
b000000000000000000000 ";
b0000000000000 "<
b00001100 "G
b00000000 "=
#448000
0%
0">
#452000
1%
1">
b0000000000000000000000000110101 1
bxxxxxxx C
b110 Q
b110 "@
b00001100 "C
b00100100 "D
b00100100 o
bxxxxxxxxxxxxxxxxxxx "7
bxxxxxxxxxxxxxxxxxxx "8
bxxxxxxxxxxxxxxxxxxx "9
bxxxxxxxxxxxxxxxxxxx ":
b111 R
b0000000 C
b00100100 j
b00011000 "E
1"F
b01001001 "H
bxxxxxxxxxxxxxxxxxxxxx ";
bxxxxxxxxxxxxx "<
b00000011 "G
bxxxxxxxx "=
#456000
0%
0">
#460000
1%
1">
b0000000000000000000000000110110 1
bxxxxxxx C
b111 Q
b111 "@
b00000011 "C
b01001001 "D
b01001001 o
b0000111 x
b0000111 "B
b00000111 T
b000 R
b0000000 C
b01001001 j
0m
b00001110 "E
0"F
b10010010 "H
b00001110 "G
#464000
0%
0">
